<?xml version="1.0" encoding="utf-8"?>
<!-- Generator: Adobe Illustrator 16.0.0, SVG Export Plug-In . SVG Version: 6.00 Build 0)  -->
<!DOCTYPE svg PUBLIC "-//W3C//DTD SVG 1.1//EN" "http://www.w3.org/Graphics/SVG/1.1/DTD/svg11.dtd">
<svg version="1.1" id="レイヤー_1" xmlns="http://www.w3.org/2000/svg" xmlns:xlink="http://www.w3.org/1999/xlink" x="0px"
	 y="0px" width="23.375px" height="30.125px" viewBox="0 0 23.375 30.125" enable-background="new 0 0 23.375 30.125"
	 xml:space="preserve">
<g>
	<path fill="#FFFFFF" d="M2.905,2.538c-1.91,1.238-2.284,5.104-1.564,8.256c0.563,2.454,1.756,5.747,3.766,8.849
		c1.893,2.915,4.531,5.531,6.541,7.045c2.586,1.943,6.27,3.178,8.178,1.941c0.963-0.626,2.397-2.336,2.463-2.642
		c0,0-0.84-1.297-1.022-1.581l-2.819-4.345c-0.212-0.323-1.522-0.027-2.191,0.35c-0.9,0.511-1.73,1.878-1.73,1.878
		c-0.615,0.356-1.133,0.002-2.211-0.496c-1.328-0.609-2.82-2.507-4.008-4.226c-1.084-1.785-2.208-3.923-2.223-5.382
		c-0.018-1.19-0.131-1.806,0.448-2.225c0,0,1.588-0.199,2.421-0.812c0.615-0.456,1.418-1.534,1.211-1.856L7.345,2.945
		C7.161,2.662,6.322,1.368,6.322,1.368C6.014,1.302,3.867,1.912,2.905,2.538z"/>
</g>
</svg>
