<?xml version="1.0" encoding="utf-8"?>
<!-- Generator: Adobe Illustrator 16.0.0, SVG Export Plug-In . SVG Version: 6.00 Build 0)  -->
<!DOCTYPE svg PUBLIC "-//W3C//DTD SVG 1.1//EN" "http://www.w3.org/Graphics/SVG/1.1/DTD/svg11.dtd">
<svg version="1.1" id="レイヤー_1" xmlns="http://www.w3.org/2000/svg" xmlns:xlink="http://www.w3.org/1999/xlink" x="0px"
	 y="0px" width="259.424px" height="71.433px" viewBox="0 0 259.424 71.433" enable-background="new 0 0 259.424 71.433"
	 xml:space="preserve">
<g>
	<g>
		<g>
			<polygon fill="#BCCEEA" points="72.174,64.568 54.049,64.533 54.51,43.035 71.793,43.068 			"/>
			<polygon fill="#83B8E3" points="74.811,44.549 51.698,44.504 63.269,37.256 			"/>
			<rect x="59.406" y="45.912" fill="#80BAE5" width="2.529" height="2.318"/>
			
				<rect x="64.394" y="45.923" transform="matrix(1 0.0023 -0.0023 1 0.1092 -0.152)" fill="#80BAE5" width="2.529" height="2.316"/>
			<rect x="59.4" y="49.563" transform="matrix(1 0.0023 -0.0023 1 0.1177 -0.1404)" fill="#80BAE5" width="2.529" height="2.32"/>
			
				<rect x="64.387" y="49.575" transform="matrix(1 0.0023 -0.0023 1 0.1177 -0.152)" fill="#80BAE5" width="2.529" height="2.318"/>
			
				<rect x="60.363" y="57.143" transform="matrix(1 0.0021 -0.0021 1 0.127 -0.1316)" fill="#D8AF83" width="5.621" height="7.393"/>
			
				<rect x="58.687" y="56.306" transform="matrix(1 0.0019 -0.0019 1 0.1061 -0.1181)" fill="#FFFFFF" width="9.43" height="1.064"/>
		</g>
		<g>
			<polygon fill="#FFF3B4" points="59.598,64.473 41.471,64.439 41.918,51.16 59.201,51.193 			"/>
			<polygon fill="#F4B018" points="62.219,52.674 59.397,52.668 39.106,52.631 50.676,45.383 			"/>
			
				<rect x="46.813" y="54.038" transform="matrix(1 0.0023 -0.0023 1 0.128 -0.1112)" fill="#80BAE5" width="2.529" height="2.318"/>
			<rect x="51.801" y="54.047" fill="#80BAE5" width="2.529" height="2.32"/>
			<rect x="46.806" y="57.691" fill="#80BAE5" width="2.529" height="2.318"/>
			<rect x="51.794" y="57.7" transform="matrix(1 0.0023 -0.0023 1 0.1365 -0.1228)" fill="#80BAE5" width="2.529" height="2.318"/>
		</g>
	</g>
	<g>
		<linearGradient id="SVGID_1_" gradientUnits="userSpaceOnUse" x1="15.9531" y1="42.0391" x2="15.9531" y2="56.7074">
			<stop  offset="0" style="stop-color:#C0D500"/>
			<stop  offset="1" style="stop-color:#7CBC27"/>
		</linearGradient>
		<path fill="url(#SVGID_1_)" d="M16,57.674c-0.855,0-1.723,0.01-2.551-0.092c-1.613-0.195-2.703-0.303-3.676-1.32
			c-1.41-1.479-2.105-3.883-1.781-6.311c0.338-2.527-0.467-4.293,1.051-6.648c0.743-1.148,1.631-2.596,2.412-3.75
			c0.477-0.705,1.396-1.229,2.412-1.615c0.525-0.434,1.855-0.443,2.103-0.443s1.916-0.01,2.35,0.484
			c1.017,0.385,2.122,1.475,2.597,2.178c1.091,1.613,0.785,2.184,1.484,3.268c1.52,2.355,0.656,3.941,1.447,6.365
			c0.545,1.672-0.531,4.832-1.941,6.309c-0.977,1.021-1.742,1.289-3.355,1.484C17.723,57.684,16.858,57.674,16,57.674"/>
		<path fill="#D19300" d="M16.754,53.719l-0.131-3.428l1.965-2.039l1.861-1.455l0.971-0.486c0,0-0.889,0.082-1.012,0.082
			c-0.121,0-1.656,1.213-1.861,1.373c-0.152,0.125-1.387,0.998-1.963,1.408l-0.059-1.488l-0.162-1.217l1.902-2.705l0.646-1.416
			l-2.629,3.357l-0.01,0.09l-0.598-4.459l-0.467,6.416l-2-1.766l-1.254-1.373l0.324,0.646l2.877,3.533l-0.078,3.811l-1.424-1.398
			l-2.711-2.871l0.852,1.414l1.051,1.053l2.207,3.027l-0.307,10.4l2.508-0.043l-0.463-9.498l1.676-1.744l1.375-1.295l1.254-1.455
			c0,0-0.971,0.891-1.334,1.092C19.411,51.48,18.117,53.029,16.754,53.719z"/>
	</g>
	<g>
		<linearGradient id="SVGID_2_" gradientUnits="userSpaceOnUse" x1="38.4463" y1="22.4575" x2="38.4463" y2="49.7171">
			<stop  offset="0" style="stop-color:#C0D500"/>
			<stop  offset="1" style="stop-color:#80AB29"/>
		</linearGradient>
		<path fill="url(#SVGID_2_)" d="M38.536,51.514c-1.592-0.006-3.201,0.014-4.74-0.174c-2.997-0.365-5.021-0.563-6.834-2.457
			c-2.619-2.744-3.906-7.217-3.307-11.725c0.627-4.695-0.867-7.977,1.953-12.352c1.379-2.139,3.031-4.826,4.482-6.971
			c0.883-1.309,2.594-2.283,4.48-2.998c0.978-0.809,3.447-0.826,3.908-0.826c0.459,0,3.561-0.018,4.365,0.898
			c1.889,0.717,3.941,2.74,4.827,4.049c2.026,2.996,1.458,4.057,2.759,6.072c2.82,4.375,1.215,7.322,2.685,11.826
			c1.013,3.104-0.985,8.98-3.608,11.725c-1.811,1.895-3.234,2.393-6.23,2.758C41.737,51.527,40.127,51.508,38.536,51.514"/>
		<path fill="#D19300" d="M39.936,44.16l-0.24-6.369l3.649-3.789l3.458-2.707l1.803-0.9c0,0-1.654,0.15-1.879,0.15
			s-3.082,2.254-3.457,2.557c-0.286,0.229-2.578,1.852-3.652,2.613l-0.105-2.766l-0.303-2.26l3.535-5.029l1.201-2.631l-4.885,6.238
			l-0.018,0.166l-1.107-8.283l-0.871,11.926l-3.715-3.283l-2.33-2.555l0.603,1.203l5.345,6.568l-0.146,7.078l-2.645-2.6
			l-5.035-5.336l1.58,2.631l1.953,1.953l4.102,5.625l-0.569,19.324l4.659-0.074l-0.861-17.65l3.115-3.242l2.555-2.404l2.33-2.705
			c0,0-1.803,1.654-2.479,2.027C44.872,40.002,42.467,42.879,39.936,44.16z"/>
	</g>
	<g>
		<path fill="#D19300" d="M106.219,45.506c-1.771-0.002-4.031,0.111-5.639-0.721c0.674-0.539,1.309-1.111,1.846-1.734
			c0.805-0.936,1.77-3.025,1.906-4.291c-0.838,2.287-3.289,4.42-5.504,5.557c-0.072,0.037-0.141,0.07-0.213,0.105
			c-0.494-1.49-0.126-3.695,0.306-5.059c-1.663,1.041-2.101,3.779-1.646,5.701c-2.484,1.121-4.994,1.863-7.717,2.064
			c0.236-1.498,0.654-3.17,1.217-4.91c0.182-0.023,0.364-0.051,0.545-0.096c1.393-0.348,2.953-1.098,4.081-1.904
			c0.921-0.658,2.134-1.613,3.203-2.723c0.577,0.063,1.155,0.164,1.724,0.191c1.512,0.078,2.965,0.113,4.37-0.34
			c-1.897,0.002-3.604-0.262-5.444-0.57c1.053-1.246,1.836-2.635,1.816-4.002c-0.669,1.762-2.006,2.836-3.516,3.984
			c-0.279,0.211-0.552,0.41-0.824,0.6c-0.357-1.498-0.406-3.174-0.061-4.758c-0.848,1.088-1.603,3.832-0.957,5.41
			c-0.68,0.396-1.396,0.729-2.224,0.996c-0.537,0.174-1.101,0.219-1.655,0.268c1.146-2.895,2.598-5.799,4.172-8.256
			c3.355,0.066,6.879-1.125,9.904-2.205c-2.957,0.336-5.934,0.771-8.969,0.82c1.011-1.418,2.055-2.625,3.086-3.502l-1.285,0.32
			c-0.395,0.414-0.839,0.896-1.316,1.428c-0.549-1.893,0.289-3.949,0.838-5.715c-1.674,1.193-2.061,4.85-1.764,6.768
			c-1.688,1.947-3.658,4.385-5.455,6.902c-0.104-1.143-0.449-2.355-0.51-2.973c-0.125-1.285-0.195-2.559-0.17-3.816
			c0.76-0.088,1.405-0.35,2.082-0.813c0.998-0.682,2.969-2.051,3.107-3.359c-1.482,1.197-3.027,2.359-5.078,2.32
			c0.16-1.504,0.491-2.98,1.072-4.424l-0.227,0.113c-0.709,1.271-1.523,2.205-1.99,3.727c-0.037,0.125-0.072,0.25-0.105,0.375
			c-0.922-0.529-1.908-2.227-2.205-3.057c-0.207-0.576-0.314-1.262-0.322-1.869c-0.521,0.764-0.135,2.201,0.104,3.014
			c0.412,1.416,1.09,2.697,2.096,3.713c-0.098,0.861-0.12,1.734-0.113,2.605c-1.445-0.252-3.506-2.188-3.731-3.5
			c-0.146,2.025,1.956,4.211,3.755,4.814c0.006,0.238,0.014,0.479,0.018,0.717c0.043,1.576,0.438,3.086,0.727,4.592
			c-0.537,0.818-1.043,1.633-1.5,2.428c-0.271-1.061-0.689-2.178-0.959-2.756c-1.008-2.15-2.272-5.102-4.008-6.738
			c-0.346-0.324-0.74-0.67-1.174-1.021c0.779-0.957,1.254-2.465,1.332-3.631c0.037-0.547,0.238-1.926-0.162-2.252
			c-0.111,1.506-1.061,3.928-2.315,4.996c-2.332-1.727-5.265-3.469-7.345-4.193c1.479,0.893,4.882,3.441,6.127,4.861
			c0.135,0.152,0.266,0.309,0.395,0.469c-2.275,0.154-5.793-0.619-5.049-0.193c0.783,0.447,3.059,0.941,3.967,0.982
			c0.693,0.031,1.159,0.061,1.701,0.021c0.686,0.953,1.293,1.984,1.832,3.047c-2.205,1.053-5.314-0.615-7.449-0.125
			c0.592,0.379,1.133,0.527,1.677,0.699c0.959,0.305,1.962,0.469,2.954,0.588c1.111,0.137,2.291,0.148,3.447,0.148
			c0.363,0.811,0.692,1.625,0.988,2.426c0.803,2.166,1.613,4.463,2.166,6.602c-0.105,0.295-0.199,0.582-0.274,0.859
			c-0.198,0.723-0.448,1.898-0.712,3.34c-0.098-0.047-0.203-0.098-0.33-0.16c-1.425-0.701-2.764-1.5-3.974-2.48
			c0.61-2.277,0.239-4.928,0.239-7.238c-0.354,2.162-0.395,4.328-1.24,6.354c-0.285-0.275-0.564-0.559-0.831-0.859
			c-0.298-0.338-0.681-0.813-1.104-1.369c0.3-0.604,0.52-1.365,0.606-1.883c0.266-1.598,0.527-3.965,0.057-4.889
			c-0.002,0.838-0.413,1.838-0.586,2.699c-0.166,0.836-0.689,1.752-1.209,2.494c-1.377-2.025-2.73-4.451-2.719-5.895
			c0,1.807,0.082,3.447,0.463,5.164c-1.756-0.141-3.508-1.482-4.594-2.695c-0.178,1.609,3.043,3.342,4.885,3.822
			c0.168,0.561,0.381,1.129,0.637,1.695c-1.004,0.135-2.08,0.031-3.038-0.152c-0.918-0.176-1.782-0.631-2.599-0.865
			c0.494,0.963,2.109,1.457,3.031,1.713c1.086,0.303,2.137,0.496,3.24,0.553c0.424,0.75,0.912,1.471,1.453,2.131
			c-1.179,0.059-2.164,0.146-3.479-0.035c-0.947-0.129-2.266-0.338-3.32-0.564c0.787,0.275,1.26,0.686,2.111,0.869
			c1.016,0.219,2.002,0.512,3.039,0.605c0.857,0.08,1.711,0.113,2.568,0.133c0.303,0.297,0.615,0.576,0.939,0.828
			c1.318,1.023,3.35,2.656,5.189,3.301c-0.761,4.746-1.473,10.525-1.402,13.365l8.27-0.113c-0.328-0.928-1.176-4.658-1.342-5.477
			c-0.656-3.25-0.836-6.549-0.814-9.926c0.77-0.143,1.557-0.34,2.24-0.439c2.152-0.314,4.336-1.021,6.096-2.324
			c0.52-0.385,1.064-0.77,1.611-1.168C101.705,46.369,104.309,46.531,106.219,45.506z"/>
		<path fill="#81BE25" d="M91.104,22.984c2.473-0.504,3.068-3.354,2.599-5.516c-1.128-0.051-2.399,1.471-2.866,2.336
			c-0.264,0.486-0.447,1.02-0.443,1.574C90.397,22.039,90.758,22.395,91.104,22.984z"/>
		<path fill="#C8D300" d="M86.95,23.359c2.475-0.502,3.069-3.352,2.598-5.514c-1.127-0.049-2.398,1.473-2.865,2.336
			c-0.262,0.486-0.447,1.02-0.443,1.576C86.245,22.418,86.604,22.771,86.95,23.359z"/>
		<path fill="#C8D300" d="M99.186,26.836c2.473-0.506,3.068-3.354,2.598-5.516c-1.127-0.049-2.398,1.471-2.865,2.336
			c-0.264,0.486-0.445,1.02-0.443,1.576C98.479,25.893,98.84,26.248,99.186,26.836z"/>
		<path fill="#98C745" d="M98.007,22.973c2.38-0.848,2.566-3.75,1.796-5.824c-1.121,0.109-2.168,1.793-2.508,2.715
			c-0.192,0.52-0.299,1.072-0.217,1.621C97.176,22.137,97.583,22.439,98.007,22.973z"/>
		<path fill="#98C745" d="M102.885,37.371c2.475-0.504,3.069-3.354,2.599-5.514c-1.126-0.051-2.397,1.471-2.864,2.334
			c-0.266,0.488-0.447,1.021-0.443,1.576C102.18,36.428,102.54,36.783,102.885,37.371z"/>
		<path fill="#C8D300" d="M100.772,34.65c2.473-0.502,3.068-3.352,2.596-5.512c-1.125-0.051-2.398,1.469-2.863,2.334
			c-0.264,0.488-0.445,1.02-0.443,1.576C100.065,33.709,100.426,34.064,100.772,34.65"/>
		<path fill="#C8D300" d="M104.353,37.555c1.312,2.156,4.194,1.748,6.067,0.57c-0.334-1.076-2.197-1.756-3.168-1.902
			c-0.548-0.08-1.111-0.072-1.633,0.119C105,36.57,104.788,37.029,104.353,37.555z"/>
		<path fill="#C8D300" d="M105.038,45.529c2.475-0.506,3.07-3.354,2.598-5.516c-1.125-0.049-2.398,1.471-2.863,2.334
			c-0.264,0.488-0.445,1.021-0.443,1.578C104.333,44.586,104.694,44.941,105.038,45.529z"/>
		<path fill="#98C745" d="M102.224,29.395c2.515-0.211,3.44-2.971,3.228-5.172c-1.113-0.182-2.555,1.178-3.12,1.982
			c-0.319,0.453-0.563,0.961-0.625,1.512C101.633,28.373,101.95,28.77,102.224,29.395z"/>
		<path fill="#C8D300" d="M83.166,24.662c2.077-1.434,1.507-4.287,0.228-6.09c-1.057,0.395-1.631,2.293-1.721,3.27
			c-0.05,0.553-0.01,1.115,0.211,1.625C82.147,24.072,82.618,24.258,83.166,24.662z"/>
		<path fill="#98C745" d="M86.112,18.318c2.078-1.434,1.508-4.289,0.225-6.09c-1.055,0.395-1.627,2.293-1.718,3.27
			c-0.052,0.553-0.009,1.113,0.21,1.625C85.091,17.729,85.563,17.914,86.112,18.318z"/>
		<path fill="#98C745" d="M95.444,18.566c2.367-0.883,2.512-3.789,1.713-5.852c-1.121,0.125-2.143,1.824-2.469,2.752
			c-0.186,0.521-0.283,1.078-0.193,1.625C94.6,17.742,95.012,18.039,95.444,18.566z"/>
		<path fill="#81BE25" d="M102.997,23.926c2.525-0.045,3.629-2.738,3.56-4.949c-1.099-0.254-2.626,1.01-3.243,1.773
			c-0.347,0.432-0.625,0.924-0.722,1.469C102.475,22.869,102.765,23.285,102.997,23.926z"/>
		<path fill="#81BE25" d="M106.963,34.803c2.524-0.045,3.627-2.74,3.559-4.949c-1.1-0.256-2.627,1.008-3.242,1.773
			c-0.35,0.432-0.625,0.922-0.723,1.469C106.44,33.744,106.729,34.16,106.963,34.803z"/>
		<path fill="#C8D300" d="M105.809,29.365c2.367,0.877,4.377-1.229,5.117-3.311c-0.928-0.639-2.812-0.02-3.664,0.469
			c-0.482,0.275-0.918,0.631-1.209,1.104C105.708,28.191,105.827,28.682,105.809,29.365z"/>
		<path fill="#C8D300" d="M91.03,17.799c2.33-0.973,2.361-3.885,1.48-5.912c-1.115,0.17-2.068,1.908-2.357,2.846
			c-0.164,0.529-0.242,1.086-0.129,1.631C90.154,17.012,90.579,17.291,91.03,17.799z"/>
		<path fill="#C8D300" d="M81.002,19.443c1.973-1.576,1.201-4.383-0.203-6.092c-1.025,0.469-1.463,2.402-1.484,3.383
			c-0.012,0.557,0.067,1.113,0.324,1.605C79.944,18.926,80.426,19.078,81.002,19.443z"/>
		<path fill="#81BE25" d="M77.37,22.027c1.147-2.248-0.711-4.488-2.695-5.465c-0.741,0.848-0.344,2.791,0.041,3.695
			c0.219,0.51,0.52,0.984,0.957,1.326C76.192,21.994,76.694,21.934,77.37,22.027z"/>
		<path fill="#C8D300" d="M74.043,24.836c0.222-2.514-2.341-3.895-4.547-4.059c-0.367,1.066,0.727,2.719,1.422,3.412
			c0.393,0.391,0.852,0.717,1.387,0.871C72.938,25.246,73.381,25.002,74.043,24.836z"/>
		<path fill="#98C745" d="M73.201,28.693c-0.634-2.445-3.511-2.889-5.644-2.303c0.01,1.127,1.596,2.316,2.482,2.736
			c0.502,0.238,1.043,0.393,1.598,0.359C72.295,29.447,72.633,29.068,73.201,28.693z"/>
		<path fill="#81BE25" d="M71.5,33.338c-0.633-2.443-3.51-2.887-5.643-2.303c0.01,1.127,1.596,2.318,2.482,2.738
			c0.502,0.236,1.043,0.391,1.598,0.357C70.596,34.094,70.934,33.715,71.5,33.338z"/>
		<path fill="#C8D300" d="M75.364,38.689c0.873-2.369-1.238-4.373-3.324-5.107c-0.635,0.93-0.012,2.813,0.479,3.662
			c0.277,0.482,0.634,0.918,1.107,1.207C74.19,38.795,74.682,38.674,75.364,38.689z"/>
		<path fill="#98C745" d="M70.352,38.385c-0.17-2.52-2.917-3.486-5.121-3.307c-0.199,1.109,1.14,2.57,1.935,3.148
			c0.448,0.326,0.952,0.578,1.503,0.646C69.323,38.959,69.723,38.648,70.352,38.385z"/>
		<path fill="#C8D300" d="M70.352,42.916c-0.17-2.52-2.917-3.486-5.121-3.307c-0.199,1.109,1.14,2.57,1.935,3.148
			c0.448,0.326,0.952,0.578,1.503,0.648C69.323,43.488,69.723,43.18,70.352,42.916z"/>
		<path fill="#98C745" d="M72.307,46.633c-2.176-1.281-4.523,0.439-5.618,2.361c0.804,0.789,2.767,0.51,3.69,0.18
			c0.522-0.186,1.014-0.461,1.385-0.875C72.202,47.805,72.172,47.301,72.307,46.633z"/>
		<path fill="#C8D300" d="M77.008,47.494c-2.523-0.076-3.754,2.564-3.789,4.775c1.085,0.305,2.672-0.885,3.322-1.617
			c0.369-0.416,0.668-0.893,0.793-1.434C77.479,48.574,77.211,48.145,77.008,47.494z"/>
		<path fill="#97C11B" d="M81.533,49.596c-2.485,0.436-3.158,3.27-2.746,5.441c1.124,0.082,2.438-1.404,2.927-2.256
			c0.276-0.48,0.475-1.008,0.486-1.563C82.213,50.559,81.862,50.191,81.533,49.596z"/>
		<path fill="#98C745" d="M78.303,38.504c2.473-0.504,3.068-3.354,2.596-5.514c-1.125-0.049-2.398,1.471-2.865,2.334
			c-0.263,0.488-0.445,1.021-0.441,1.576C77.594,37.563,77.956,37.916,78.303,38.504z"/>
		<path fill="#C8D300" d="M82.456,47.492c2.473-0.504,3.07-3.354,2.598-5.514c-1.127-0.051-2.398,1.471-2.865,2.334
			c-0.262,0.488-0.447,1.02-0.443,1.576C81.75,46.549,82.11,46.904,82.456,47.492z"/>
		<path fill="#C8D300" d="M86.309,36.842c2.473-0.504,3.066-3.354,2.596-5.514c-1.127-0.049-2.398,1.471-2.865,2.334
			c-0.264,0.488-0.445,1.021-0.441,1.576C85.602,35.898,85.961,36.254,86.309,36.842z"/>
		<path fill="#98C745" d="M90.764,33.52c2.475-0.504,3.068-3.354,2.596-5.514c-1.125-0.051-2.398,1.469-2.863,2.334
			c-0.264,0.488-0.446,1.021-0.443,1.576C90.057,32.574,90.418,32.932,90.764,33.52z"/>
		<path fill="#98C745" d="M77.963,27.516c2.473-0.504,3.066-3.355,2.596-5.516c-1.126-0.049-2.398,1.471-2.865,2.334
			c-0.262,0.49-0.447,1.021-0.441,1.578C77.256,26.572,77.616,26.926,77.963,27.516z"/>
		<path fill="#98C745" d="M81.133,42.355c2.475-0.502,3.068-3.354,2.6-5.514c-1.127-0.051-2.4,1.471-2.866,2.334
			c-0.263,0.488-0.446,1.021-0.442,1.578C80.428,41.412,80.788,41.768,81.133,42.355z"/>
		<path fill="#98C745" d="M86.258,30.988c1.375-2.117-0.24-4.539-2.109-5.719c-0.826,0.768-0.633,2.742-0.346,3.68
			c0.164,0.529,0.416,1.035,0.813,1.422C85.09,30.83,85.596,30.822,86.258,30.988z"/>
		<path fill="#97C11B" d="M93.823,26.949c2.475-0.504,3.068-3.354,2.598-5.516c-1.127-0.049-2.399,1.471-2.865,2.334
			c-0.264,0.488-0.445,1.021-0.443,1.578C93.116,26.004,93.477,26.361,93.823,26.949z"/>
		<path fill="#97C11B" d="M96.315,36.012c2.475-0.504,3.068-3.354,2.598-5.514c-1.127-0.051-2.398,1.469-2.864,2.334
			c-0.263,0.488-0.447,1.02-0.443,1.576C95.61,35.068,95.969,35.424,96.315,36.012z"/>
		<path fill="#81BE25" d="M98.014,43.375c2.475-0.504,3.068-3.352,2.598-5.514c-1.127-0.051-2.398,1.471-2.865,2.334
			c-0.262,0.488-0.445,1.021-0.441,1.576C97.307,42.434,97.668,42.789,98.014,43.375z"/>
		<path fill="#97C11B" d="M94.915,47.055c1.705-1.861,0.512-4.516-1.139-5.988c-0.942,0.623-1.076,2.602-0.947,3.574
			c0.074,0.549,0.24,1.088,0.568,1.535C93.788,46.707,94.29,46.781,94.915,47.055z"/>
		<path fill="#98C745" d="M100.891,45.98c-0.656,2.439,1.625,4.246,3.77,4.793c0.547-0.984-0.242-2.803-0.807-3.607
			c-0.318-0.453-0.713-0.857-1.211-1.102C102.051,45.773,101.573,45.936,100.891,45.98z"/>
		<path fill="#C8D300" d="M95.983,47.793c-0.658,2.439,1.625,4.246,3.768,4.793c0.549-0.984-0.242-2.805-0.805-3.607
			c-0.318-0.453-0.713-0.855-1.212-1.102C97.143,47.584,96.663,47.748,95.983,47.793z"/>
		<path fill="#C8D300" d="M92.623,48.951c-1.722,1.848-0.55,4.512,1.087,5.996c0.945-0.611,1.098-2.59,0.977-3.564
			c-0.068-0.549-0.23-1.088-0.555-1.539C93.745,49.309,93.245,49.229,92.623,48.951z"/>
		<path fill="#97C11B" d="M77.84,30.129c-1.861-1.703-4.516-0.51-5.987,1.143c0.622,0.939,2.601,1.076,3.571,0.945
			c0.551-0.074,1.09-0.24,1.537-0.57C77.493,31.256,77.57,30.756,77.84,30.129z"/>
	</g>
	<g>
		<ellipse fill="#4EB133" cx="137.402" cy="65.256" rx="35.2" ry="1.873"/>
		<ellipse fill="#4EB133" cx="46.475" cy="65.256" rx="43.143" ry="1.873"/>
		<ellipse fill="#FFF237" cx="33.203" cy="64.686" rx="0.937" ry="0.57"/>
		<ellipse fill="#FFF237" cx="42.238" cy="65.664" rx="0.937" ry="0.57"/>
		<ellipse fill="#FFF237" cx="50.469" cy="65.174" rx="0.937" ry="0.57"/>
		<ellipse fill="#FFF237" cx="60.505" cy="65.053" rx="0.937" ry="0.57"/>
		<path fill="#FFF237" d="M69.674,66.15c0,0.316-0.419,0.572-0.938,0.572c-0.517,0-0.936-0.256-0.936-0.572
			c0-0.313,0.419-0.568,0.936-0.568C69.255,65.582,69.674,65.838,69.674,66.15z"/>
		<ellipse fill="#FFF237" cx="75.564" cy="64.93" rx="0.938" ry="0.57"/>
		<ellipse fill="#FFFFFF" cx="71.548" cy="64.564" rx="0.937" ry="0.57"/>
		<ellipse fill="#F08D34" cx="80.884" cy="65.236" rx="0.937" ry="0.57"/>
		<ellipse fill="#FFFFFF" cx="64.722" cy="64.85" rx="0.937" ry="0.568"/>
		<ellipse fill="#FFFFFF" cx="53.881" cy="64.443" rx="0.937" ry="0.57"/>
		<ellipse fill="#FFFFFF" cx="45.048" cy="64.523" rx="0.937" ry="0.57"/>
		<ellipse fill="#FFFFFF" cx="38.623" cy="65.256" rx="0.937" ry="0.57"/>
		<ellipse fill="#FFFFFF" cx="29.523" cy="64.768" rx="0.937" ry="0.57"/>
		<ellipse fill="#FFF24A" cx="25.012" cy="65.332" rx="0.402" ry="0.244"/>
		<ellipse fill="#FFF24A" cx="36.657" cy="64.355" rx="0.402" ry="0.244"/>
		<ellipse fill="#FFF24A" cx="46.829" cy="65.82" rx="0.402" ry="0.244"/>
		<ellipse fill="#FFF24A" cx="55.662" cy="65.332" rx="0.401" ry="0.244"/>
		<ellipse fill="#FFF24A" cx="59.542" cy="64.111" rx="0.401" ry="0.244"/>
		<path fill="#FFF24A" d="M67.842,64.682c0,0.135-0.18,0.242-0.4,0.242c-0.223,0-0.402-0.107-0.402-0.242
			c0-0.137,0.18-0.246,0.402-0.246C67.663,64.436,67.842,64.545,67.842,64.682z"/>
		<ellipse fill="#FFF24A" cx="78.683" cy="65.496" rx="0.401" ry="0.244"/>
		<path fill="#FFF24A" d="M83.368,65.25c0,0.135-0.18,0.246-0.402,0.246c-0.221,0-0.4-0.111-0.4-0.246c0-0.133,0.18-0.242,0.4-0.242
			C83.188,65.008,83.368,65.117,83.368,65.25z"/>
		<path fill="#4EB133" d="M140.188,65.256c0,1.035-15.762,1.873-35.199,1.873c-19.441,0-35.202-0.838-35.202-1.873
			c0-1.033,15.761-1.873,35.202-1.873C124.426,63.383,140.188,64.223,140.188,65.256z"/>
		<ellipse fill="#FFF237" cx="83.773" cy="64.686" rx="0.937" ry="0.57"/>
		<ellipse fill="#FFF237" cx="92.808" cy="65.664" rx="0.937" ry="0.57"/>
		<ellipse fill="#FFF237" cx="101.039" cy="65.174" rx="0.936" ry="0.57"/>
		<ellipse fill="#FFF237" cx="111.077" cy="65.053" rx="0.937" ry="0.57"/>
		<path fill="#FFF237" d="M120.245,66.15c0,0.316-0.42,0.572-0.938,0.572c-0.516,0-0.938-0.256-0.938-0.572
			c0-0.313,0.422-0.568,0.938-0.568C119.825,65.582,120.245,65.838,120.245,66.15z"/>
		<ellipse fill="#FFF237" cx="126.134" cy="64.93" rx="0.937" ry="0.57"/>
		<ellipse fill="#FFFFFF" cx="122.119" cy="64.564" rx="0.937" ry="0.57"/>
		<ellipse fill="#FFFFFF" cx="131.454" cy="65.236" rx="0.937" ry="0.57"/>
		<ellipse fill="#FFFFFF" cx="115.292" cy="64.85" rx="0.937" ry="0.568"/>
		<ellipse fill="#FFFFFF" cx="104.452" cy="64.443" rx="0.937" ry="0.57"/>
		<ellipse fill="#FFFFFF" cx="95.618" cy="64.523" rx="0.938" ry="0.57"/>
		<ellipse fill="#FFFFFF" cx="89.194" cy="65.256" rx="0.938" ry="0.57"/>
		<ellipse fill="#FFFFFF" cx="80.093" cy="64.768" rx="0.937" ry="0.57"/>
		<ellipse fill="#FFFFFF" cx="75.583" cy="65.332" rx="0.4" ry="0.244"/>
		<ellipse fill="#FFF24A" cx="87.227" cy="64.355" rx="0.402" ry="0.244"/>
		<ellipse fill="#FFF24A" cx="97.398" cy="65.82" rx="0.402" ry="0.244"/>
		<ellipse fill="#FFF24A" cx="106.232" cy="65.332" rx="0.401" ry="0.244"/>
		<ellipse fill="#FFF24A" cx="110.114" cy="64.111" rx="0.402" ry="0.244"/>
		<path fill="#FFF24A" d="M118.413,64.682c0,0.135-0.18,0.242-0.402,0.242c-0.221,0-0.4-0.107-0.4-0.242
			c0-0.137,0.18-0.246,0.4-0.246C118.233,64.436,118.413,64.545,118.413,64.682z"/>
		<ellipse fill="#FFF24A" cx="129.253" cy="65.496" rx="0.401" ry="0.244"/>
		<path fill="#FFF24A" d="M133.938,65.25c0,0.135-0.18,0.246-0.402,0.246c-0.221,0-0.401-0.111-0.401-0.246
			c0-0.133,0.181-0.242,0.401-0.242C133.758,65.008,133.938,65.117,133.938,65.25z"/>
		<ellipse fill="#4EB133" cx="169.716" cy="65.256" rx="35.2" ry="1.873"/>
		<ellipse fill="#FFF237" cx="148.502" cy="64.686" rx="0.938" ry="0.57"/>
		<ellipse fill="#FFF237" cx="157.537" cy="65.664" rx="0.937" ry="0.57"/>
		<ellipse fill="#FFF237" cx="165.769" cy="65.174" rx="0.938" ry="0.57"/>
		<ellipse fill="#FFF237" cx="175.806" cy="65.053" rx="0.937" ry="0.57"/>
		<path fill="#FFF237" d="M184.973,66.15c0,0.316-0.418,0.572-0.936,0.572c-0.517,0-0.936-0.256-0.936-0.572
			c0-0.313,0.419-0.568,0.936-0.568C184.555,65.582,184.973,65.838,184.973,66.15z"/>
		<ellipse fill="#FFF237" cx="190.864" cy="64.93" rx="0.938" ry="0.57"/>
		<ellipse fill="#FFFFFF" cx="186.849" cy="64.564" rx="0.936" ry="0.57"/>
		<ellipse fill="#F08D34" cx="196.184" cy="65.236" rx="0.938" ry="0.57"/>
		<ellipse fill="#FFFFFF" cx="180.023" cy="64.85" rx="0.937" ry="0.568"/>
		<ellipse fill="#FFFFFF" cx="169.181" cy="64.443" rx="0.937" ry="0.57"/>
		<ellipse fill="#FFFFFF" cx="160.348" cy="64.523" rx="0.938" ry="0.57"/>
		<ellipse fill="#FFFFFF" cx="153.923" cy="65.256" rx="0.937" ry="0.57"/>
		<ellipse fill="#FFFFFF" cx="144.822" cy="64.768" rx="0.937" ry="0.57"/>
		<ellipse fill="#FFF24A" cx="140.312" cy="65.332" rx="0.401" ry="0.244"/>
		<ellipse fill="#FFF24A" cx="151.957" cy="64.355" rx="0.403" ry="0.244"/>
		<ellipse fill="#FFF24A" cx="162.128" cy="65.82" rx="0.401" ry="0.244"/>
		<ellipse fill="#FFF24A" cx="170.961" cy="65.332" rx="0.402" ry="0.244"/>
		<ellipse fill="#FFF24A" cx="174.843" cy="64.111" rx="0.401" ry="0.244"/>
		<path fill="#FFF24A" d="M183.141,64.682c0,0.135-0.18,0.242-0.402,0.242c-0.221,0-0.4-0.107-0.4-0.242
			c0-0.137,0.18-0.246,0.4-0.246C182.961,64.436,183.141,64.545,183.141,64.682z"/>
		<ellipse fill="#FFF24A" cx="193.982" cy="65.496" rx="0.401" ry="0.244"/>
		<path fill="#FFF24A" d="M198.667,65.25c0,0.135-0.178,0.246-0.4,0.246s-0.402-0.111-0.402-0.246c0-0.133,0.18-0.242,0.402-0.242
			S198.667,65.117,198.667,65.25z"/>
		<ellipse fill="#4EB133" cx="220.286" cy="65.256" rx="35.2" ry="1.873"/>
		<ellipse fill="#FFF237" cx="199.072" cy="64.686" rx="0.936" ry="0.57"/>
		<ellipse fill="#FFF237" cx="208.108" cy="65.664" rx="0.937" ry="0.57"/>
		<ellipse fill="#FFF237" cx="216.339" cy="65.174" rx="0.937" ry="0.57"/>
		<ellipse fill="#FFF237" cx="226.377" cy="65.053" rx="0.938" ry="0.57"/>
		<path fill="#FFF237" d="M235.545,66.15c0,0.316-0.42,0.572-0.938,0.572s-0.938-0.256-0.938-0.572c0-0.313,0.42-0.568,0.938-0.568
			S235.545,65.838,235.545,66.15z"/>
		<ellipse fill="#FFF237" cx="241.433" cy="64.93" rx="0.937" ry="0.57"/>
		<ellipse fill="#FFFFFF" cx="237.418" cy="64.564" rx="0.938" ry="0.57"/>
		<ellipse fill="#FFFFFF" cx="246.755" cy="65.236" rx="0.937" ry="0.57"/>
		<ellipse fill="#FFFFFF" cx="230.592" cy="64.85" rx="0.936" ry="0.568"/>
		<ellipse fill="#FFFFFF" cx="219.751" cy="64.443" rx="0.937" ry="0.57"/>
		<ellipse fill="#FFFFFF" cx="210.918" cy="64.523" rx="0.937" ry="0.57"/>
		<ellipse fill="#FFFFFF" cx="204.494" cy="65.256" rx="0.937" ry="0.57"/>
		<ellipse fill="#FFFFFF" cx="195.392" cy="64.768" rx="0.937" ry="0.57"/>
		<ellipse fill="#FFF24A" cx="190.882" cy="65.332" rx="0.401" ry="0.244"/>
		<ellipse fill="#FFF24A" cx="202.527" cy="64.355" rx="0.401" ry="0.244"/>
		<path fill="#FFF24A" d="M213.1,65.82c0,0.135-0.178,0.244-0.402,0.244c-0.221,0-0.399-0.109-0.399-0.244s0.179-0.244,0.399-0.244
			C212.922,65.576,213.1,65.686,213.1,65.82z"/>
		<ellipse fill="#FFF24A" cx="221.533" cy="65.332" rx="0.401" ry="0.244"/>
		<ellipse fill="#FFF24A" cx="225.415" cy="64.111" rx="0.402" ry="0.244"/>
		<path fill="#FFF24A" d="M233.711,64.682c0,0.135-0.179,0.242-0.4,0.242c-0.223,0-0.402-0.107-0.402-0.242
			c0-0.137,0.18-0.246,0.402-0.246C233.533,64.436,233.711,64.545,233.711,64.682z"/>
		<ellipse fill="#FFF24A" cx="244.553" cy="65.496" rx="0.402" ry="0.244"/>
		<path fill="#FFF24A" d="M249.238,65.25c0,0.135-0.181,0.246-0.401,0.246c-0.223,0-0.402-0.111-0.402-0.246
			c0-0.133,0.18-0.242,0.402-0.242C249.057,65.008,249.238,65.117,249.238,65.25z"/>
	</g>
	<g>
		<g>
			<polygon fill="#FAC752" points="128.284,62.939 101.537,62.9 102.185,43.309 127.69,43.346 			"/>
			
				<rect x="104.8" y="55.388" transform="matrix(1 0.0011 -0.0011 1 0.0641 -0.1166)" fill="#B47860" width="5.402" height="7.396"/>
			
				<rect x="110.963" y="55.388" transform="matrix(1 0.0011 -0.0011 1 0.0642 -0.1232)" fill="#B47860" width="5.402" height="7.396"/>
			<polygon fill="#D19386" points="132.143,45.527 98.036,45.48 115.105,34.773 			"/>
			
				<rect x="109.411" y="47.55" transform="matrix(1 0.0016 -0.0016 1 0.0775 -0.1746)" fill="#80BAE5" width="3.732" height="3.42"/>
			<rect x="116.773" y="47.557" fill="#80BAE5" width="3.732" height="3.424"/>
			<rect x="118.451" y="57.804" fill="#80BAE5" width="2.559" height="2.719"/>
			<rect x="121.837" y="57.809" fill="#80BAE5" width="2.557" height="2.719"/>
		</g>
		<path fill="#FFFFFF" d="M105.426,56.014c0,0.936-1.936,0.934-1.934-0.002c0-0.934,0.004-2.166,0.004-2.166l1.934,0.002
			C105.43,53.848,105.428,55.08,105.426,56.014z"/>
		<path fill="#EC7DAD" d="M107.362,56.018c0,0.936-1.936,0.932-1.936-0.004c0.002-0.934,0.004-2.166,0.004-2.166l1.936,0.004
			C107.366,53.852,107.365,55.084,107.362,56.018z"/>
		<path fill="#FFFFFF" d="M109.299,56.021c-0.002,0.934-1.938,0.932-1.938-0.004c0.003-0.934,0.004-2.166,0.004-2.166l1.936,0.002
			C109.301,53.854,109.299,55.088,109.299,56.021z"/>
		<path fill="#EC7DAD" d="M111.233,56.023c0,0.934-1.936,0.932-1.934-0.002c0-0.934,0.002-2.168,0.002-2.168l1.936,0.004
			C111.237,53.857,111.235,55.088,111.233,56.023z"/>
		<path fill="#FFFFFF" d="M113.168,56.025c0,0.938-1.936,0.932-1.936-0.002c0.002-0.936,0.004-2.166,0.004-2.166l1.936,0.002
			C113.172,53.859,113.17,55.092,113.168,56.025z"/>
		<path fill="#EC7DAD" d="M115.104,56.029c-0.002,0.934-1.936,0.934-1.936-0.004c0.002-0.934,0.004-2.166,0.004-2.166l1.936,0.002
			C115.108,53.861,115.106,55.094,115.104,56.029z"/>
		<path fill="#FFFFFF" d="M117.04,56.031c0,0.936-1.938,0.932-1.936-0.002c0.002-0.936,0.004-2.168,0.004-2.168l1.936,0.004
			C117.043,53.865,117.042,55.098,117.04,56.031z"/>
		<path fill="#EC7DAD" d="M118.975,56.035c0,0.934-1.936,0.932-1.936-0.004c0.002-0.934,0.004-2.166,0.004-2.166l1.936,0.002
			C118.979,53.867,118.977,55.1,118.975,56.035z"/>
		<path fill="#FFFFFF" d="M120.911,56.037c-0.002,0.934-1.936,0.932-1.936-0.002c0.002-0.936,0.004-2.168,0.004-2.168l1.934,0.002
			C120.913,53.869,120.913,55.102,120.911,56.037z"/>
		<path fill="#EC7DAD" d="M122.846,56.041c-0.001,0.934-1.938,0.93-1.936-0.004c0.002-0.936,0.002-2.168,0.002-2.168l1.936,0.004
			C122.848,53.873,122.846,55.105,122.846,56.041z"/>
		<path fill="#FFFFFF" d="M124.782,56.043c-0.002,0.934-1.937,0.932-1.936-0.002c0-0.936,0.002-2.168,0.002-2.168l1.936,0.002
			C124.784,53.875,124.784,55.107,124.782,56.043z"/>
		<path fill="#EC7DAD" d="M126.717,56.045c-0.002,0.936-1.938,0.932-1.936-0.002c0.002-0.936,0.002-2.168,0.002-2.168l1.936,0.002
			C126.719,53.877,126.718,55.109,126.717,56.045z"/>
	</g>
	<g>
		<rect x="177.444" y="21.16" fill="#F3DE7C" width="28.643" height="42.119"/>
		<rect x="177.36" y="39.939" fill="#E1BD74" width="28.662" height="1.057"/>
		<rect x="177.36" y="32.176" fill="#E1BD74" width="28.662" height="1.055"/>
		<rect x="177.36" y="48.184" fill="#E1BD74" width="28.662" height="1.055"/>
		<rect x="196.266" y="26.762" fill="#98BEE5" width="5.152" height="4.482"/>
		<rect x="189.094" y="26.762" fill="#98BEE5" width="5.154" height="4.482"/>
		<rect x="181.924" y="26.762" fill="#98BEE5" width="5.154" height="4.482"/>
		<rect x="196.266" y="34.381" fill="#98BEE5" width="5.152" height="4.48"/>
		<rect x="189.094" y="34.381" fill="#98BEE5" width="5.154" height="4.48"/>
		<rect x="196.266" y="48.57" fill="#98BEE5" width="5.152" height="4.482"/>
		<rect x="181.924" y="34.381" fill="#98BEE5" width="5.154" height="4.48"/>
		<rect x="196.266" y="42.561" fill="#98BEE5" width="5.152" height="4.48"/>
		<rect x="189.094" y="42.561" fill="#98BEE5" width="5.154" height="4.48"/>
		<rect x="181.924" y="42.561" fill="#98BEE5" width="5.154" height="4.48"/>
		<rect x="196.266" y="50.23" fill="#98BEE5" width="5.152" height="4.48"/>
		<rect x="189.094" y="50.23" fill="#98BEE5" width="5.154" height="4.48"/>
		<rect x="181.924" y="50.23" fill="#98BEE5" width="5.154" height="4.48"/>
	</g>
	<g>
		<linearGradient id="SVGID_3_" gradientUnits="userSpaceOnUse" x1="230.3071" y1="27.9424" x2="230.3071" y2="53.657">
			<stop  offset="0" style="stop-color:#DEE100"/>
			<stop  offset="1" style="stop-color:#53A934"/>
		</linearGradient>
		<path fill="url(#SVGID_3_)" d="M230.307,55.352c-0.748-0.002-1.506,0.016-2.23-0.16c-1.41-0.342-3.578-1.732-4.43-3.5
			c-1.232-2.555-1.268-5.467-0.791-8.361c0.692-4.199,1.226-8.291,2.553-12.367c0.648-1.992,1.355-3.852,2.037-5.854
			c0.416-1.219,0.757-3.678,1.645-4.346c0.459-0.75,0.73-0.787,0.947-0.787c0.215,0,1.107-0.068,1.486,0.787
			c0.887,0.668,1.229,3.127,1.645,4.346c0.683,2.002,1.391,3.861,2.038,5.854c1.328,4.076,1.861,8.168,2.552,12.367
			c0.476,2.895,0.443,5.807-0.79,8.361c-0.854,1.768-3.021,3.158-4.431,3.5C231.815,55.367,231.055,55.35,230.307,55.352"/>
		<path fill="#D19300" d="M231.063,51.383l-0.13-3.436l1.969-2.043l1.866-1.461l0.973-0.488c0,0-0.893,0.084-1.014,0.084
			c-0.119,0-1.662,1.215-1.865,1.377c-0.154,0.123-1.391,1-1.971,1.41l-0.057-1.49l-0.104-1.307l1.848-2.627l0.648-1.42
			l-2.557,3.264l-0.605-7.697l-0.561,9.844l-1.996-1.76l-1.256-1.381l0.324,0.65l2.885,3.545l-0.079,3.818l-1.427-1.402
			l-2.717-2.879l0.85,1.42l1.057,1.053l2.213,3.035l-0.268,13.105l2.473,0.08L231.1,52.355l1.68-1.748l1.381-1.299l1.256-1.461
			c0,0-0.973,0.895-1.34,1.096C233.727,49.141,232.428,50.693,231.063,51.383z"/>
	</g>
	<g>
		<rect x="195.805" y="46.637" fill="#E4F1E0" width="23.743" height="15.924"/>
		<rect x="208.04" y="57.131" fill="#80BAE5" width="8.832" height="3.621"/>
		<polygon fill="#9BAAD3" points="220.709,48.951 193.778,48.951 196.963,43.74 218.102,43.74 		"/>
		<rect x="200.44" y="50.326" fill="#80BAE5" width="3.039" height="2.607"/>
		<rect x="206.084" y="50.326" fill="#80BAE5" width="3.041" height="2.607"/>
		<rect x="211.731" y="50.326" fill="#80BAE5" width="3.041" height="2.607"/>
		<polygon fill="#B47860" points="204.782,62.488 200.655,62.488 200.655,56.191 202.719,54.617 204.782,56.191 		"/>
		<rect x="207.098" y="55.25" fill="#EF94BB" width="0.955" height="2.605"/>
		<rect x="208.053" y="55.25" fill="#FFFFFF" width="0.955" height="2.605"/>
		<rect x="209.008" y="55.25" fill="#EF94BB" width="0.955" height="2.605"/>
		<rect x="209.963" y="55.25" fill="#FFFFFF" width="0.957" height="2.605"/>
		<rect x="210.92" y="55.25" fill="#EF94BB" width="0.955" height="2.605"/>
		<rect x="211.875" y="55.25" fill="#FFFFFF" width="0.956" height="2.605"/>
		<rect x="212.832" y="55.25" fill="#EF94BB" width="0.956" height="2.605"/>
		<rect x="213.788" y="55.25" fill="#FFFFFF" width="0.955" height="2.605"/>
		<rect x="214.743" y="55.25" fill="#EF94BB" width="0.955" height="2.605"/>
		<rect x="216.655" y="55.25" fill="#EF94BB" width="0.955" height="2.605"/>
		<rect x="215.698" y="55.25" fill="#FFFFFF" width="0.957" height="2.605"/>
	</g>
	<g>
		<linearGradient id="SVGID_4_" gradientUnits="userSpaceOnUse" x1="167.0015" y1="14.3608" x2="167.0015" y2="47.8003">
			<stop  offset="0" style="stop-color:#DEE100"/>
			<stop  offset="1" style="stop-color:#53A934"/>
		</linearGradient>
		<path fill="url(#SVGID_4_)" d="M167.002,50.004c-0.975-0.004-1.961,0.02-2.902-0.207c-1.833-0.445-4.651-2.254-5.76-4.551
			c-1.604-3.324-1.648-7.113-1.029-10.877c0.9-5.457,1.593-10.779,3.318-16.082c0.844-2.592,1.762-5.008,2.65-7.609
			c0.542-1.588,0.985-4.787,2.141-5.654c0.598-0.977,0.947-1.021,1.23-1.021c0.279,0,1.44-0.092,1.933,1.021
			c1.155,0.867,1.599,4.066,2.14,5.654c0.887,2.602,1.805,5.018,2.65,7.609c1.727,5.303,2.418,10.625,3.318,16.082
			c0.619,3.764,0.575,7.553-1.027,10.877c-1.109,2.297-3.928,4.105-5.763,4.551C168.959,50.023,167.975,50,167.002,50.004"/>
		<path fill="#D19300" d="M167.984,44.846l-0.169-4.471l2.563-2.658l2.425-1.898l1.266-0.633c0,0-1.161,0.105-1.318,0.105
			c-0.158,0-2.161,1.582-2.425,1.793c-0.202,0.16-1.81,1.299-2.564,1.834l-0.074-1.939l-0.134-1.697l2.402-3.418l0.843-1.848
			l-3.324,4.248l-0.787-10.012l-0.73,12.803l-2.592-2.291l-1.637-1.793l0.424,0.844l3.75,4.609l-0.103,4.967l-1.856-1.824
			l-3.533-3.744l1.107,1.846l1.371,1.371l2.879,3.947l-0.346,17.041l3.216,0.105l-0.604-16.023l2.186-2.275l1.795-1.688l1.633-1.898
			c0,0-1.266,1.16-1.74,1.424C171.448,41.926,169.76,43.947,167.984,44.846z"/>
	</g>
	<g>
		<linearGradient id="SVGID_5_" gradientUnits="userSpaceOnUse" x1="171.3989" y1="55.0796" x2="171.3989" y2="61.2088">
			<stop  offset="0" style="stop-color:#C0D500"/>
			<stop  offset="1" style="stop-color:#7CBC27"/>
		</linearGradient>
		<path fill="url(#SVGID_5_)" d="M181.122,62.582c0,1.797-19.445,1.375-19.445,0c0-4.492,4.352-8.137,9.723-8.137
			C176.768,54.445,181.122,58.09,181.122,62.582z"/>
		<circle fill="#FFF8AE" cx="166.8" cy="57.615" r="0.423"/>
		<circle fill="#FFF8AE" cx="171.028" cy="56.242" r="0.423"/>
		<circle fill="#FFF8AE" cx="170.447" cy="58.938" r="0.421"/>
		<circle fill="#FFF8AE" cx="175.52" cy="59.096" r="0.424"/>
		<circle fill="#FFF8AE" cx="175.626" cy="56.928" r="0.422"/>
		<circle fill="#FFF8AE" cx="164.317" cy="59.676" r="0.422"/>
		<path fill="#FFF8AE" d="M179.167,60.047c0,0.232-0.191,0.422-0.422,0.422c-0.234,0-0.424-0.189-0.424-0.422
			c0-0.234,0.189-0.424,0.424-0.424C178.975,59.623,179.167,59.813,179.167,60.047z"/>
	</g>
	<g>
		<linearGradient id="SVGID_6_" gradientUnits="userSpaceOnUse" x1="245.2915" y1="40.3901" x2="245.2915" y2="56.2354">
			<stop  offset="0" style="stop-color:#C0D500"/>
			<stop  offset="1" style="stop-color:#80AB29"/>
		</linearGradient>
		<path fill="url(#SVGID_6_)" d="M245.344,57.279c-0.926-0.002-1.861,0.01-2.756-0.1c-1.742-0.213-2.92-0.326-3.973-1.43
			c-1.521-1.594-2.271-4.193-1.922-6.814c0.363-2.73-0.504-4.637,1.135-7.18c0.803-1.242,1.762-2.805,2.605-4.053
			c0.514-0.76,1.508-1.326,2.604-1.742c0.567-0.469,2.005-0.48,2.272-0.48c0.266,0,2.07-0.012,2.537,0.523
			c1.098,0.416,2.291,1.592,2.805,2.354c1.18,1.74,0.848,2.357,1.604,3.527c1.641,2.545,0.707,4.258,1.562,6.877
			c0.588,1.803-0.573,5.219-2.097,6.814c-1.053,1.102-1.881,1.391-3.623,1.604C247.205,57.289,246.268,57.277,245.344,57.279"/>
		<path fill="#D19300" d="M246.157,53.006l-0.14-3.703l2.122-2.203l2.01-1.572l1.049-0.523c0,0-0.961,0.088-1.094,0.088
			c-0.131,0-1.791,1.311-2.008,1.484c-0.166,0.133-1.498,1.076-2.125,1.52l-0.061-1.607l-0.176-1.314l2.055-2.922l0.698-1.529
			l-2.839,3.625l-0.012,0.098l-0.643-4.814l-0.506,6.932l-2.16-1.908l-1.354-1.484l0.35,0.699l3.105,3.816l-0.082,4.115l-1.537-1.51
			l-2.928-3.102l0.917,1.527l1.136,1.137l2.385,3.27l-0.331,11.232l2.708-0.043l-0.502-10.262l1.813-1.883l1.484-1.396l1.355-1.574
			c0,0-1.049,0.961-1.441,1.18C249.026,50.588,247.629,52.262,246.157,53.006z"/>
	</g>
	<g>
		<path fill="#D19300" d="M155.28,49.336c-1.256,0-2.859,0.08-4-0.51c0.477-0.385,0.928-0.789,1.311-1.232
			c0.57-0.662,1.256-2.146,1.352-3.045c-0.594,1.623-2.334,3.137-3.906,3.943c-0.049,0.025-0.099,0.051-0.149,0.076
			c-0.352-1.057-0.089-2.623,0.216-3.59c-1.18,0.736-1.49,2.682-1.168,4.045c-1.763,0.795-3.543,1.32-5.475,1.465
			c0.168-1.063,0.464-2.248,0.861-3.484c0.131-0.016,0.26-0.037,0.387-0.068c0.988-0.246,2.098-0.779,2.897-1.35
			c0.651-0.467,1.513-1.145,2.272-1.932c0.41,0.043,0.821,0.115,1.223,0.135c1.074,0.055,2.105,0.082,3.102-0.24
			c-1.348,0-2.557-0.188-3.861-0.406c0.746-0.883,1.303-1.871,1.289-2.838c-0.477,1.248-1.426,2.012-2.496,2.826
			c-0.199,0.15-0.393,0.291-0.585,0.426c-0.253-1.064-0.288-2.252-0.044-3.377c-0.6,0.771-1.135,2.719-0.68,3.84
			c-0.48,0.281-0.988,0.516-1.576,0.707c-0.381,0.123-0.782,0.154-1.176,0.189c0.813-2.053,1.844-4.117,2.962-5.859
			c2.38,0.049,4.882-0.797,7.027-1.564c-2.099,0.238-4.21,0.549-6.364,0.582c0.718-1.006,1.457-1.863,2.189-2.484l-0.912,0.229
			c-0.279,0.293-0.594,0.635-0.932,1.012c-0.391-1.344,0.203-2.803,0.593-4.055c-1.188,0.848-1.462,3.439-1.251,4.801
			c-1.198,1.383-2.595,3.111-3.87,4.898c-0.075-0.811-0.321-1.67-0.362-2.109c-0.088-0.912-0.141-1.816-0.121-2.707
			c0.539-0.063,0.996-0.25,1.477-0.578c0.709-0.482,2.107-1.453,2.205-2.383c-1.051,0.85-2.146,1.674-3.602,1.646
			c0.113-1.066,0.348-2.115,0.76-3.139l-0.162,0.08c-0.502,0.902-1.08,1.564-1.412,2.646c-0.025,0.086-0.051,0.174-0.073,0.264
			c-0.653-0.377-1.354-1.58-1.565-2.168c-0.148-0.41-0.223-0.896-0.229-1.328c-0.369,0.543-0.096,1.563,0.073,2.139
			c0.294,1.006,0.772,1.914,1.487,2.635c-0.07,0.611-0.085,1.23-0.082,1.85c-1.023-0.18-2.486-1.553-2.645-2.482
			c-0.105,1.436,1.387,2.986,2.662,3.416c0.006,0.168,0.01,0.338,0.014,0.506c0.029,1.121,0.309,2.191,0.514,3.26
			c-0.38,0.58-0.738,1.158-1.064,1.723c-0.193-0.754-0.488-1.545-0.68-1.955c-0.715-1.525-1.611-3.621-2.844-4.781
			c-0.244-0.232-0.525-0.475-0.832-0.725c0.553-0.68,0.889-1.75,0.945-2.576c0.027-0.389,0.168-1.367-0.115-1.6
			c-0.08,1.07-0.754,2.787-1.645,3.545c-1.654-1.225-3.734-2.461-5.211-2.975c1.049,0.635,3.465,2.441,4.348,3.447
			c0.096,0.109,0.189,0.221,0.279,0.336c-1.615,0.109-4.109-0.441-3.58-0.139c0.555,0.318,2.169,0.668,2.813,0.697
			c0.491,0.023,0.823,0.043,1.206,0.016c0.487,0.678,0.918,1.408,1.303,2.162c-1.568,0.748-3.771-0.438-5.287-0.088
			c0.418,0.268,0.805,0.373,1.189,0.496c0.68,0.215,1.393,0.332,2.098,0.416c0.789,0.098,1.625,0.105,2.443,0.105
			c0.258,0.576,0.492,1.154,0.701,1.721c0.57,1.539,1.146,3.168,1.537,4.686c-0.073,0.209-0.139,0.412-0.194,0.609
			c-0.14,0.514-0.316,1.348-0.507,2.369c-0.066-0.033-0.141-0.068-0.232-0.113c-1.01-0.496-1.961-1.064-2.82-1.76
			c0.434-1.615,0.17-3.496,0.17-5.137c-0.25,1.535-0.279,3.072-0.881,4.51c-0.201-0.197-0.398-0.396-0.588-0.611
			c-0.211-0.238-0.482-0.574-0.782-0.971c0.213-0.43,0.368-0.971,0.43-1.336c0.188-1.135,0.376-2.813,0.04-3.471
			c0,0.596-0.293,1.305-0.415,1.916c-0.12,0.594-0.489,1.244-0.858,1.77c-0.977-1.436-1.938-3.158-1.93-4.182
			c0,1.281,0.059,2.445,0.328,3.664c-1.244-0.1-2.488-1.051-3.26-1.912c-0.125,1.143,2.16,2.371,3.467,2.713
			c0.119,0.396,0.27,0.801,0.453,1.201c-0.714,0.096-1.477,0.025-2.158-0.107c-0.65-0.125-1.262-0.447-1.844-0.611
			c0.352,0.682,1.498,1.031,2.152,1.213c0.771,0.217,1.516,0.354,2.299,0.393c0.301,0.531,0.646,1.043,1.031,1.512
			c-0.836,0.041-1.535,0.104-2.469-0.023c-0.672-0.092-1.607-0.242-2.355-0.402c0.559,0.197,0.895,0.486,1.498,0.617
			c0.719,0.156,1.422,0.363,2.156,0.432c0.607,0.055,1.214,0.078,1.822,0.092c0.217,0.211,0.438,0.41,0.667,0.588
			c0.937,0.727,2.378,1.885,3.681,2.344c-0.539,3.365-1.043,7.467-0.993,9.482l5.87-0.082c-0.236-0.658-0.836-3.305-0.955-3.885
			c-0.465-2.307-0.594-4.646-0.576-7.043c0.545-0.1,1.104-0.242,1.588-0.313c1.527-0.221,3.076-0.725,4.324-1.648
			c0.371-0.273,0.758-0.547,1.145-0.828C152.077,49.949,153.924,50.064,155.28,49.336z"/>
		<path fill="#81BE25" d="M144.555,33.355c1.756-0.359,2.178-2.381,1.844-3.914c-0.799-0.035-1.703,1.045-2.033,1.656
			c-0.188,0.348-0.316,0.725-0.314,1.119C144.055,32.686,144.309,32.938,144.555,33.355z"/>
		<path fill="#C8D300" d="M141.608,33.623c1.756-0.357,2.176-2.379,1.843-3.914c-0.8-0.035-1.702,1.045-2.032,1.658
			c-0.188,0.346-0.317,0.723-0.314,1.117C141.106,32.953,141.362,33.207,141.608,33.623z"/>
		<path fill="#C8D300" d="M150.29,36.088c1.756-0.357,2.178-2.379,1.844-3.912c-0.8-0.035-1.701,1.043-2.033,1.656
			c-0.188,0.346-0.316,0.725-0.314,1.119C149.79,35.418,150.043,35.67,150.29,36.088z"/>
		<path fill="#98C745" d="M149.454,33.348c1.688-0.602,1.822-2.662,1.275-4.135c-0.797,0.078-1.537,1.275-1.779,1.928
			c-0.137,0.367-0.213,0.762-0.154,1.152C148.864,32.756,149.153,32.969,149.454,33.348z"/>
		<path fill="#98C745" d="M152.917,43.564c1.754-0.357,2.178-2.379,1.842-3.914c-0.799-0.035-1.702,1.045-2.033,1.658
			c-0.186,0.344-0.316,0.725-0.314,1.117C152.416,42.896,152.67,43.146,152.917,43.564z"/>
		<path fill="#C8D300" d="M151.417,41.635c1.754-0.357,2.176-2.379,1.842-3.912c-0.799-0.035-1.702,1.043-2.033,1.656
			c-0.188,0.346-0.316,0.725-0.314,1.119C150.915,40.967,151.17,41.217,151.417,41.635"/>
		<path fill="#C8D300" d="M153.958,43.693c0.93,1.531,2.977,1.242,4.305,0.406c-0.238-0.764-1.559-1.246-2.248-1.35
			c-0.389-0.059-0.789-0.053-1.159,0.084C154.417,42.996,154.265,43.322,153.958,43.693z"/>
		<path fill="#C8D300" d="M154.444,49.352c1.756-0.357,2.177-2.379,1.844-3.912c-0.8-0.035-1.703,1.043-2.033,1.656
			c-0.188,0.346-0.316,0.725-0.316,1.119C153.942,48.684,154.198,48.936,154.444,49.352z"/>
		<path fill="#98C745" d="M152.446,37.904c1.785-0.15,2.441-2.107,2.291-3.67c-0.791-0.129-1.814,0.836-2.213,1.406
			c-0.229,0.322-0.4,0.682-0.445,1.074C152.026,37.18,152.25,37.459,152.446,37.904z"/>
		<path fill="#C8D300" d="M138.922,34.547c1.475-1.018,1.07-3.043,0.16-4.322c-0.748,0.281-1.156,1.627-1.219,2.32
			c-0.037,0.393-0.008,0.791,0.148,1.152C138.199,34.127,138.534,34.26,138.922,34.547z"/>
		<path fill="#98C745" d="M141.012,30.045c1.476-1.018,1.07-3.043,0.162-4.322c-0.75,0.281-1.157,1.627-1.221,2.32
			c-0.035,0.393-0.008,0.791,0.15,1.152C140.29,29.627,140.624,29.758,141.012,30.045z"/>
		<path fill="#98C745" d="M147.635,30.221c1.678-0.627,1.783-2.689,1.215-4.152c-0.795,0.09-1.52,1.295-1.752,1.951
			c-0.131,0.373-0.199,0.766-0.139,1.154C147.038,29.637,147.329,29.846,147.635,30.221z"/>
		<path fill="#81BE25" d="M152.995,34.023c1.791-0.031,2.574-1.941,2.525-3.512c-0.779-0.182-1.863,0.717-2.301,1.258
			c-0.246,0.307-0.443,0.656-0.512,1.043C152.624,33.273,152.831,33.568,152.995,34.023z"/>
		<path fill="#81BE25" d="M155.807,41.74c1.793-0.031,2.577-1.943,2.525-3.512c-0.779-0.18-1.862,0.717-2.3,1.26
			c-0.247,0.307-0.442,0.654-0.513,1.041C155.438,40.992,155.643,41.287,155.807,41.74z"/>
		<path fill="#C8D300" d="M154.991,37.883c1.68,0.623,3.105-0.871,3.631-2.35c-0.66-0.453-1.996-0.012-2.6,0.334
			c-0.344,0.193-0.652,0.447-0.857,0.783C154.918,37.049,155.002,37.398,154.991,37.883z"/>
		<path fill="#C8D300" d="M144.502,29.678c1.652-0.691,1.676-2.758,1.053-4.197c-0.793,0.121-1.468,1.354-1.676,2.02
			c-0.115,0.375-0.17,0.771-0.092,1.158C143.881,29.117,144.18,29.314,144.502,29.678z"/>
		<path fill="#C8D300" d="M137.387,30.844c1.4-1.119,0.854-3.111-0.145-4.322c-0.727,0.332-1.037,1.703-1.051,2.4
			c-0.012,0.393,0.047,0.789,0.229,1.139C136.635,30.477,136.979,30.584,137.387,30.844z"/>
		<path fill="#81BE25" d="M134.811,32.676c0.814-1.594-0.506-3.184-1.914-3.877c-0.525,0.602-0.243,1.98,0.029,2.621
			c0.155,0.361,0.369,0.699,0.68,0.941C133.973,32.652,134.331,32.609,134.811,32.676z"/>
		<path fill="#C8D300" d="M132.451,34.67c0.157-1.785-1.663-2.764-3.228-2.879c-0.262,0.756,0.516,1.928,1.01,2.42
			c0.277,0.277,0.604,0.51,0.983,0.619C131.667,34.961,131.981,34.787,132.451,34.67z"/>
		<path fill="#98C745" d="M131.852,37.406c-0.451-1.734-2.492-2.049-4.006-1.633c0.007,0.799,1.133,1.645,1.764,1.941
			c0.355,0.168,0.739,0.277,1.131,0.254C131.209,37.941,131.45,37.674,131.852,37.406z"/>
		<path fill="#81BE25" d="M130.645,40.703c-0.449-1.734-2.49-2.049-4.004-1.633c0.008,0.799,1.133,1.643,1.762,1.939
			c0.355,0.17,0.74,0.279,1.135,0.256C130.002,41.238,130.243,40.969,130.645,40.703z"/>
		<path fill="#C8D300" d="M133.387,44.5c0.619-1.682-0.879-3.102-2.359-3.625c-0.451,0.662-0.008,1.996,0.339,2.6
			c0.198,0.342,0.45,0.65,0.786,0.855C132.553,44.574,132.903,44.488,133.387,44.5z"/>
		<path fill="#98C745" d="M129.831,44.283c-0.123-1.787-2.07-2.475-3.633-2.346c-0.143,0.785,0.807,1.824,1.371,2.234
			c0.318,0.23,0.676,0.408,1.066,0.461C129.1,44.689,129.383,44.471,129.831,44.283z"/>
		<path fill="#C8D300" d="M129.831,47.498c-0.123-1.787-2.07-2.473-3.633-2.346c-0.143,0.787,0.807,1.826,1.371,2.236
			c0.318,0.23,0.676,0.408,1.066,0.459C129.1,47.906,129.383,47.686,129.831,47.498z"/>
		<path fill="#98C745" d="M131.217,50.137c-1.543-0.908-3.209,0.311-3.986,1.674c0.57,0.563,1.963,0.363,2.619,0.129
			c0.369-0.133,0.72-0.326,0.981-0.621C131.143,50.967,131.122,50.609,131.217,50.137z"/>
		<path fill="#C8D300" d="M134.553,50.746c-1.791-0.053-2.664,1.82-2.688,3.391c0.77,0.217,1.895-0.629,2.355-1.148
			c0.262-0.295,0.475-0.635,0.563-1.018C134.888,51.514,134.698,51.209,134.553,50.746z"/>
		<path fill="#97C11B" d="M137.764,52.238c-1.764,0.309-2.24,2.32-1.947,3.863c0.795,0.057,1.729-1,2.074-1.602
			c0.197-0.342,0.338-0.717,0.346-1.109C138.247,52.922,137.997,52.662,137.764,52.238z"/>
		<path fill="#98C745" d="M135.471,44.369c1.756-0.359,2.178-2.381,1.844-3.914c-0.799-0.035-1.703,1.045-2.035,1.656
			c-0.184,0.346-0.314,0.725-0.313,1.119C134.969,43.699,135.225,43.951,135.471,44.369z"/>
		<path fill="#C8D300" d="M138.42,50.746c1.754-0.357,2.176-2.379,1.842-3.912c-0.799-0.037-1.701,1.043-2.033,1.656
			c-0.188,0.346-0.316,0.725-0.314,1.117C137.918,50.076,138.172,50.33,138.42,50.746z"/>
		<path fill="#C8D300" d="M141.153,43.189c1.754-0.357,2.176-2.381,1.842-3.912c-0.799-0.037-1.703,1.043-2.031,1.656
			c-0.188,0.346-0.318,0.723-0.314,1.117C140.652,42.52,140.907,42.771,141.153,43.189z"/>
		<path fill="#98C745" d="M144.315,40.832c1.756-0.359,2.176-2.381,1.842-3.914c-0.797-0.035-1.701,1.043-2.031,1.656
			c-0.188,0.348-0.318,0.725-0.314,1.119C143.813,40.162,144.068,40.414,144.315,40.832z"/>
		<path fill="#98C745" d="M135.229,36.57c1.756-0.357,2.178-2.379,1.845-3.912c-0.8-0.035-1.702,1.043-2.034,1.656
			c-0.186,0.346-0.316,0.725-0.314,1.119C134.729,35.9,134.985,36.152,135.229,36.57z"/>
		<path fill="#98C745" d="M137.481,47.102c1.756-0.357,2.178-2.379,1.844-3.912c-0.799-0.037-1.703,1.043-2.033,1.656
			c-0.188,0.346-0.316,0.723-0.314,1.119C136.979,46.432,137.236,46.686,137.481,47.102z"/>
		<path fill="#98C745" d="M141.116,39.035c0.977-1.502-0.168-3.221-1.496-4.059c-0.586,0.547-0.448,1.945-0.245,2.611
			c0.116,0.377,0.296,0.734,0.577,1.01C140.288,38.922,140.649,38.918,141.116,39.035z"/>
		<path fill="#97C11B" d="M146.485,36.168c1.754-0.357,2.178-2.379,1.844-3.912c-0.801-0.035-1.703,1.043-2.033,1.656
			c-0.188,0.348-0.316,0.725-0.314,1.119C145.985,35.5,146.239,35.752,146.485,36.168z"/>
		<path fill="#97C11B" d="M148.253,42.6c1.755-0.357,2.177-2.379,1.843-3.914c-0.801-0.033-1.701,1.045-2.033,1.658
			c-0.186,0.346-0.316,0.725-0.313,1.117C147.752,41.932,148.008,42.182,148.253,42.6z"/>
		<path fill="#81BE25" d="M149.459,47.826c1.756-0.357,2.178-2.381,1.844-3.914c-0.801-0.035-1.703,1.045-2.033,1.656
			c-0.188,0.348-0.318,0.725-0.314,1.119C148.958,47.154,149.213,47.408,149.459,47.826z"/>
		<path fill="#97C11B" d="M147.26,50.436c1.209-1.32,0.361-3.205-0.811-4.248c-0.666,0.441-0.762,1.844-0.671,2.535
			c0.053,0.391,0.171,0.771,0.405,1.088C146.461,50.189,146.815,50.242,147.26,50.436z"/>
		<path fill="#98C745" d="M151.5,49.674c-0.467,1.73,1.152,3.014,2.674,3.4c0.389-0.699-0.171-1.988-0.57-2.561
			c-0.227-0.32-0.508-0.607-0.861-0.781C152.323,49.525,151.984,49.643,151.5,49.674z"/>
		<path fill="#C8D300" d="M148.017,50.959c-0.466,1.73,1.153,3.014,2.675,3.4c0.389-0.699-0.172-1.988-0.572-2.561
			c-0.227-0.32-0.506-0.605-0.859-0.779C148.84,50.813,148.5,50.928,148.017,50.959z"/>
		<path fill="#C8D300" d="M145.633,51.781c-1.223,1.311-0.393,3.203,0.771,4.256c0.672-0.436,0.78-1.84,0.693-2.529
			c-0.049-0.391-0.164-0.773-0.395-1.094C146.428,52.035,146.075,51.979,145.633,51.781z"/>
		<path fill="#97C11B" d="M135.145,38.426c-1.322-1.209-3.207-0.361-4.25,0.811c0.441,0.668,1.846,0.762,2.535,0.67
			c0.39-0.053,0.773-0.17,1.09-0.402C134.899,39.227,134.952,38.869,135.145,38.426z"/>
	</g>
</g>
</svg>
