<?xml version="1.0" encoding="utf-8"?>
<!-- Generator: Adobe Illustrator 16.0.0, SVG Export Plug-In . SVG Version: 6.00 Build 0)  -->
<!DOCTYPE svg PUBLIC "-//W3C//DTD SVG 1.1//EN" "http://www.w3.org/Graphics/SVG/1.1/DTD/svg11.dtd">
<svg version="1.1" id="レイヤー_1" xmlns="http://www.w3.org/2000/svg" xmlns:xlink="http://www.w3.org/1999/xlink" x="0px"
	 y="0px" width="243.5px" height="123px" viewBox="0 0 243.5 123" enable-background="new 0 0 243.5 123" xml:space="preserve">
<g>
	<g>
		<path fill="#E87D72" d="M84.129,19.135H13.266c-4.407,0-7.982,3.574-7.982,7.982v41.764c0,4.408,3.575,7.982,7.982,7.982h70.863
			c4.408,0,7.982-3.574,7.982-7.982V27.117C92.111,22.709,88.537,19.135,84.129,19.135z M26.188,32.975
			c4.402,0,7.974,3.57,7.974,7.975c0,4.406-3.571,7.977-7.974,7.977c-4.406,0-7.977-3.57-7.977-7.977
			C18.211,36.545,21.781,32.975,26.188,32.975z M26.188,63.756c-5.479,0-11.09-1.896-10.215-7.148
			c0.357-2.133,2.121-5.121,3.461-6.461c0.172-0.172,0.958-0.217,1.172-0.084c1.627,1,3.534,1.586,5.582,1.586
			c2.045,0,3.953-0.586,5.578-1.586c0.215-0.133,1-0.088,1.174,0.084c1.338,1.34,3.104,4.328,3.459,6.461
			C37.274,61.859,31.664,63.756,26.188,63.756z M67.424,61.141H44.66v-4.578h22.764V61.141L67.424,61.141z M81.035,49.877H44.66
			v-4.58h36.375V49.877z M81.035,38.611H44.66v-4.578h36.375V38.611z"/>
	</g>
	
		<text transform="matrix(1 0 0 1 103.9805 70.9995)" fill="#4D4D4D" font-family="'KozGoPro-Medium-90ms-RKSJ-H'" font-size="29" letter-spacing="1">＆</text>
	<rect x="143" y="24" fill="#E87D72" width="85" height="41"/>
	
		<text transform="matrix(1 0 0 1 171.8301 54.9985)" fill="#FFFFFF" font-family="'KozGoPro-Medium-90ms-RKSJ-H'" font-size="26" letter-spacing="1">￥</text>
	<circle fill="#E87D72" stroke="#FFFFFF" stroke-width="2" stroke-miterlimit="10" cx="229.099" cy="24.117" r="11.118"/>
	<circle fill="#E87D72" stroke="#FFFFFF" stroke-width="2" stroke-miterlimit="10" cx="209.599" cy="16.617" r="12.618"/>
</g>
<g>
	<g>
		<path fill="#DD4A43" d="M13.191,108.168v4.566c0.952,1.541,2.815,1.541,5.295,1.541c1.61,0,3.544-0.043,4.776-0.141
			c-0.154,0.309-0.351,0.926-0.421,1.303c-1.05,0.043-2.647,0.07-4.09,0.07c-3.054,0-4.818,0-6.121-1.666
			c-0.603,0.588-1.219,1.162-1.737,1.609c0,0.141-0.042,0.197-0.154,0.268l-0.686-1.416c0.56-0.391,1.261-0.938,1.862-1.471V109.4
			h-1.723v-1.232H13.191z M11.314,102.984c0.84,0.631,1.835,1.584,2.269,2.283l-1.078,0.828c-0.406-0.701-1.359-1.682-2.199-2.367
			L11.314,102.984z M17.646,113.939v-1.232h-3.895v-0.994h3.895v-0.729h-2.914v-4.092h2.914v-0.713h-3.362v-0.953h3.362v-0.967
			l1.61,0.098c-0.014,0.113-0.098,0.197-0.308,0.225v0.645h3.418v0.953h-3.418v0.713h2.983v4.092h-2.983v0.729h4.021v0.994h-4.021
			v1.232H17.646z M15.152,104.008v0.896h-1.177v-1.891h8.769v1.891h-1.232v-0.896H15.152z M15.881,107.748v0.785h1.765v-0.785
			H15.881z M15.881,110.129h1.765v-0.783h-1.765V110.129z M20.728,107.748h-1.779v0.785h1.779V107.748z M20.728,110.129v-0.783
			h-1.779v0.783H20.728z"/>
		<path fill="#DD4A43" d="M31.253,113.365h-2.549v2.367h-1.247v-2.367H24.81v-1.178h2.647v-0.994h-2.115v-5.014h2.115v-0.953H25.02
			v-1.162h2.438v-1.443l1.583,0.098c-0.015,0.113-0.112,0.182-0.322,0.225v1.121h2.396v1.162h-2.396v0.953h2.199v5.014h-2.213v0.994
			h2.549V113.365z M26.378,107.131v1.094h1.205v-1.094H26.378z M26.378,109.135v1.092h1.205v-1.092H26.378z M29.838,108.225v-1.094
			h-1.261v1.094H29.838z M29.838,110.227v-1.092h-1.261v1.092H29.838z M36.268,110.787c0.799,1.387,1.527,3.209,1.808,4.428
			l-1.219,0.518c-0.057-0.295-0.141-0.617-0.238-0.967c-1.877,0.211-3.74,0.42-5.001,0.533c-0.028,0.125-0.126,0.195-0.238,0.209
			l-0.434-1.484c0.336-0.014,0.728-0.043,1.134-0.07c0.393-1.33,0.799-3.221,1.037-4.791h-1.905v-1.26h6.737v1.26h-3.487
			c-0.252,1.43-0.687,3.293-1.121,4.707c0.911-0.07,1.905-0.141,2.899-0.225c-0.321-0.813-0.7-1.666-1.092-2.395L36.268,110.787z
			 M37.402,103.561v1.26h-5.533v-1.26H37.402z"/>
		<path fill="#DD4A43" d="M45.253,111.109c-0.028,0.098-0.141,0.197-0.322,0.211c-0.435,2.086-1.162,3.641-4.734,4.482
			c-0.126-0.352-0.477-0.896-0.742-1.178c3.235-0.629,3.838-1.848,4.104-3.697L45.253,111.109z M48.335,113.926
			c0,0.434,0.084,0.504,0.644,0.504h1.724c0.504,0,0.602-0.252,0.658-1.904c0.294,0.223,0.868,0.447,1.232,0.531
			c-0.14,2.072-0.519,2.619-1.779,2.619h-2.017c-1.485,0-1.849-0.406-1.849-1.723v-3.207h-5.954v-3.545
			c-0.195,0.141-0.392,0.281-0.588,0.406c-0.196-0.322-0.616-0.813-0.925-1.021c1.934-1.135,3.278-2.705,4.007-4.021l1.667,0.295
			c-0.028,0.141-0.141,0.211-0.337,0.211c-0.111,0.182-0.238,0.363-0.364,0.559h3.25l0.196-0.055l1.064,0.629
			c-0.056,0.07-0.154,0.141-0.267,0.154c-0.294,0.506-0.756,1.148-1.232,1.738h3.992v4.65h-2.899
			c-0.056,0.027-0.126,0.055-0.224,0.07V113.926z M42.325,107.285v2.27h3.067v-2.27H42.325z M45.897,106.096
			c0.35-0.406,0.7-0.896,0.98-1.359h-3.264c-0.379,0.463-0.799,0.91-1.275,1.359H45.897z M50.058,109.555v-2.27h-3.376v2.27H50.058z
			"/>
		<path fill="#DD4A43" d="M59.896,104.975v1.064h-5.701v-1.064H59.896z M59.308,110.76v4.201h-3.306v0.604h-1.163v-4.805H59.308z
			 M54.867,107.957v-1.035h4.482v1.035H54.867z M54.867,109.863v-1.037h4.482v1.037H54.867z M59.35,103.098v1.037h-4.398v-1.037
			H59.35z M58.117,111.824h-2.115v2.059h2.115V111.824z M67.376,109.26v1.275h-3.025v5.197H63.02v-5.197h-3.18v-1.275h3.18v-3.375
			h-1.106c-0.378,0.994-0.813,1.891-1.303,2.578c-0.252-0.211-0.771-0.533-1.078-0.688c0.854-1.176,1.568-3.221,1.961-5.197
			l1.583,0.379c-0.042,0.127-0.154,0.182-0.337,0.182c-0.126,0.506-0.252,1.023-0.42,1.527h4.679v1.219h-2.647v3.375H67.376z"/>
		<path fill="#DD4A43" d="M68.896,106.08v-1.064h5.196v1.064H68.896z M73.672,110.928v4.201h-2.998v0.604h-1.135v-4.805H73.672z
			 M73.588,107.006v1.037h-4.021v-1.037H73.588z M69.567,109.988v-1.035h4.021v1.035H69.567z M73.573,103.098v1.037h-3.922v-1.037
			H73.573z M72.523,111.992h-1.85v2.059h1.85V111.992z M79.079,113.996h2.969v1.26h-7.941v-1.26h1.022v-6.936l1.555,0.1
			c-0.015,0.098-0.099,0.182-0.309,0.209v6.627h1.387v-9.371H74.54v-1.262h7.256v1.262h-2.717v3.738h2.647v1.262h-2.647V113.996z"/>
	</g>
</g>
<g>
	<g>
		<path fill="#DD4A43" d="M156.441,106.137c-0.715,0.225-1.583,0.393-2.563,0.52c-0.015,0.77-0.015,1.582-0.015,2.283
			c1.022-0.338,2.102-0.561,2.914-0.561c2.325,0,3.964,1.232,3.964,3.348c0,1.961-1.135,3.402-3.432,3.402
			c-0.994,0-1.919-0.35-2.676-1.273c0.252-0.309,0.505-0.729,0.7-1.051c0.603,0.742,1.275,1.037,2.004,1.037
			c1.303,0,1.988-0.926,1.988-2.115c0-1.232-0.91-2.145-2.577-2.145c-0.84,0-1.891,0.225-2.886,0.561
			c0,1.064,0.015,2.578,0.015,2.941c0,1.262-0.827,2.313-2.396,2.313c-1.232,0-2.479-0.729-2.479-2.27
			c0-0.924,0.645-1.92,1.723-2.689c0.505-0.379,1.135-0.715,1.808-1.008v-2.662c-0.967,0.07-2.045,0.084-3.222,0.084l-0.015-1.346
			c1.191,0.016,2.27,0,3.236-0.055v-2.508l1.835,0.07c-0.015,0.168-0.154,0.293-0.379,0.322c-0.042,0.531-0.056,1.273-0.069,1.975
			c0.854-0.111,1.639-0.279,2.325-0.547L156.441,106.137z M152.533,110.703c-0.435,0.211-2.256,1.135-2.256,2.381
			c0,0.645,0.393,1.121,1.177,1.121c0.631,0,1.093-0.406,1.093-1.189C152.547,112.664,152.547,111.67,152.533,110.703z
			 M160.447,107.65c-0.742-0.715-2.045-1.471-3.18-1.947l0.687-1.148c1.219,0.461,2.521,1.232,3.306,1.918L160.447,107.65z"/>
		<path fill="#DD4A43" d="M173.648,107.873l0.98,0.561c-0.042,0.1-0.126,0.168-0.224,0.197c-0.771,1.848-1.961,3.277-3.46,4.355
			c1.471,0.742,3.264,1.246,5.322,1.5c-0.294,0.307-0.658,0.91-0.84,1.287c-2.283-0.35-4.217-0.98-5.799-1.945
			c-1.695,0.924-3.656,1.525-5.785,1.904c-0.127-0.35-0.477-0.967-0.743-1.262c1.947-0.293,3.769-0.756,5.323-1.498
			c-1.106-0.91-2.018-2.031-2.703-3.391l0.994-0.35h-2.396v-1.303h4.637v-1.961h-5.421v-1.316h5.421v-2.031l1.709,0.098
			c-0.014,0.127-0.098,0.197-0.336,0.238v1.695h5.519v1.316h-5.519v1.961h3.081L173.648,107.873z M166.995,109.232
			c0.63,1.219,1.541,2.227,2.718,3.025c1.204-0.77,2.199-1.764,2.871-3.025H166.995z"/>
		<path fill="#DD4A43" d="M181.373,109.26l2.087-0.461c0.057,0.477,0.07,0.799,0.099,1.121c-0.729,0.209-1.471,0.406-2.186,0.602
			v3.684c0,1.359-0.504,1.555-2.844,1.555c-0.056-0.35-0.224-0.896-0.392-1.26c0.42,0.014,0.84,0.027,1.148,0.027
			c0.7,0,0.784,0,0.784-0.322v-3.334c-0.63,0.154-1.205,0.309-1.667,0.42c-0.028,0.127-0.126,0.211-0.224,0.225l-0.421-1.498
			l2.312-0.477v-2.871h-2.129v-1.248h2.129v-2.801l1.625,0.084c-0.014,0.127-0.099,0.211-0.322,0.238v2.479h1.975v1.248h-1.975
			V109.26z M188.363,109.107c1.12,1.945,2.269,4.482,2.675,6.107l-1.288,0.545c-0.099-0.434-0.238-0.924-0.435-1.457
			c-2.466,0.238-5.029,0.449-6.653,0.59c-0.028,0.111-0.127,0.182-0.238,0.195l-0.448-1.514l1.387-0.084
			c0.854-2.941,1.778-7.326,2.227-10.674l1.737,0.365c-0.028,0.125-0.182,0.225-0.406,0.252c-0.49,3.053-1.415,7.074-2.255,9.988
			c1.303-0.086,2.773-0.184,4.216-0.295c-0.476-1.205-1.078-2.48-1.681-3.572L188.363,109.107z"/>
		<path fill="#DD4A43" d="M199.714,114.148h5.394v1.164h-12.047v-1.164h5.253v-3.18h-4.566v-1.148h4.566v-1.68h-2.802v-0.729
			c-0.714,0.531-1.471,1.037-2.241,1.457c-0.168-0.309-0.532-0.785-0.813-1.051c2.438-1.262,4.791-3.447,5.855-5.268l1.821,0.113
			c-0.028,0.125-0.141,0.223-0.309,0.236c1.345,1.863,3.811,3.756,5.939,4.721c-0.322,0.336-0.631,0.785-0.883,1.178
			c-0.742-0.406-1.526-0.896-2.27-1.443v0.785h-2.899v1.68h4.665v1.148h-4.665V114.148z M196.059,114.107
			c-0.183-0.686-0.715-1.752-1.261-2.521l1.078-0.447c0.561,0.756,1.135,1.777,1.331,2.465L196.059,114.107z M202.123,106.977
			c-1.246-0.965-2.367-2.059-3.096-3.08c-0.672,0.994-1.723,2.086-2.955,3.08H202.123z M200.625,113.658
			c0.504-0.672,1.135-1.75,1.471-2.52l1.414,0.602c-0.042,0.098-0.168,0.141-0.336,0.141c-0.392,0.672-1.051,1.639-1.568,2.268
			L200.625,113.658z"/>
		<path fill="#DD4A43" d="M212.594,111.418v3.391c0.98-0.393,2.073-1.066,2.605-1.641l1.176,0.688
			c-0.056,0.057-0.14,0.098-0.266,0.111c-0.561,0.588-1.751,1.346-2.787,1.752c-0.196-0.238-0.575-0.617-0.854-0.842h-3.096v0.631
			h-1.135v-3.824l-0.463,0.211c-0.14-0.281-0.462-0.729-0.7-0.953c0.98-0.363,1.947-0.967,2.746-1.709
			c-0.393-0.293-0.799-0.574-1.177-0.84c-0.252,0.225-0.505,0.42-0.757,0.602c-0.182-0.195-0.546-0.561-0.798-0.742
			c1.036-0.672,2.03-1.85,2.563-3.096l1.303,0.406c-0.027,0.098-0.14,0.154-0.308,0.141l-0.252,0.49h1.625l0.195-0.043
			c0.351,0.168,0.574,0.268,0.785,0.352c-0.028,0.084-0.084,0.125-0.141,0.168c-0.322,0.883-0.784,1.693-1.358,2.395
			c0.813,0.588,1.555,1.162,2.045,1.598l-0.771,0.924L212.594,111.418z M208.518,104.988v1.176h-1.093v-2.254h2.354v-1.289
			l1.568,0.098c-0.014,0.113-0.098,0.182-0.322,0.211v0.98h2.382v2.254h-1.121v-1.176H208.518z M212.201,111.082
			c-0.42-0.365-0.925-0.756-1.457-1.162c-0.448,0.434-0.952,0.826-1.456,1.162H212.201z M211.444,113.842v-1.723h-2.072v1.723
			H211.444z M209.792,107.117c-0.126,0.168-0.252,0.322-0.393,0.49c0.379,0.252,0.785,0.533,1.19,0.813
			c0.322-0.406,0.617-0.84,0.841-1.303H209.792z M214.008,105.605h1.85c0.084-0.393,0.168-0.828,0.238-1.219h-2.592v-1.148h6.863
			v1.148h-2.927c-0.099,0.363-0.211,0.813-0.351,1.219h2.718v7.424h-5.8V105.605z M218.547,107.775v-1.148h-3.334v1.148H218.547z
			 M218.547,109.877v-1.148h-3.334v1.148H218.547z M218.547,112.006v-1.162h-3.334v1.162H218.547z M219.541,115.789
			c-0.477-0.533-1.499-1.359-2.312-1.906l0.995-0.615c0.784,0.504,1.835,1.287,2.367,1.82L219.541,115.789z"/>
	</g>
</g>
<rect id="_x3C_スライス_x3E_" x="-10" y="-2" fill="none" width="259" height="130"/>
</svg>
