<?xml version="1.0" encoding="utf-8"?>
<!-- Generator: Adobe Illustrator 16.0.0, SVG Export Plug-In . SVG Version: 6.00 Build 0)  -->
<!DOCTYPE svg PUBLIC "-//W3C//DTD SVG 1.1//EN" "http://www.w3.org/Graphics/SVG/1.1/DTD/svg11.dtd">
<svg version="1.1" id="レイヤー_1" xmlns="http://www.w3.org/2000/svg" xmlns:xlink="http://www.w3.org/1999/xlink" x="0px"
	 y="0px" width="70.322px" height="31.085px" viewBox="0 0 70.322 31.085" enable-background="new 0 0 70.322 31.085"
	 xml:space="preserve">
<rect x="3.5" y="6" transform="matrix(0.9964 0.0843 -0.0843 0.9964 1.4313 -2.8954)" opacity="0.5" fill="#D86450" width="63" height="19"/>
</svg>
