<?xml version="1.0" encoding="utf-8"?>
<!-- Generator: Adobe Illustrator 16.0.0, SVG Export Plug-In . SVG Version: 6.00 Build 0)  -->
<!DOCTYPE svg PUBLIC "-//W3C//DTD SVG 1.1//EN" "http://www.w3.org/Graphics/SVG/1.1/DTD/svg11.dtd">
<svg version="1.1" id="レイヤー_1" xmlns="http://www.w3.org/2000/svg" xmlns:xlink="http://www.w3.org/1999/xlink" x="0px"
	 y="0px" width="370.258px" height="61.973px" viewBox="0 0 370.258 61.973" enable-background="new 0 0 370.258 61.973"
	 xml:space="preserve">
<g>
	<g enable-background="new    ">
		<path fill="#29ABE2" d="M121.047,10.676l2.871,2.666c-0.703,0.879-1.153,1.475-1.348,1.787c-0.879,1.445-1.968,2.954-3.267,4.526
			c-1.299,1.572-2.574,2.808-3.823,3.706l-3.75-3.018c1.035-0.664,2.026-1.484,2.974-2.461c0.947-0.977,1.606-1.807,1.978-2.49
			h-14.795c-0.684,0-1.953,0.088-3.809,0.264v-5.01c1.504,0.215,2.773,0.322,3.809,0.322h15.557
			C119.123,10.969,120.324,10.871,121.047,10.676z M106.281,17.414h5.273c0,0.098,0,0.234,0,0.41c0,1.016-0.005,1.782-0.015,2.3
			c-0.01,0.518-0.04,1.245-0.088,2.183c-0.049,0.938-0.117,1.675-0.205,2.212s-0.225,1.221-0.41,2.051
			c-0.186,0.83-0.415,1.514-0.688,2.051c-0.274,0.537-0.62,1.162-1.04,1.875c-0.42,0.713-0.904,1.338-1.45,1.875
			c-0.547,0.537-1.191,1.094-1.934,1.67c-0.743,0.576-1.563,1.118-2.461,1.626l-4.248-3.457c1.211-0.41,2.354-1.025,3.428-1.846
			c1.621-1.211,2.705-2.534,3.252-3.97c0.546-1.436,0.82-3.433,0.82-5.991C106.516,19.367,106.438,18.371,106.281,17.414z"/>
		<path fill="#29ABE2" d="M129.045,18.703l4.395-1.553c0.957,1.875,1.894,4.17,2.813,6.885l-4.424,1.67
			c-0.293-0.957-0.737-2.197-1.333-3.721C129.899,20.461,129.416,19.367,129.045,18.703z M146.448,16.33l5.127,1.641
			c-0.274,0.781-0.547,1.66-0.82,2.637c-0.938,3.379-2.285,6.211-4.043,8.496c-2.695,3.535-6.084,6.084-10.166,7.646l-3.809-3.896
			c1.758-0.449,3.579-1.23,5.464-2.344c1.885-1.113,3.413-2.412,4.585-3.896c0.996-1.23,1.821-2.783,2.476-4.658
			C145.915,20.08,146.311,18.205,146.448,16.33z M136.076,16.946l4.307-1.406c1.015,2.285,1.855,4.492,2.52,6.621l-4.336,1.494
			c-0.215-0.82-0.586-1.948-1.113-3.384S136.467,17.727,136.076,16.946z"/>
		<path fill="#29ABE2" d="M181.311,22.16l-2.08,5.068c-2.618-1.348-6.055-2.783-10.313-4.307v7.734c0,1.035,0.107,2.539,0.322,4.512
			h-5.684c0.234-1.465,0.352-2.969,0.352-4.512V13.518c0-1.465-0.117-2.764-0.352-3.896h5.654c-0.195,1.914-0.293,3.213-0.293,3.896
			v4.102c2.011,0.586,4.263,1.333,6.753,2.241S180.041,21.535,181.311,22.16z"/>
		<path fill="#29ABE2" d="M193.733,35.315l-3.457-2.988c0.313-0.684,0.469-1.426,0.469-2.227V14.338c0-1.191-0.137-2.451-0.41-3.779
			h5.713c-0.215,1.445-0.322,2.705-0.322,3.779v14.766c2.402-0.723,5.02-1.978,7.852-3.765s5.166-3.774,7.002-5.962l2.578,4.131
			c-3.867,4.531-9.648,8.154-17.344,10.869C194.934,34.67,194.24,34.983,193.733,35.315z"/>
		<path fill="#29ABE2" d="M221.008,35.08l-3.105-4.805c4.238-0.566,7.979-1.787,11.221-3.662c2.598-1.484,4.896-3.301,6.899-5.449
			c2.002-2.148,3.53-4.326,4.585-6.533l2.813,5.127c-1.211,2.129-2.838,4.189-4.878,6.182c-2.041,1.992-4.312,3.721-6.812,5.186
			C228.196,33.196,224.621,34.514,221.008,35.08z M218.899,14.045l3.457-3.691c1.133,0.762,2.505,1.802,4.116,3.12
			s2.837,2.437,3.677,3.354l-3.721,3.809c-0.801-0.879-1.992-2.012-3.574-3.398S219.953,14.787,218.899,14.045z"/>
		<path fill="#29ABE2" d="M268.645,12.258l3.662,2.285c-0.527,0.938-0.918,1.758-1.172,2.461c-1.016,2.813-2.344,5.4-3.984,7.764
			c1.23,0.801,2.178,1.436,2.842,1.904l-3.311,4.307c-0.605-0.527-1.533-1.25-2.783-2.168c-3.027,3.223-6.572,5.615-10.635,7.178
			l-4.248-3.662c4.375-1.367,7.979-3.467,10.811-6.299c-1.68-1.113-3.359-2.158-5.039-3.135l3.076-3.457
			c2.598,1.406,4.297,2.344,5.098,2.813c1.445-2.129,2.354-3.965,2.725-5.508h-7.734c-2.461,3.184-5.088,5.752-7.881,7.705
			l-3.926-3.047c1.25-0.781,2.402-1.611,3.457-2.49s1.973-1.777,2.754-2.695s1.401-1.699,1.86-2.344
			c0.458-0.645,0.942-1.367,1.45-2.168c0.723-1.172,1.25-2.354,1.582-3.545l5.244,1.611c-0.566,0.781-1.162,1.738-1.787,2.871h4.98
			C266.799,12.639,267.785,12.512,268.645,12.258z"/>
		<path fill="#29ABE2" d="M298.235,14.367l3.076,1.494c-0.137,0.723-0.205,1.27-0.205,1.641c-0.254,7.559-0.84,12.49-1.758,14.795
			c-0.703,1.719-2.109,2.578-4.219,2.578c-1.27,0-2.959-0.088-5.068-0.264l-0.557-4.863c1.563,0.293,2.92,0.439,4.072,0.439
			c0.488,0,0.845-0.083,1.069-0.249c0.224-0.166,0.415-0.454,0.571-0.864c0.332-0.762,0.605-2.183,0.82-4.263
			s0.322-4.038,0.322-5.874h-5.83c-0.547,3.789-1.553,6.963-3.018,9.521s-3.584,4.834-6.357,6.826l-4.219-3.398
			c1.758-0.996,3.232-2.109,4.424-3.34c2.402-2.48,3.877-5.684,4.424-9.609h-3.398c-1.66,0-3.066,0.049-4.219,0.146v-4.717
			c1.465,0.156,2.871,0.234,4.219,0.234h3.75c0.02-0.527,0.029-1.318,0.029-2.373c0-0.957-0.078-1.924-0.234-2.9h5.332
			c-0.098,0.781-0.166,1.719-0.205,2.813s-0.078,1.914-0.117,2.461h4.805C296.506,14.602,297.336,14.524,298.235,14.367z"/>
		<path fill="#29ABE2" d="M307.463,24.973v-5.742c2.129,0.156,3.857,0.234,5.186,0.234h15.938c0.117,0,1.348-0.078,3.691-0.234
			v5.742c-0.059,0-0.566-0.029-1.523-0.088s-1.68-0.088-2.168-0.088h-15.938C310.832,24.797,309.104,24.856,307.463,24.973z"/>
	</g>
	<g>
		<path fill="#29ABE2" d="M79.886,22.199l-4.962-7.896c-1.678-2.668-4.61-4.287-7.76-4.287H44.055c-3.886,0-7.61,1.563-10.332,4.338
			l-6.595,6.725l-15.726,3.64c-2.625,0.609-4.481,2.949-4.481,5.642v6.177c0,1.329,1.08,2.411,2.411,2.411h10.413
			c0.311,3.599,3.298,6.431,6.978,6.431c3.679,0,6.663-2.832,6.977-6.431h24.106c0.312,3.599,3.298,6.431,6.976,6.431
			c3.68,0,6.661-2.832,6.978-6.431h7.416c1.335,0,2.416-1.082,2.416-2.411v-8.431C81.59,26.016,81,23.971,79.886,22.199z"/>
	</g>
	
		<text transform="matrix(1 0 0 1 33.1121 37.8479)" opacity="0" fill="#FFFFFF" enable-background="new    " font-family="'CapieNStd-Heavy-90ms-RKSJ-H'" font-size="30.3682">＠</text>
	<g>
		<g>
			<circle fill="#29ABE2" cx="61.738" cy="39.093" r="9.226"/>
		</g>
		<g>
			<circle fill="#29ABE2" cx="34.165" cy="38.989" r="16.184"/>
			
				<text transform="matrix(1 0 0 1 19.9666 50.1614)" fill="#FFFFFF" font-family="'CapieNStd-Heavy-90ms-RKSJ-H'" font-size="28.3934">＠</text>
		</g>
	</g>
	<g enable-background="new    ">
		<path fill="#4D4D4D" d="M106.454,46.528c-0.039,0.222-0.091,0.546-0.091,0.689c-0.052,1.404-0.208,5.031-0.767,6.357
			c-0.286,0.663-0.78,1.001-1.677,1.001c-0.741,0-1.521-0.053-2.158-0.104l-0.195-1.742c0.637,0.117,1.313,0.183,1.82,0.183
			c0.416,0,0.598-0.144,0.741-0.455c0.377-0.819,0.546-3.419,0.546-4.823h-2.925c-0.481,3.432-1.716,5.473-4.043,7.124l-1.508-1.222
			c0.546-0.299,1.183-0.741,1.703-1.274c1.209-1.196,1.859-2.652,2.145-4.628h-1.716c-0.442,0-1.157,0-1.716,0.052v-1.703
			c0.546,0.052,1.222,0.091,1.716,0.091h1.859c0.013-0.363,0.026-0.74,0.026-1.131c0-0.286-0.039-0.884-0.091-1.196h1.911
			c-0.039,0.3-0.065,0.846-0.078,1.157c-0.013,0.403-0.026,0.793-0.052,1.17h2.444c0.325,0,0.663-0.039,0.988-0.091L106.454,46.528z
			"/>
		<path fill="#4D4D4D" d="M108.612,48.153c0.468,0.039,1.417,0.078,2.093,0.078h6.981c0.598,0,1.183-0.052,1.521-0.078v2.041
			c-0.312-0.013-0.975-0.064-1.521-0.064h-6.981c-0.741,0-1.612,0.025-2.093,0.064V48.153z"/>
		<path fill="#4D4D4D" d="M124.694,48.673l-0.949,1.456c-0.741-0.507-2.08-1.392-2.964-1.847l0.949-1.442
			C122.601,47.308,124.031,48.205,124.694,48.673z M125.747,51.65c2.21-1.234,4.017-3.016,5.057-4.875l1.001,1.769
			c-1.209,1.794-3.042,3.445-5.174,4.667c-1.326,0.754-3.185,1.404-4.342,1.612l-0.975-1.717
			C122.77,52.859,124.33,52.417,125.747,51.65z M126.696,45.735l-0.975,1.443c-0.728-0.507-2.08-1.392-2.938-1.872l0.949-1.431
			C124.59,44.357,126.02,45.267,126.696,45.735z"/>
		<path fill="#4D4D4D" d="M141.048,54.263c0,0.208,0.013,0.65,0.013,0.884h-1.638c0.013-0.116,0.013-0.324,0.013-0.52h-4.927
			c-0.364,0-0.897,0.026-1.118,0.039v-1.6c0.221,0.026,0.663,0.053,1.131,0.053h4.914V51.39h-4.147
			c-0.494,0-1.118,0.013-1.417,0.026v-1.534c0.338,0.026,0.923,0.039,1.417,0.039h4.147v-1.573h-4.29
			c-0.481,0-1.3,0.026-1.612,0.052v-1.573c0.338,0.039,1.131,0.065,1.612,0.065h4.914c0.312,0,0.793-0.013,1.001-0.026
			c-0.013,0.169-0.013,0.599-0.013,0.871V54.263z"/>
		<path fill="#4D4D4D" d="M146.118,50.09l-1.586,0.598c-0.221-0.702-0.871-2.431-1.183-3.003l1.56-0.559
			C145.234,47.789,145.858,49.362,146.118,50.09z M152.722,47.386c-0.156,0.416-0.234,0.688-0.312,0.949
			c-0.338,1.313-0.884,2.665-1.768,3.809c-1.209,1.561-2.834,2.652-4.355,3.225l-1.365-1.392c1.43-0.377,3.237-1.365,4.316-2.717
			c0.884-1.105,1.508-2.834,1.651-4.459L152.722,47.386z M148.991,49.283l-1.56,0.547c-0.156-0.638-0.728-2.211-1.053-2.887
			l1.547-0.507C148.172,46.996,148.809,48.686,148.991,49.283z"/>
		<path fill="#4D4D4D" d="M162.031,44.942c0.182,0,0.455-0.013,0.741-0.052c-0.013-0.078-0.026-0.156-0.026-0.247
			c0-0.858,0.702-1.561,1.56-1.561c0.845,0,1.547,0.702,1.547,1.561c0,0.845-0.702,1.547-1.547,1.547c-0.052,0-0.117,0-0.169-0.013
			l-0.104,0.39c-0.299,1.274-0.858,3.289-1.95,4.732c-1.17,1.56-2.899,2.847-5.226,3.588l-1.417-1.547
			c2.587-0.611,4.043-1.729,5.096-3.055c0.858-1.079,1.352-2.549,1.534-3.667h-6.059c-0.598,0-1.209,0.026-1.547,0.053v-1.833
			c0.377,0.052,1.118,0.104,1.547,0.104H162.031z M165.047,44.643c0-0.416-0.338-0.754-0.741-0.754
			c-0.416,0-0.754,0.338-0.754,0.754c0,0.403,0.338,0.741,0.754,0.741C164.709,45.384,165.047,45.046,165.047,44.643z"/>
		<path fill="#4D4D4D" d="M176.824,46.086c-0.143,0.247-0.325,0.61-0.429,0.936c-0.351,1.157-1.092,2.887-2.262,4.342
			c-1.235,1.509-2.809,2.691-5.252,3.667l-1.534-1.378c2.665-0.794,4.108-1.925,5.239-3.212c0.884-1.014,1.638-2.574,1.846-3.549
			h-3.653c-0.871,1.131-2.002,2.275-3.276,3.146l-1.456-1.079c2.275-1.392,3.406-3.068,4.056-4.187
			c0.195-0.325,0.468-0.923,0.585-1.365l1.898,0.624c-0.312,0.455-0.637,1.04-0.793,1.326l-0.039,0.065h2.613
			c0.403,0,0.832-0.065,1.131-0.156L176.824,46.086z"/>
		<path fill="#4D4D4D" d="M180.842,44.2c-0.026,0.286-0.039,0.572-0.039,0.988v4.395c0,0.325,0.013,0.832,0.039,1.131h-1.924
			c0.013-0.247,0.065-0.754,0.065-1.145v-4.381c0-0.247-0.013-0.702-0.052-0.988H180.842z M186.834,44.084
			c-0.025,0.363-0.052,0.779-0.052,1.3v2.574c0,2.795-0.546,3.991-1.508,5.057c-0.858,0.949-2.21,1.586-3.159,1.886l-1.365-1.431
			c1.3-0.299,2.392-0.793,3.185-1.638c0.884-0.976,1.053-1.95,1.053-3.979v-2.47c0-0.521-0.026-0.937-0.078-1.3H186.834z"/>
		<path fill="#4D4D4D" d="M198.625,46.008c0.43,0,1.041-0.053,1.352-0.104v1.729c-0.416-0.014-0.909-0.039-1.26-0.039h-1.678
			c0.039,1.898,0.092,4.069,0.117,5.824c0.014,0.832-0.469,1.313-1.456,1.313c-0.793,0-1.521-0.025-2.263-0.077l-0.143-1.69
			c0.585,0.104,1.287,0.156,1.729,0.156c0.326,0,0.455-0.169,0.455-0.546c0-0.871,0-2.172-0.025-3.511
			c-1.145,1.495-3.25,3.303-5.305,4.395l-1.195-1.353c2.521-1.195,4.667-3.028,5.721-4.511h-3.55c-0.468,0-1.026,0.025-1.481,0.052
			v-1.729c0.377,0.052,1,0.091,1.442,0.091h4.304c-0.014-0.338-0.026-0.65-0.039-0.937c-0.026-0.377-0.065-0.857-0.131-1.313h1.846
			c-0.051,0.402-0.077,0.91-0.077,1.313L197,46.008H198.625z"/>
		<path fill="#4D4D4D" d="M210.962,45.358c-0.104,0.144-0.338,0.546-0.455,0.807c-0.442,1.014-1.17,2.404-2.041,3.574
			c1.287,1.118,2.86,2.782,3.628,3.719l-1.482,1.287c-0.846-1.17-2.055-2.496-3.276-3.68c-1.378,1.456-3.106,2.809-4.888,3.653
			l-1.34-1.404c2.094-0.793,4.108-2.366,5.33-3.73c0.858-0.976,1.651-2.263,1.938-3.186h-4.407c-0.546,0-1.261,0.078-1.534,0.091
			v-1.846c0.352,0.052,1.145,0.091,1.534,0.091h4.576c0.571,0,1.093-0.078,1.353-0.169L210.962,45.358z"/>
		<path fill="#4D4D4D" d="M219.022,53.184c0.494-0.064,0.859-0.13,1.197-0.208c1.65-0.39,2.924-1.573,2.924-3.445
			c0-1.78-0.961-3.106-2.69-3.405c-0.183,1.092-0.403,2.288-0.767,3.497c-0.768,2.6-1.885,4.186-3.289,4.186
			c-1.418,0-2.627-1.573-2.627-3.744c0-2.964,2.588-5.512,5.929-5.512c3.185,0,5.2,2.223,5.2,5.031c0,2.704-1.664,4.628-4.914,5.122
			L219.022,53.184z M218.022,49.283c0.299-0.948,0.533-2.054,0.688-3.119c-2.132,0.441-3.263,2.313-3.263,3.73
			c0,1.3,0.52,1.938,1.001,1.938C216.981,51.832,217.501,51.026,218.022,49.283z"/>
		<path fill="#4D4D4D" d="M227.784,53.653c0.155-0.325,0.169-0.547,0.169-0.846v-7.046c0-0.494-0.064-1.105-0.143-1.47h2.041
			c-0.078,0.494-0.131,0.963-0.131,1.47v6.747c2.119-0.598,5.019-2.262,6.683-4.29l0.923,1.469c-1.781,2.132-4.484,3.68-7.54,4.681
			c-0.183,0.064-0.468,0.155-0.78,0.351L227.784,53.653z"/>
		<path fill="#4D4D4D" d="M243.709,51.247c2.211-1.313,3.914-3.303,4.732-5.058l1.014,1.833c-0.987,1.755-2.717,3.55-4.81,4.811
			c-1.313,0.793-2.99,1.521-4.823,1.833l-1.092-1.716C240.758,52.664,242.448,52.001,243.709,51.247z M243.709,47.034l-1.326,1.365
			c-0.676-0.728-2.301-2.145-3.25-2.808l1.223-1.301C241.266,44.903,242.955,46.255,243.709,47.034z"/>
		<path fill="#4D4D4D" d="M261.026,45.878c-0.143,0.247-0.312,0.598-0.429,0.923c-0.338,1.001-0.937,2.313-1.794,3.562
			c0.48,0.3,0.923,0.599,1.248,0.832l-1.184,1.521c-0.312-0.273-0.728-0.585-1.209-0.923c-1.156,1.261-2.69,2.431-4.797,3.237
			l-1.508-1.313c2.301-0.702,3.77-1.807,4.85-2.912c-0.885-0.572-1.769-1.105-2.432-1.482l1.105-1.234
			c0.688,0.351,1.572,0.845,2.443,1.365c0.637-0.924,1.157-1.989,1.353-2.77h-3.731c-0.91,1.209-2.119,2.457-3.432,3.354
			l-1.404-1.079c2.288-1.404,3.497-3.186,4.146-4.316c0.195-0.313,0.469-0.91,0.586-1.365l1.885,0.585
			c-0.313,0.455-0.65,1.054-0.807,1.326l-0.012,0.013h2.664c0.403,0,0.846-0.052,1.131-0.143L261.026,45.878z"/>
		<path fill="#4D4D4D" d="M272.414,46.528c-0.039,0.222-0.092,0.546-0.092,0.689c-0.052,1.404-0.207,5.031-0.767,6.357
			c-0.286,0.663-0.78,1.001-1.677,1.001c-0.742,0-1.521-0.053-2.158-0.104l-0.195-1.742c0.637,0.117,1.313,0.183,1.82,0.183
			c0.416,0,0.598-0.144,0.74-0.455c0.377-0.819,0.547-3.419,0.547-4.823h-2.926c-0.48,3.432-1.716,5.473-4.043,7.124l-1.508-1.222
			c0.546-0.299,1.184-0.741,1.703-1.274c1.209-1.196,1.859-2.652,2.145-4.628h-1.716c-0.442,0-1.157,0-1.716,0.052v-1.703
			c0.546,0.052,1.223,0.091,1.716,0.091h1.859c0.013-0.363,0.026-0.74,0.026-1.131c0-0.286-0.039-0.884-0.092-1.196h1.912
			c-0.039,0.3-0.066,0.846-0.078,1.157c-0.014,0.403-0.027,0.793-0.053,1.17h2.444c0.325,0,0.663-0.039,0.987-0.091L272.414,46.528z
			"/>
		<path fill="#4D4D4D" d="M274.573,48.153c0.467,0.039,1.416,0.078,2.092,0.078h6.982c0.598,0,1.183-0.052,1.521-0.078v2.041
			c-0.312-0.013-0.976-0.064-1.521-0.064h-6.982c-0.74,0-1.611,0.025-2.092,0.064V48.153z"/>
		<path fill="#4D4D4D" d="M296.477,46.398c0.689,0,1.08-0.026,1.43-0.091v1.729c-0.285-0.025-0.74-0.038-1.43-0.038h-0.961v0.429
			c0,3.224-0.781,5.188-3.914,6.565l-1.391-1.313c2.509-0.871,3.613-2.002,3.613-5.188v-0.493h-3.08v1.768
			c0,0.572,0.039,1.105,0.052,1.365h-1.82c0.039-0.26,0.078-0.78,0.078-1.365v-1.768h-1.104c-0.65,0-1.119,0.025-1.404,0.052v-1.769
			c0.234,0.039,0.754,0.117,1.404,0.117h1.104v-1.287c0-0.494-0.052-0.923-0.078-1.17h1.847c-0.039,0.247-0.078,0.663-0.078,1.183
			v1.274h3.08v-1.365c0-0.52-0.039-0.948-0.078-1.209h1.847c-0.026,0.261-0.077,0.689-0.077,1.209v1.365H296.477z"/>
		<path fill="#4D4D4D" d="M299.311,48.153c0.469,0.039,1.418,0.078,2.094,0.078h6.98c0.598,0,1.184-0.052,1.521-0.078v2.041
			c-0.313-0.013-0.975-0.064-1.521-0.064h-6.98c-0.742,0-1.612,0.025-2.094,0.064V48.153z"/>
		<path fill="#4D4D4D" d="M314.508,52.118c0,0.559,0.26,0.702,0.846,0.818c0.39,0.053,0.923,0.078,1.508,0.078
			c1.352,0,3.458-0.169,4.523-0.455v1.898c-1.221,0.182-3.197,0.272-4.627,0.272c-0.846,0-1.625-0.064-2.185-0.155
			c-1.131-0.195-1.781-0.819-1.781-1.938v-7.085c0-0.286-0.038-0.949-0.104-1.353h1.925c-0.065,0.403-0.104,0.988-0.104,1.353v2.457
			c1.535-0.377,3.342-0.949,4.498-1.443c0.469-0.182,0.91-0.39,1.418-0.702l0.701,1.651c-0.506,0.208-1.092,0.455-1.521,0.611
			c-1.313,0.52-3.406,1.17-5.097,1.586V52.118z M320.203,45.865c-0.261-0.532-0.664-1.3-1.015-1.794l1.026-0.429
			c0.326,0.48,0.793,1.3,1.041,1.781L320.203,45.865z M321.75,43.057c0.351,0.48,0.818,1.313,1.053,1.768l-1.027,0.442
			c-0.273-0.546-0.689-1.3-1.053-1.794L321.75,43.057z"/>
		<path fill="#4D4D4D" d="M333.047,45.358c-0.104,0.144-0.338,0.546-0.455,0.807c-0.442,1.014-1.17,2.404-2.041,3.574
			c1.287,1.118,2.859,2.782,3.627,3.719l-1.482,1.287c-0.845-1.17-2.054-2.496-3.275-3.68c-1.379,1.456-3.107,2.809-4.889,3.653
			l-1.34-1.404c2.094-0.793,4.109-2.366,5.331-3.73c0.858-0.976,1.651-2.263,1.937-3.186h-4.406c-0.547,0-1.262,0.078-1.535,0.091
			v-1.846c0.352,0.052,1.145,0.091,1.535,0.091h4.576c0.572,0,1.092-0.078,1.352-0.169L333.047,45.358z"/>
	</g>
</g>
</svg>
