<?xml version="1.0" encoding="utf-8"?>
<!-- Generator: Adobe Illustrator 16.0.0, SVG Export Plug-In . SVG Version: 6.00 Build 0)  -->
<!DOCTYPE svg PUBLIC "-//W3C//DTD SVG 1.1//EN" "http://www.w3.org/Graphics/SVG/1.1/DTD/svg11.dtd">
<svg version="1.1" id="レイヤー_1" xmlns="http://www.w3.org/2000/svg" xmlns:xlink="http://www.w3.org/1999/xlink" x="0px"
	 y="0px" width="66.962px" height="51.683px" viewBox="0 0 66.962 51.683" enable-background="new 0 0 66.962 51.683"
	 xml:space="preserve">
<g>
	<path fill="#E87D72" d="M53.969,1.44H13.032L1,21.494h6.525v28.68h51.949v-28.68H66L53.969,1.44z M55.4,46.1H11.6V21.494H55.4V46.1
		z"/>
	<rect x="21.531" y="25.728" fill="#E87D72" width="6.79" height="6.79"/>
	<rect x="38.847" y="25.728" fill="#E87D72" width="6.792" height="6.79"/>
</g>
</svg>
