<?xml version="1.0" encoding="utf-8"?>
<!-- Generator: Adobe Illustrator 16.0.0, SVG Export Plug-In . SVG Version: 6.00 Build 0)  -->
<!DOCTYPE svg PUBLIC "-//W3C//DTD SVG 1.1//EN" "http://www.w3.org/Graphics/SVG/1.1/DTD/svg11.dtd">
<svg version="1.1" id="レイヤー_1" xmlns="http://www.w3.org/2000/svg" xmlns:xlink="http://www.w3.org/1999/xlink" x="0px"
	 y="0px" width="24.43px" height="39.405px" viewBox="0 0 24.43 39.405" enable-background="new 0 0 24.43 39.405"
	 xml:space="preserve">
<line fill="none" stroke="#2CBF13" stroke-width="2" stroke-miterlimit="10" x1="22.343" y1="1.698" x2="2.087" y2="37.708"/>
</svg>
