<?xml version="1.0" encoding="utf-8"?>
<!-- Generator: Adobe Illustrator 16.0.0, SVG Export Plug-In . SVG Version: 6.00 Build 0)  -->
<!DOCTYPE svg PUBLIC "-//W3C//DTD SVG 1.1//EN" "http://www.w3.org/Graphics/SVG/1.1/DTD/svg11.dtd">
<svg version="1.1" id="レイヤー_1" xmlns="http://www.w3.org/2000/svg" xmlns:xlink="http://www.w3.org/1999/xlink" x="0px"
	 y="0px" width="122.864px" height="30.661px" viewBox="0 0 122.864 30.661" enable-background="new 0 0 122.864 30.661"
	 xml:space="preserve">
<g>
	<g>
		<g>
			<g opacity="0.9">
				<g opacity="0.9">
					<path fill="#FFFFB3" d="M50.314,16.301c-1.365,0.118-2.72,0.324-4.073,0.535c-1.353,0.214-2.707,0.396-4.045,0.686
						c0.555-0.4,1.106-0.826,1.67-1.182c0.963-0.529,2.028-0.538,3.121-0.421c0.544,0.071,1.1,0.145,1.656,0.217
						C49.201,16.227,49.759,16.298,50.314,16.301z"/>
					<path fill="#FFFFB3" d="M57.833,15.775c-0.005,0.005-0.011,0.01-0.016,0.018l-3.174,0.12c-1.056,0.054-2.108,0.176-3.162,0.271
						c0.143-0.031,0.284-0.064,0.425-0.11C53.842,15.293,55.838,14.918,57.833,15.775z"/>
					<path fill="#FFFFD0" d="M94.267,9.45c-3.246,3.078-6.643,5.42-9.719,8.078c-0.652,0.076-1.397,0.419-1.906,0.308
						c-0.001,0.06-0.923-0.016-2.079-0.107c-1.154-0.105-2.533-0.274-3.453-0.462c1.319-1.354,2.579-2.993,3.735-4.925
						c-0.702-0.492-2.185-1.121-2.071-1.838c0.826-2.646,2.732-4.044,4.762-5.322c0.255,0.078,2.034,1.005,4.188,1.966
						C89.896,8.058,92.385,9.205,94.267,9.45z"/>
					<path fill="#FFFFDB" d="M102.613,12.571c2.238,0.991,4.77,3.304,5.838,4.174c-1.324,1.223-2.628,2.362-3.998,3.289
						c0.471,0.939,0.674,1.821,1.249,2.437c-0.28,0.17-0.557,0.339-0.833,0.507c-3.636-1.149-7.324-2.066-11.035-2.77
						c0.258-0.427,1.908-1.783,3.79-3.291C99.491,15.431,101.607,13.772,102.613,12.571z"/>
					<path fill="#FFFFD5" d="M95.658,10.609c0.938,0.067,1.796,0.107,2.617,0.136c1.479,0.486,2.916,1.117,4.338,1.826
						c-2.01,2.416-4.247,4.376-6.525,5.729c0.246,0.074,0.151,1.123,0.395,1.195c-1.377,0.293-2.126-0.149-2.648,0.712
						c-1.71-0.366-3.434-0.649-5.148-0.947c-1.707-0.335-3.43-0.561-5.136-0.864c0.877-0.538,1.533-0.025,2.261,0.134
						c-0.155-0.919-0.669-1.073-1.265-1.003c3.077-2.658,6.473-5,9.719-8.078c0.255,0.071,0.503,0.155,0.753,0.236
						C95.111,10.183,95.179,10.674,95.658,10.609z"/>
					<path fill="#FFFFBE" d="M55.295,11.935c2.186-1.769,3.693-4.231,4.958-6.913c0.692,0.268,2.003,0.875,2.979,0.267
						c0.884,0.06,2.248,0.245,3.462,0.367c1.212,0.147,2.286,0.16,2.623-0.28c0.341-0.441-0.715,0.462-2.035,1.74
						c-1.324,1.242-2.897,3.037-3.742,4.102c-0.23,1.411-1.122,2.53-2.141,3.531c-0.321-0.1-0.038-0.974-0.361-1.118
						c-0.003,0.125-0.582,1.105-0.582,1.105c0,0-0.585-0.035-1.331-0.025c-0.743,0.003-1.634,0.006-2.228,0.008
						c-0.614-1.408-2.038-0.263-2.067,0.035c-0.342,0.012-0.686,0.011-1.027,0.039l-0.033-0.014c0.43-0.491,0.867-0.941,1.313-1.39
						C55.328,13.021,55.295,11.935,55.295,11.935z"/>
					<path fill="#FFFFC2" d="M78.773,10.503c0.826-2.646,2.732-4.044,4.762-5.322c-0.654-0.265-2.314-0.937-2.491-1.008
						c0.101,0.65,0.326,1.364-0.12,1.559c-1.139,0.173-2.526,0.271-3.34,0.189c-1.001-0.33-2.006-1.315-3.075-1.888
						c-0.948,0.115-1.88,0.219-2.797,0.441c-0.063,0.011-0.641,0.958-0.681,1.397c-0.621-0.05-1.17-0.249-1.715-0.495
						c-0.04,0.106-1.371,0.907-2.731,1.996c-1.368,1.12-2.752,2.593-3.046,3.845c-0.23,1.411-1.122,2.53-2.141,3.531
						c0.06,0.005,2.866,0.255,4.215,0.375c-0.031-0.263-0.51-0.867-0.661-0.966c0.096,0.002,0.47,0.226,0.882,0.474
						c0.412,0.271,0.861,0.57,1.12,0.688c0.856,0.137,2.96,0.361,3.162,0.295c0.249,0.02-0.182-0.741-0.117-1.462
						c0.489,0.53,0.989,0.976,1.5,1.354c0.51,0.401,1.032,0.728,1.568,0.985l0.9,0.183c0.058,0.29,0.101,0.486-0.024,0.47
						c-0.202,0.054-0.399,0.09-0.598,0.11c0.549,0.13,2.882,0.686,3.497,0.833c-0.601-0.314-1.181-0.697-1.741-1.184
						c0.648,0.117,1.295,0.233,1.94,0.349l0.082-0.001c1.315-1.351,2.567-2.982,3.72-4.908C80.142,11.849,78.66,11.22,78.773,10.503
						z"/>
					<path fill="#FFFF99" d="M14.318,23.249c-1.764-0.858-3.785-0.055-5.573-1.214c-1.492-1.144-2.485-2.628-3.385-4.236
						c-0.928-1.593-1.625-3.374-3.005-4.825c1.096-0.316,1.837-0.434,2.712-0.628l2.478-0.489c1.615-0.31,3.225-0.618,4.831-0.926
						c3.163-0.594,6.311-1.186,9.46-1.777c-0.565,0.98-1.548,1.417-2.46,1.978c-0.907,0.581-1.744,1.274-1.985,2.706
						c0.103,0.348,0.713,0.549,1.066,0.823c-1.221,1.457-3.572,2.621-3.006,4.332c0.346,1.054,1.157,2.059,1.796,3.367l-0.521,0.173
						C16.002,22.192,15.274,22.869,14.318,23.249z"/>
					<path fill="#FFFFA4" d="M25.031,21.453c-1.279,0.435-2.567,0.845-3.827,1.317c-0.109-0.327-0.235-0.635-0.368-0.929
						c1.508-0.485,3.026-0.974,4.52-1.574C25.228,20.643,25.118,21.038,25.031,21.453z"/>
					<path fill="#FFFFA4" d="M18.456,14.66c-0.353-0.274-0.963-0.475-1.066-0.823c0.241-1.432,1.079-2.125,1.985-2.706
						c0.912-0.561,1.895-0.998,2.46-1.978c1.198-0.247,2.405-0.439,3.604-0.666c1.198-0.232,2.396-0.454,3.599-0.65l-1.053,1.102
						c1.322-0.258,2.076,2.18,3.366,1.928c-3.285,3.258-8.106,5.015-9.628,9.786c-1.482,0.635-2.981,1.183-4.477,1.705
						c-0.64-1.308-1.451-2.313-1.796-3.367C14.884,17.28,17.235,16.117,18.456,14.66z"/>
					<path fill="#FFFFAB" d="M31.351,10.867c-1.29,0.252-2.044-2.186-3.366-1.928l1.053-1.102c2.768-0.51,5.545-0.94,8.319-1.388
						c0.192,0.021,0.384,0.035,0.572,0.039c2.169,0.031,3.931-0.427,5.959-0.3c-1.181,1.548-2.316,3.161-3.465,4.7
						c-2.716-1.696-5.704-2.893-8.88-3.383c1.125,0.157,1.176,2.004,1.761,2.271c2.286,1.656,4.528,5.492,3.878,7.399
						c-3.828,0.853-7.589,1.953-11.302,3.13c-0.365-0.387-0.911-1.017-1.114-0.966c-1.01,0.47-2.031,0.89-3.042,1.313
						C23.245,15.882,28.066,14.125,31.351,10.867z"/>
					<path fill="#FFFFB3" d="M40.422,10.888c1.149-1.539,2.284-3.152,3.465-4.7c0.514,0.025,1.043,0.077,1.598,0.173
						c-0.029-0.317-0.059-0.634-0.269-0.934l1.128-0.127c0.474,0.148,0.982,1.222,1.527-0.172l1.596-0.122
						c0.589,0.384,1.071,0.923,1.401,1.686l-0.062-1.086c0.498-0.753,1.075-0.061,1.609-0.091c-0.009-0.194-0.022-0.494,0.01-0.732
						c2.536,0.738,6.06-0.208,6.721-0.243c0.367,0.184,0.73,0.328,1.106,0.481c-1.264,2.682-2.772,5.144-4.958,6.913
						c0,0,0.032,1.086-0.212,1.453c-0.447,0.449-0.884,0.899-1.313,1.39c-2.838-1.612-6.263,0.517-6.381,0.593l-1.171,0.159
						c-2.21,0.032-5.907-1.377-8.141,1.437l-0.895,0.209c0.65-1.907-1.593-5.743-3.878-7.399c-0.579-0.291-2.667-1.981-1.761-2.271
						c1.69-0.13,3.999,0.73,5.808,1.595C39.172,10.02,40.51,10.943,40.422,10.888z"/>
					<path fill="#FFFFEB" d="M116.743,23.132c0.698,0.596,1.404,1.199,2.083,1.825c-0.842-0.474-1.553-1.26-2.396-0.75
						c-0.249-0.446-0.697-0.663-1.141-0.88C115.781,23.182,116.27,23.118,116.743,23.132z"/>
					<path fill="#FFFFEB" d="M112.928,27.016l-0.671-0.326c0.312-0.66,1.075-1.09,1.371-0.543c0.317-0.651-0.452-0.221-0.294-0.547
						c0.417-0.87,0.694-0.776,0.956-0.519c-0.718,1.457-1.759,2.749-2.087,2.588l-0.442-0.208
						C112.156,27.28,112.626,27.317,112.928,27.016z"/>
					<path fill="#FFFFE6" d="M105.702,22.471c-0.575-0.616-0.778-1.498-1.249-2.437c1.37-0.926,2.674-2.065,3.998-3.289
						c1.961,1.544,3.866,3.044,5.813,4.578c-0.478,0.007-0.964,0.074-1.452,0.235c0.451,0.208,0.904,0.417,1.176,0.849
						c-0.162,0.104-0.324,0.251-0.493,0.464l-0.009,0.02c-0.271-0.256-0.556-0.345-0.959,0.53c-0.153,0.33,0.62-0.112,0.313,0.545
						c-0.313-0.545-1.083-0.1-1.383,0.56l0.691,0.318c-0.297,0.307-0.784,0.281-1.181,0.459c-1.988-0.892-4.031-1.655-6.099-2.325
						C105.145,22.81,105.422,22.641,105.702,22.471z"/>
				</g>
			</g>
		</g>
	</g>
</g>
<g>
	<g>
		<path fill="#1A1A1A" d="M41.382,11.98h-4.402l0.064,6.723c0.032,2.273-1.393,2.273-4.514,2.273
			c-0.08-0.512-0.305-1.329-0.513-1.841c0.416,0.016,0.881,0.016,1.297,0.016c1.521,0,1.761,0,1.729-0.48l-0.048-5.17
			c-1.585,2.081-3.81,4.018-6.051,5.346c-0.336-0.496-0.896-1.121-1.425-1.521c2.354-1.249,4.706-3.25,6.307-5.346h-5.521v-1.905
			h6.643l-0.032-3.217l2.465,0.096c-0.016,0.176-0.128,0.304-0.448,0.336l0.032,2.785h4.418V11.98z"/>
		<path fill="#1A1A1A" d="M54.789,8.667c-0.048,0.128-0.16,0.224-0.288,0.272c-0.896,2.065-1.729,3.554-2.993,5.298
			c1.568,1.28,3.922,3.409,5.346,4.93l-1.776,1.569c-1.249-1.489-3.537-3.777-4.882-4.914c-1.505,1.697-3.586,3.649-5.666,4.898
			c-0.32-0.432-1.025-1.168-1.489-1.537c3.985-2.161,7.235-6.002,8.676-9.348h-7.219V7.915h8.371l0.336-0.112L54.789,8.667z"/>
		<path fill="#1A1A1A" d="M69.989,8.667c-0.048,0.128-0.16,0.224-0.288,0.272c-0.896,2.065-1.729,3.554-2.993,5.298
			c1.568,1.28,3.922,3.409,5.346,4.93l-1.776,1.569c-1.249-1.489-3.537-3.777-4.882-4.914c-1.505,1.697-3.586,3.649-5.667,4.898
			c-0.319-0.432-1.023-1.168-1.488-1.537c3.985-2.161,7.235-6.002,8.676-9.348h-7.219V7.915h8.371l0.336-0.112L69.989,8.667z"/>
		<path fill="#1A1A1A" d="M76.945,10.091c1.296,0.561,2.705,1.265,4.05,2.001c0.832-1.296,1.904-3.329,2.673-5.25l2.545,1.072
			c-0.064,0.16-0.305,0.256-0.624,0.24c-0.721,1.568-1.793,3.521-2.754,5.01c0.913,0.561,2.113,1.361,3.058,2.161l-1.345,1.921
			c-0.752-0.705-1.809-1.537-2.961-2.305c-1.616,2.193-3.825,4.418-6.227,5.986c-0.353-0.416-1.185-1.136-1.681-1.457
			c2.337-1.44,4.578-3.505,6.146-5.586c-1.313-0.785-2.705-1.505-4.002-2.097L76.945,10.091z"/>
		<path fill="#1A1A1A" d="M94.002,18.639c0-0.849,0.688-1.553,1.537-1.553c0.848,0,1.521,0.704,1.521,1.553
			c0,0.864-0.673,1.552-1.521,1.552C94.658,20.191,94.002,19.471,94.002,18.639z M94.643,15.918l-0.4-8.244h2.657l-0.385,8.244
			H94.643z"/>
	</g>
</g>
<line fill="none" stroke="#333333" stroke-width="2" stroke-miterlimit="10" x1="3.767" y1="5" x2="16" y2="24.658"/>
<line fill="none" stroke="#333333" stroke-width="2" stroke-miterlimit="10" x1="118.999" y1="5" x2="106.766" y2="24.658"/>
</svg>
