<?xml version="1.0" encoding="utf-8"?>
<!-- Generator: Adobe Illustrator 16.0.0, SVG Export Plug-In . SVG Version: 6.00 Build 0)  -->
<!DOCTYPE svg PUBLIC "-//W3C//DTD SVG 1.1//EN" "http://www.w3.org/Graphics/SVG/1.1/DTD/svg11.dtd">
<svg version="1.1" id="レイヤー_1" xmlns="http://www.w3.org/2000/svg" xmlns:xlink="http://www.w3.org/1999/xlink" x="0px"
	 y="0px" width="487px" height="159.952px" viewBox="125.731 2.952 487 159.952" enable-background="new 125.731 2.952 487 159.952"
	 xml:space="preserve">
<g>
	<g>
		<circle fill="#D86450" cx="203.357" cy="82.405" r="70"/>
		<g>
			<g>
				<path fill="#FFFFFF" d="M160.008,50.94c0.72,0.767,1.5,1.637,2.22,2.521c0.359-1.05,0.645-2.22,0.84-3.48l1.665,0.33
					c-0.03,0.12-0.15,0.195-0.36,0.195c-0.285,1.545-0.66,2.938-1.185,4.2c0.689,0.93,1.29,1.813,1.649,2.563l-1.14,0.976
					c-0.285-0.614-0.705-1.335-1.215-2.101c-0.825,1.47-1.905,2.655-3.314,3.525c-0.181-0.301-0.601-0.812-0.87-1.065
					c1.455-0.84,2.534-2.085,3.314-3.688c-0.81-1.11-1.74-2.222-2.609-3.165L160.008,50.94z M172.382,49.366v1.38h-1.725v7.289
					c0,1.591-0.615,1.846-3.315,1.846c-0.06-0.42-0.27-1.096-0.465-1.517c0.54,0.017,1.035,0.03,1.425,0.03
					c0.886,0,0.945,0,0.945-0.359v-7.289h-4.005v-1.08h-6.854v-1.32h3v-2.489l1.71,0.104c-0.016,0.12-0.105,0.194-0.346,0.24v2.145
					h2.985v1.021h3.51v-3.525l1.755,0.09c-0.015,0.136-0.104,0.21-0.345,0.256v3.181h1.725V49.366z M166.427,52.156
					c0.721,1.021,1.44,2.386,1.681,3.301l-1.23,0.613c-0.225-0.898-0.899-2.31-1.604-3.358L166.427,52.156z"/>
				<path fill="#FFFFFF" d="M181.367,46.411c-0.015,0.148-0.15,0.225-0.375,0.27l-0.045,0.556c0.165,2.266,1.095,8.761,6.675,11.311
					c-0.45,0.33-0.855,0.81-1.08,1.215c-3.705-1.785-5.43-5.28-6.239-8.235c-0.721,2.852-2.311,6.165-5.88,8.221
					c-0.255-0.359-0.705-0.779-1.186-1.109c6.15-3.24,6.06-10.365,6.165-12.375L181.367,46.411z"/>
				<path fill="#FFFFFF" d="M191.388,56.73c-0.061,0.12-0.181,0.165-0.33,0.15c-0.375,1.08-1.035,2.265-1.755,3.015
					c-0.255-0.225-0.72-0.555-1.035-0.734c0.675-0.659,1.26-1.771,1.59-2.881L191.388,56.73z M193.803,46.426v9.63h-4.726v-9.63
					H193.803z M192.468,49.276v-1.694h-2.115v1.694H192.468z M192.468,52.081v-1.71h-2.115v1.71H192.468z M192.468,54.9v-1.738
					h-2.115V54.9H192.468z M193.098,59.251c-0.24-0.676-0.825-1.727-1.351-2.505l1.125-0.48c0.54,0.765,1.125,1.755,1.396,2.43
					L193.098,59.251z M201.467,49.23c-0.045,0.105-0.165,0.182-0.359,0.182c-0.226,0.733-0.615,1.8-0.96,2.505h2.265v1.229h-8.295
					v-1.229h1.936c-0.046-0.75-0.315-1.891-0.66-2.745l1.154-0.3c0.375,0.854,0.66,1.979,0.735,2.729l-1.125,0.315h3.735
					c-0.256-0.105-0.586-0.227-0.825-0.301c0.3-0.766,0.66-1.979,0.825-2.819L201.467,49.23z M201.977,47.566v1.215h-7.439v-1.215
					h2.97v-1.71l1.755,0.104c-0.015,0.12-0.104,0.21-0.359,0.24v1.364L201.977,47.566L201.977,47.566z M195.032,59.896v-5.729h6.465
					v5.67h-1.38v-0.525h-3.75v0.585L195.032,59.896L195.032,59.896z M200.117,55.351h-3.75v2.745h3.75V55.351z"/>
				<path fill="#FFFFFF" d="M204.992,52.006c-0.404,0.688-0.84,1.32-1.29,1.875c-0.119-0.36-0.435-1.125-0.63-1.47
					c1.215-1.472,2.4-4.006,3.12-6.495l1.59,0.524c-0.045,0.104-0.165,0.165-0.375,0.165c-0.314,0.96-0.689,1.936-1.109,2.88
					l0.39,0.119c-0.03,0.105-0.135,0.195-0.345,0.227v10.095h-1.351V52.006z M211.712,58.396c-0.09,0.105-0.165,0.105-0.3,0.105
					c-0.854,0.465-2.34,1.05-3.645,1.395c-0.181-0.285-0.525-0.705-0.811-0.944c1.29-0.301,2.745-0.854,3.57-1.335L211.712,58.396z
					 M207.468,47.896h1.949c-0.18-0.449-0.524-1.05-0.84-1.499l1.065-0.375c0.42,0.51,0.81,1.186,0.989,1.664l-0.569,0.21h1.59
					v-1.949l1.725,0.104c-0.015,0.12-0.12,0.21-0.345,0.24v1.604h1.455c-0.135-0.06-0.271-0.119-0.391-0.164
					c0.315-0.479,0.69-1.229,0.9-1.739l1.5,0.539c-0.075,0.12-0.21,0.149-0.36,0.136c-0.225,0.359-0.555,0.84-0.854,1.229h1.89
					v2.386h-1.26v-1.364h-7.229v1.364h-1.215V47.896z M208.218,57.601v-5.055h8.22v5.055H208.218z M209.027,49.605h6.585v2.355
					h-6.585V49.605z M209.522,53.371v0.645h5.55v-0.645H209.522z M209.522,54.735v0.66h5.55v-0.66H209.522z M209.522,56.101v0.69
					h5.55v-0.69H209.522z M214.307,51.181v-0.795h-4.034v0.795H214.307z M216.452,59.926c-0.811-0.465-2.175-1.05-3.495-1.485
					l0.825-0.824c1.35,0.404,2.865,0.989,3.765,1.454L216.452,59.926z"/>
				<path fill="#FFFFFF" d="M225.452,58.561v-9.705h-0.029l-1.905,1.052l-0.39-1.275l2.55-1.365h1.47v11.295L225.452,58.561
					L225.452,58.561z"/>
				<path fill="#FFFFFF" d="M247.262,53.266v6.646h-1.47v-0.585h-5.79v0.556h-1.395v-4.62c-1.155,0.675-2.385,1.229-3.615,1.635
					c-0.165-0.39-0.525-0.975-0.81-1.273c1.904-0.557,3.824-1.517,5.475-2.775c-0.57-0.615-1.44-1.38-2.19-1.905l1.065-0.898
					c0.75,0.51,1.665,1.229,2.265,1.83c1.021-0.96,1.89-2.057,2.52-3.255h-4.319c-0.975,1.108-2.205,2.205-3.735,3.135
					c-0.21-0.345-0.675-0.855-0.989-1.095c2.415-1.352,4.095-3.256,4.979-4.875l1.83,0.313c-0.045,0.15-0.165,0.227-0.375,0.227
					c-0.21,0.329-0.435,0.675-0.69,1.02h4.125l0.226-0.075l1.034,0.54c-0.045,0.09-0.135,0.15-0.21,0.195
					c-0.84,2.055-2.175,3.825-3.81,5.265h5.879V53.266z M240.002,58.021h5.79v-3.479h-5.79V58.021z"/>
			</g>
		</g>
		<g>
			<g>
				<path fill="#FFFFFF" d="M166.386,104.6c-1.417,1.185-2.573,3.406-2.573,6.021c0,2.664,1.195,4.86,2.573,6.02v0.064h-0.987
					c-1.326-1.185-2.457-3.42-2.457-6.084c0-2.666,1.131-4.902,2.457-6.084h0.987V104.6z"/>
				<path fill="#FFFFFF" d="M172.548,112.413c-0.025,0.092-0.13,0.184-0.299,0.194c-0.403,1.938-1.079,3.381-4.395,4.16
					c-0.117-0.324-0.441-0.832-0.688-1.092c3.003-0.584,3.562-1.715,3.809-3.432L172.548,112.413z M175.408,115.026
					c0,0.404,0.078,0.47,0.598,0.47h1.6c0.468,0,0.559-0.234,0.61-1.769c0.273,0.207,0.807,0.416,1.145,0.494
					c-0.13,1.924-0.481,2.43-1.651,2.43h-1.872c-1.378,0-1.716-0.377-1.716-1.598v-2.979h-5.525v-3.289
					c-0.182,0.131-0.364,0.26-0.546,0.377c-0.182-0.3-0.572-0.754-0.858-0.949c1.794-1.053,3.042-2.508,3.719-3.73l1.547,0.273
					c-0.026,0.129-0.13,0.195-0.313,0.195c-0.104,0.168-0.221,0.338-0.338,0.52h3.017l0.182-0.053l0.988,0.586
					c-0.052,0.063-0.143,0.129-0.247,0.143c-0.273,0.47-0.702,1.066-1.144,1.611h3.705v4.316h-2.691
					c-0.052,0.026-0.117,0.053-0.208,0.065v2.886H175.408z M169.831,108.864v2.107h2.847v-2.107H169.831z M173.146,107.758
					c0.325-0.377,0.65-0.832,0.91-1.26h-3.028c-0.352,0.428-0.741,0.844-1.184,1.26H173.146z M177.007,110.971v-2.107h-3.133v2.107
					H177.007z"/>
				<path fill="#FFFFFF" d="M185.522,115.364c-0.078,0.078-0.144,0.078-0.325,0.078c-1.054,0.47-2.64,0.988-3.952,1.287
					c-0.195-0.233-0.572-0.649-0.819-0.844c1.313-0.248,2.899-0.689,3.835-1.146L185.522,115.364z M192.165,108.241v0.896h-11.713
					v-0.896h5.226v-0.65h-3.874v-0.779h3.874V106.2h-4.485v-0.859h4.485v-0.805l1.561,0.09c-0.014,0.104-0.091,0.184-0.299,0.209
					v0.506h4.614v0.859h-4.614v0.61h4.056v0.779h-4.056v0.649h5.225V108.241z M190.722,114.727h-8.645v-4.992h8.645V114.727z
					 M183.272,110.489v0.677h6.201v-0.677H183.272z M183.272,111.881v0.688h6.201v-0.688H183.272z M183.272,113.284v0.702h6.201
					v-0.702H183.272z M190.761,116.717c-0.767-0.391-2.145-0.924-3.536-1.34l1.054-0.611c1.404,0.416,3.003,0.963,3.938,1.353
					L190.761,116.717z"/>
				<path fill="#FFFFFF" d="M199.354,115.559v-8.41h-0.025l-1.651,0.91l-0.338-1.104l2.21-1.185h1.274v9.789H199.354
					L199.354,115.559z"/>
				<path fill="#FFFFFF" d="M203.839,110.684c0-3.197,1.209-5.07,3.236-5.07c2.067,0,3.107,2.003,3.107,4.968
					c0,3.313-1.196,5.121-3.211,5.121C204.931,115.702,203.839,113.688,203.839,110.684z M208.661,110.633
					c0-2.328-0.493-3.822-1.638-3.822c-0.988,0-1.664,1.377-1.664,3.822c0,2.43,0.599,3.859,1.638,3.859
					C208.271,114.493,208.661,112.661,208.661,110.633z"/>
				<path fill="#FFFFFF" d="M226.198,106.706h-6.292c-0.065,0.065-0.156,0.116-0.299,0.145c-0.039,0.74-0.078,1.508-0.156,2.301
					h4.485l0.286-0.026l0.754,0.092c0,0.117-0.026,0.285-0.052,0.402c-0.208,4.305-0.442,5.901-0.962,6.475
					c-0.403,0.455-0.846,0.598-2.146,0.598c-0.442,0-0.949-0.024-1.456-0.051c-0.026-0.377-0.208-0.897-0.455-1.248
					c0.976,0.078,1.898,0.09,2.275,0.09c0.299,0,0.468-0.024,0.624-0.168c0.377-0.352,0.598-1.756,0.767-4.953h-4.277
					c-0.39,2.47-1.364,4.9-4.056,6.384c-0.195-0.324-0.572-0.754-0.897-1.002c3.719-1.896,3.861-5.746,3.952-9.035h-3.666v-1.222
					h11.57v1.22H226.198z"/>
				<path fill="#FFFFFF" d="M238.938,105.406v9.765c0,1.401-0.65,1.533-3.081,1.533c-0.052-0.353-0.26-0.91-0.455-1.234
					c0.429,0.012,0.845,0.025,1.196,0.025c1.065,0,1.092,0,1.092-0.339v-3.68h-8.477v5.24h-1.234v-11.312L238.938,105.406
					L238.938,105.406z M229.214,106.627v3.627h3.55v-3.627H229.214z M233.985,110.254h3.705v-3.627h-3.705V110.254z"/>
				<path fill="#FFFFFF" d="M240.329,116.639c1.417-1.184,2.574-3.406,2.574-6.02c0-2.666-1.196-4.863-2.574-6.021v-0.063h0.988
					c1.339,1.182,2.457,3.418,2.457,6.084c0,2.664-1.118,4.899-2.457,6.084h-0.988V116.639z"/>
			</g>
		</g>
		<g>
			<g>
				<path fill="#FFFFFF" d="M167.165,75.274v-2.003c-0.546,0.521-1.092,1.016-1.638,1.432c-0.572-0.572-1.664-1.456-2.366-1.925
					c2.106-1.431,4.187-3.951,5.33-6.369l3.458,1.194c-0.077,0.208-0.312,0.313-0.676,0.286c-0.233,0.416-0.494,0.858-0.78,1.274
					h15.783v2.756h-2.471v3.354h3.433v2.782h-3.433v3.328h3.043v2.781h-22.804v-2.781h3.12v-3.328h-3.536v-2.782L167.165,75.274
					L167.165,75.274z M169.35,85.466c-0.599,2.002-1.716,4.134-2.99,5.512l-2.99-1.222c1.17-1.093,2.34-3.12,2.938-5.02
					L169.35,85.466z M169.922,71.919v3.354h1.897v-3.354H169.922z M169.922,78.056v3.328h1.897v-3.328H169.922z M171.508,90.667
					c0-1.274-0.208-3.406-0.494-5.02l2.886-0.338c0.338,1.586,0.65,3.666,0.676,4.914L171.508,90.667z M176.344,71.919h-1.924v3.354
					h1.924V71.919z M176.344,78.056h-1.924v3.328h1.924V78.056z M177.565,90.692c-0.155-1.272-0.754-3.38-1.352-4.991l2.938-0.494
					c0.65,1.533,1.301,3.589,1.534,4.889L177.565,90.692z M180.946,75.274V71.92h-2.002v3.354H180.946z M180.946,81.384v-3.328
					h-2.002v3.328H180.946z M184.534,90.953c-0.572-1.404-1.95-3.72-3.12-5.384l2.99-0.962c1.196,1.612,2.651,3.822,3.328,5.278
					L184.534,90.953z"/>
				<path fill="#FFFFFF" d="M199.327,72.751v2.21h5.435v2.834h-5.435v1.664h4.889v6.683c0,2.47-0.988,2.834-3.9,2.834
					c-0.078-0.78-0.416-1.872-0.754-2.6c0.676,0.024,1.326,0.024,1.56,0.024c0.208,0,0.286-0.052,0.286-0.312v-3.85h-2.08v8.686
					h-2.964V82.24h-2.028v6.656h-2.782v-9.438h4.811v-1.664h-5.902V74.96h1.794c-0.572-0.286-1.195-0.599-1.689-0.807
					c0.754-1.689,1.352-4.575,1.664-7.149l3.432,0.832c-0.078,0.182-0.286,0.338-0.624,0.312c-0.078,0.572-0.208,1.171-0.312,1.77
					h1.638v-3.511l3.64,0.207c-0.025,0.262-0.207,0.392-0.676,0.47v2.834h4.654v2.834H199.327z M194.023,72.751
					c-0.234,0.806-0.468,1.561-0.754,2.21h3.094v-2.21H194.023z M209.312,69.813c-0.025,0.234-0.208,0.392-0.649,0.47v14.092h-2.912
					v-14.77L209.312,69.813z M211.105,66.954l3.667,0.154c-0.053,0.262-0.209,0.442-0.677,0.521v19.709
					c0,3.042-1.144,3.614-5.798,3.614c-0.104-0.858-0.546-2.236-0.937-3.121c1.378,0.053,2.704,0.053,3.146,0.053
					c0.442,0,0.598-0.13,0.598-0.572L211.105,66.954L211.105,66.954z"/>
				<path fill="#FFFFFF" d="M225.743,67.447l2.028,1.066c-0.052,0.13-0.13,0.286-0.234,0.391c-0.598,2.133-1.508,4.939-2.288,7.021
					c1.769,2.002,2.366,3.588,2.366,5.2c0,4.212-2.601,4.212-4.758,4.212c-0.026-0.807-0.313-2.002-0.677-2.703
					c0.494,0.052,0.937,0.052,1.274,0.052c1.17,0,1.248-1.118,1.248-1.872c0-1.223-0.624-2.782-2.21-4.551
					c0.572-1.689,1.17-4.082,1.612-5.928h-2.314v20.645h-2.912V67.551h6.37L225.743,67.447z M236.04,79.824
					c0.26,0.962,0.571,1.871,0.962,2.729c0.884-0.832,1.741-1.795,2.34-2.574l2.704,2.055c-0.104,0.155-0.416,0.208-0.729,0.155
					c-0.728,0.754-1.949,1.794-3.016,2.626c1.066,1.482,2.392,2.652,4.108,3.406c-0.677,0.624-1.612,1.82-2.028,2.652
					c-3.874-2.056-5.902-5.955-7.099-11.052h-1.846v6.734c1.222-0.208,2.47-0.442,3.692-0.676l0.233,2.704
					c-2.964,0.702-6.084,1.402-8.086,1.818c-0.052,0.234-0.234,0.392-0.442,0.442l-1.17-3.328c0.78-0.13,1.716-0.26,2.73-0.441
					V67.603h12.194v12.222H236.04z M237.495,70.281h-6.058v2.08h6.058V70.281z M231.438,74.91v2.235h6.058V74.91H231.438z"/>
			</g>
		</g>
	</g>
	<g>
		<circle fill="#95A028" cx="369.356" cy="82.405" r="70"/>
		<g>
			<g>
				<path fill="#FFFFFF" d="M318.008,50.94c0.72,0.767,1.5,1.637,2.22,2.521c0.359-1.05,0.645-2.22,0.84-3.48l1.665,0.33
					c-0.03,0.12-0.15,0.195-0.36,0.195c-0.285,1.545-0.66,2.938-1.185,4.2c0.689,0.93,1.29,1.813,1.649,2.563l-1.14,0.976
					c-0.285-0.614-0.705-1.335-1.215-2.101c-0.825,1.47-1.905,2.655-3.314,3.525c-0.181-0.301-0.601-0.812-0.87-1.065
					c1.455-0.84,2.534-2.085,3.314-3.688c-0.81-1.11-1.74-2.222-2.609-3.165L318.008,50.94z M330.382,49.366v1.38h-1.725v7.289
					c0,1.591-0.615,1.846-3.315,1.846c-0.06-0.42-0.27-1.096-0.465-1.517c0.54,0.017,1.035,0.03,1.425,0.03
					c0.886,0,0.945,0,0.945-0.359v-7.289h-4.005v-1.08h-6.854v-1.32h3v-2.489l1.71,0.104c-0.016,0.12-0.105,0.194-0.346,0.24v2.145
					h2.985v1.021h3.51v-3.525l1.755,0.09c-0.015,0.136-0.104,0.21-0.345,0.256v3.181h1.725V49.366z M324.427,52.156
					c0.721,1.021,1.44,2.386,1.681,3.301l-1.23,0.613c-0.225-0.898-0.899-2.31-1.604-3.358L324.427,52.156z"/>
				<path fill="#FFFFFF" d="M337.223,53.266l0.104,1.215c-0.63,0.15-1.274,0.285-1.89,0.437v4.965h-1.38v-4.665
					c-0.75,0.165-1.425,0.3-1.98,0.42c-0.015,0.135-0.119,0.225-0.239,0.255l-0.48-1.575c0.735-0.12,1.68-0.27,2.7-0.465v-3.54h-1.2
					c-0.135,0.855-0.3,1.65-0.51,2.25c-0.24-0.18-0.72-0.435-1.021-0.585c0.391-1.215,0.57-3.33,0.676-5.279l1.529,0.314
					c-0.029,0.105-0.135,0.181-0.33,0.181c-0.045,0.569-0.09,1.17-0.165,1.771h1.021v-3.12l1.725,0.104
					c-0.015,0.136-0.104,0.211-0.345,0.24v2.774h1.635v1.35h-1.635v3.285L337.223,53.266z M344.332,48.706l0.765,0.074
					c0,0.12-0.015,0.301-0.029,0.466c-0.271,6.854-0.511,9.225-1.051,9.93c-0.42,0.585-0.824,0.705-1.92,0.705
					c-0.239,0-0.51,0-0.765-0.017c-0.03-0.42-0.165-1.034-0.39-1.425c0.569,0.062,1.064,0.062,1.335,0.062
					c0.225,0,0.359-0.046,0.524-0.271c0.391-0.479,0.646-2.52,0.87-8.188h-0.84c-0.375,3.39-1.32,7.693-2.835,9.824
					c-0.3-0.211-0.84-0.511-1.245-0.66c1.605-1.979,2.535-5.851,2.94-9.164h-0.915c-0.525,2.925-1.635,6.54-3.06,8.398
					c-0.315-0.225-0.841-0.495-1.261-0.63c1.5-1.694,2.58-4.95,3.135-7.77h-0.854c-0.375,1.215-0.825,2.325-1.365,3.165
					c-0.239-0.227-0.75-0.585-1.064-0.78c0.96-1.47,1.62-4.08,1.979-6.646l1.635,0.359c-0.029,0.105-0.149,0.181-0.345,0.181
					c-0.135,0.796-0.3,1.62-0.479,2.399h4.919L344.332,48.706z"/>
				<path fill="#FFFFFF" d="M349.388,56.73c-0.061,0.12-0.181,0.165-0.33,0.15c-0.375,1.08-1.035,2.265-1.755,3.015
					c-0.255-0.225-0.72-0.555-1.035-0.734c0.675-0.659,1.26-1.771,1.59-2.881L349.388,56.73z M351.803,46.426v9.63h-4.726v-9.63
					H351.803z M350.468,49.276v-1.694h-2.115v1.694H350.468z M350.468,52.081v-1.71h-2.115v1.71H350.468z M350.468,54.9v-1.738
					h-2.115V54.9H350.468z M351.098,59.251c-0.24-0.676-0.825-1.727-1.351-2.505l1.125-0.48c0.54,0.765,1.125,1.755,1.396,2.43
					L351.098,59.251z M359.467,49.23c-0.045,0.105-0.165,0.182-0.359,0.182c-0.226,0.733-0.615,1.8-0.96,2.505h2.265v1.229h-8.295
					v-1.229h1.936c-0.046-0.75-0.315-1.891-0.66-2.745l1.154-0.3c0.375,0.854,0.66,1.979,0.735,2.729l-1.125,0.315h3.735
					c-0.256-0.105-0.586-0.227-0.825-0.301c0.3-0.766,0.66-1.979,0.825-2.819L359.467,49.23z M359.977,47.566v1.215h-7.439v-1.215
					h2.97v-1.71l1.755,0.104c-0.015,0.12-0.104,0.21-0.359,0.24v1.364L359.977,47.566L359.977,47.566z M353.032,59.896v-5.729h6.465
					v5.67h-1.38v-0.525h-3.75v0.585L353.032,59.896L353.032,59.896z M358.117,55.351h-3.75v2.745h3.75V55.351z"/>
				<path fill="#FFFFFF" d="M362.992,52.006c-0.404,0.688-0.84,1.32-1.29,1.875c-0.119-0.36-0.435-1.125-0.63-1.47
					c1.215-1.472,2.4-4.006,3.12-6.495l1.59,0.524c-0.045,0.104-0.165,0.165-0.375,0.165c-0.314,0.96-0.689,1.936-1.109,2.88
					l0.39,0.119c-0.03,0.105-0.135,0.195-0.345,0.227v10.095h-1.351V52.006L362.992,52.006z M369.712,58.396
					c-0.09,0.105-0.165,0.105-0.3,0.105c-0.854,0.465-2.34,1.05-3.645,1.395c-0.181-0.285-0.525-0.705-0.811-0.944
					c1.29-0.301,2.745-0.854,3.57-1.335L369.712,58.396z M365.468,47.896h1.949c-0.18-0.449-0.524-1.05-0.84-1.499l1.065-0.375
					c0.42,0.51,0.81,1.186,0.989,1.664l-0.569,0.21h1.589v-1.949l1.726,0.104c-0.015,0.12-0.12,0.21-0.345,0.24v1.604h1.455
					c-0.135-0.06-0.271-0.119-0.391-0.164c0.314-0.479,0.689-1.229,0.899-1.739l1.5,0.539c-0.075,0.12-0.21,0.149-0.36,0.136
					c-0.225,0.359-0.555,0.84-0.854,1.229h1.89v2.386h-1.26v-1.364h-7.229v1.364h-1.215V47.896L365.468,47.896z M366.218,57.601
					v-5.055h8.221v5.055H366.218z M367.027,49.605h6.585v2.355h-6.585V49.605z M367.522,53.371v0.645h5.549v-0.645H367.522z
					 M367.522,54.735v0.66h5.549v-0.66H367.522z M367.522,56.101v0.69h5.549v-0.69H367.522z M372.308,51.181v-0.795h-4.035v0.795
					H372.308z M374.452,59.926c-0.811-0.465-2.176-1.05-3.495-1.485l0.825-0.824c1.35,0.404,2.865,0.989,3.765,1.454L374.452,59.926
					z"/>
				<path fill="#FFFFFF" d="M383.452,58.561v-9.705h-0.029l-1.904,1.052l-0.391-1.275l2.55-1.365h1.47v11.295L383.452,58.561
					L383.452,58.561z"/>
				<path fill="#FFFFFF" d="M406.267,54.556v1.125h-1.59v2.67h-1.439v-0.66h-3.254v0.721c0,1.426-0.705,1.516-3.33,1.516
					c-0.075-0.346-0.285-0.855-0.48-1.155c0.42,0.016,0.855,0.016,1.23,0.016c1.02,0,1.14,0,1.14-0.375v-0.721h-4.785v-1.063h4.785
					v-0.945h-6.12v-1.125h6.12v-0.87h-4.649v-1.005h4.649v-0.81h-4.245v-3.03h4.245v-0.734h-5.805v-1.154h5.805v-1.125l1.8,0.09
					c-0.015,0.135-0.104,0.225-0.359,0.271v0.766h5.955v1.154h-5.955v0.734h4.455v3.03h-4.455v0.81h4.695v1.875h1.588V54.556z
					 M395.662,50.926h2.88v-1.14h-2.88V50.926z M402.997,49.786h-3.016v1.14h3.016V49.786z M399.981,53.686v0.87h3.254v-0.87
					H399.981z M403.235,56.626v-0.945h-3.254v0.945H403.235z"/>
				<path fill="#FFFFFF" d="M421.342,49.951h-1.11c-0.403,2.385-1.004,4.363-1.979,5.953c0.84,1.2,1.891,2.131,3.239,2.716
					c-0.345,0.301-0.795,0.869-1.021,1.274c-1.289-0.645-2.31-1.575-3.135-2.715c-0.975,1.155-2.234,2.055-3.854,2.729
					c-0.15-0.346-0.512-0.976-0.75-1.261c1.635-0.63,2.863-1.545,3.795-2.773c-0.586-1.11-1.051-2.386-1.426-3.795
					c-0.256,0.465-0.524,0.885-0.824,1.26c-0.165-0.165-0.45-0.42-0.721-0.63v5.534h-4.244v0.976h-1.32v-6.585h2.055V50.04h-2.744
					v-1.32h2.744v-2.88l1.727,0.09c-0.017,0.136-0.12,0.21-0.346,0.256v2.534h2.715v1.32h-2.715v2.595h2.024l-0.285-0.195
					c1.17-1.438,2.024-4.02,2.46-6.613l1.755,0.39c-0.03,0.12-0.165,0.195-0.375,0.195c-0.149,0.734-0.329,1.47-0.524,2.188h4.859
					L421.342,49.951L421.342,49.951z M412.192,56.91v-2.939h-2.881v2.939H412.192z M416.047,49.951l-0.045,0.104
					c0.313,1.62,0.765,3.12,1.396,4.41c0.646-1.26,1.064-2.76,1.351-4.515L416.047,49.951L416.047,49.951z"/>
			</g>
		</g>
		<g>
			<g>
				<path fill="#FFFFFF" d="M331.886,104.6c-1.417,1.185-2.573,3.406-2.573,6.021c0,2.664,1.195,4.86,2.573,6.02v0.064h-0.987
					c-1.326-1.185-2.457-3.42-2.457-6.084c0-2.666,1.131-4.902,2.457-6.084h0.987V104.6z"/>
				<path fill="#FFFFFF" d="M338.048,112.413c-0.025,0.092-0.13,0.184-0.299,0.194c-0.403,1.938-1.079,3.381-4.395,4.16
					c-0.117-0.324-0.441-0.832-0.688-1.092c3.003-0.584,3.562-1.715,3.809-3.432L338.048,112.413z M340.908,115.026
					c0,0.404,0.078,0.47,0.598,0.47h1.6c0.468,0,0.559-0.234,0.61-1.769c0.273,0.207,0.807,0.416,1.145,0.494
					c-0.13,1.924-0.481,2.43-1.651,2.43h-1.872c-1.378,0-1.716-0.377-1.716-1.598v-2.979h-5.525v-3.289
					c-0.182,0.131-0.364,0.26-0.546,0.377c-0.182-0.3-0.572-0.754-0.858-0.949c1.794-1.053,3.042-2.508,3.719-3.73l1.547,0.273
					c-0.026,0.129-0.13,0.195-0.313,0.195c-0.104,0.168-0.221,0.338-0.338,0.52h3.017l0.182-0.053l0.988,0.586
					c-0.052,0.063-0.143,0.129-0.247,0.143c-0.273,0.47-0.702,1.066-1.144,1.611h3.705v4.316h-2.691
					c-0.052,0.026-0.117,0.053-0.208,0.065v2.886H340.908z M335.331,108.864v2.107h2.847v-2.107H335.331z M338.646,107.758
					c0.325-0.377,0.65-0.832,0.91-1.26h-3.028c-0.352,0.428-0.741,0.844-1.184,1.26H338.646z M342.507,110.971v-2.107h-3.133v2.107
					H342.507z"/>
				<path fill="#FFFFFF" d="M351.022,115.364c-0.078,0.078-0.144,0.078-0.325,0.078c-1.054,0.47-2.64,0.988-3.952,1.287
					c-0.195-0.233-0.572-0.649-0.819-0.844c1.313-0.248,2.899-0.689,3.835-1.146L351.022,115.364z M357.665,108.241v0.896h-11.713
					v-0.896h5.226v-0.65h-3.874v-0.779h3.874V106.2h-4.485v-0.859h4.485v-0.805l1.561,0.09c-0.014,0.104-0.091,0.184-0.299,0.209
					v0.506h4.614v0.859h-4.614v0.61h4.056v0.779h-4.056v0.649h5.225V108.241z M356.222,114.727h-8.645v-4.992h8.645V114.727z
					 M348.772,110.489v0.677h6.201v-0.677H348.772z M348.772,111.881v0.688h6.201v-0.688H348.772z M348.772,113.284v0.702h6.201
					v-0.702H348.772z M356.261,116.717c-0.767-0.391-2.145-0.924-3.536-1.34l1.054-0.611c1.404,0.416,3.003,0.963,3.938,1.353
					L356.261,116.717z"/>
				<path fill="#FFFFFF" d="M364.854,115.559v-8.41h-0.025l-1.651,0.91l-0.338-1.104l2.21-1.185h1.274v9.789H364.854
					L364.854,115.559z"/>
				<path fill="#FFFFFF" d="M369.339,110.684c0-3.197,1.209-5.07,3.236-5.07c2.066,0,3.107,2.003,3.107,4.968
					c0,3.313-1.197,5.121-3.211,5.121C370.431,115.702,369.339,113.688,369.339,110.684z M374.161,110.633
					c0-2.328-0.493-3.822-1.639-3.822c-0.987,0-1.664,1.377-1.664,3.822c0,2.43,0.6,3.859,1.639,3.859
					C373.771,114.493,374.161,112.661,374.161,110.633z"/>
				<path fill="#FFFFFF" d="M391.698,106.706h-6.292c-0.065,0.065-0.156,0.116-0.3,0.145c-0.039,0.74-0.078,1.508-0.155,2.301h4.485
					l0.285-0.026l0.754,0.092c0,0.117-0.025,0.285-0.052,0.402c-0.208,4.305-0.442,5.901-0.962,6.475
					c-0.402,0.455-0.846,0.598-2.146,0.598c-0.441,0-0.948-0.024-1.455-0.051c-0.026-0.377-0.209-0.897-0.455-1.248
					c0.976,0.078,1.898,0.09,2.275,0.09c0.299,0,0.467-0.024,0.623-0.168c0.377-0.352,0.598-1.756,0.768-4.953h-4.277
					c-0.391,2.47-1.363,4.9-4.057,6.384c-0.194-0.324-0.571-0.754-0.896-1.002c3.719-1.896,3.861-5.746,3.952-9.035h-3.666v-1.222
					h11.569v1.22H391.698z"/>
				<path fill="#FFFFFF" d="M404.438,105.406v9.765c0,1.401-0.65,1.533-3.082,1.533c-0.051-0.353-0.26-0.91-0.455-1.234
					c0.43,0.012,0.846,0.025,1.197,0.025c1.064,0,1.092,0,1.092-0.339v-3.68h-8.478v5.24h-1.233v-11.312L404.438,105.406
					L404.438,105.406z M394.714,106.627v3.627h3.551v-3.627H394.714z M399.485,110.254h3.705v-3.627h-3.705V110.254z"/>
				<path fill="#FFFFFF" d="M405.829,116.639c1.417-1.184,2.574-3.406,2.574-6.02c0-2.666-1.196-4.863-2.574-6.021v-0.063h0.988
					c1.339,1.182,2.457,3.418,2.457,6.084c0,2.664-1.118,4.899-2.457,6.084h-0.988V116.639z"/>
			</g>
		</g>
		<g>
			<g>
				<path fill="#FFFFFF" d="M332.665,75.274v-2.003c-0.546,0.521-1.092,1.016-1.638,1.432c-0.572-0.572-1.664-1.456-2.366-1.925
					c2.106-1.431,4.187-3.951,5.33-6.369l3.458,1.194c-0.077,0.208-0.312,0.313-0.676,0.286c-0.233,0.416-0.494,0.858-0.78,1.274
					h15.783v2.756h-2.471v3.354h3.433v2.782h-3.433v3.328h3.043v2.781h-22.804v-2.781h3.12v-3.328h-3.536v-2.782L332.665,75.274
					L332.665,75.274z M334.85,85.466c-0.599,2.002-1.716,4.134-2.99,5.512l-2.99-1.222c1.17-1.093,2.34-3.12,2.938-5.02
					L334.85,85.466z M335.422,71.919v3.354h1.897v-3.354H335.422z M335.422,78.056v3.328h1.897v-3.328H335.422z M337.008,90.667
					c0-1.274-0.208-3.406-0.494-5.02l2.886-0.338c0.338,1.586,0.65,3.666,0.676,4.914L337.008,90.667z M341.844,71.919h-1.924v3.354
					h1.924V71.919z M341.844,78.056h-1.924v3.328h1.924V78.056z M343.065,90.692c-0.155-1.272-0.754-3.38-1.352-4.991l2.938-0.494
					c0.65,1.533,1.301,3.589,1.534,4.889L343.065,90.692z M346.446,75.274V71.92h-2.002v3.354H346.446z M346.446,81.384v-3.328
					h-2.002v3.328H346.446z M350.034,90.953c-0.572-1.404-1.95-3.72-3.12-5.384l2.99-0.962c1.196,1.612,2.651,3.822,3.328,5.278
					L350.034,90.953z"/>
				<path fill="#FFFFFF" d="M364.827,72.751v2.21h5.436v2.834h-5.436v1.664h4.889v6.683c0,2.47-0.988,2.834-3.9,2.834
					c-0.078-0.78-0.416-1.872-0.754-2.6c0.676,0.024,1.326,0.024,1.56,0.024c0.208,0,0.286-0.052,0.286-0.312v-3.85h-2.08v8.686
					h-2.964V82.24h-2.028v6.656h-2.782v-9.438h4.811v-1.664h-5.902V74.96h1.794c-0.572-0.286-1.195-0.599-1.689-0.807
					c0.754-1.689,1.352-4.575,1.664-7.149l3.432,0.832c-0.078,0.182-0.286,0.338-0.624,0.312c-0.078,0.572-0.208,1.171-0.312,1.77
					h1.638v-3.511l3.64,0.207c-0.025,0.262-0.207,0.392-0.676,0.47v2.834h4.653v2.834H364.827z M359.523,72.751
					c-0.234,0.806-0.468,1.561-0.754,2.21h3.094v-2.21H359.523z M374.812,69.813c-0.024,0.234-0.207,0.392-0.648,0.47v14.092h-2.912
					v-14.77L374.812,69.813z M376.604,66.954l3.668,0.154c-0.054,0.262-0.209,0.442-0.678,0.521v19.709
					c0,3.042-1.144,3.614-5.798,3.614c-0.104-0.858-0.546-2.236-0.937-3.121c1.377,0.053,2.703,0.053,3.146,0.053
					s0.599-0.13,0.599-0.572V66.954L376.604,66.954z"/>
				<path fill="#FFFFFF" d="M391.243,67.447l2.027,1.066c-0.051,0.13-0.129,0.286-0.233,0.391c-0.599,2.133-1.509,4.939-2.288,7.021
					c1.77,2.002,2.366,3.588,2.366,5.2c0,4.212-2.601,4.212-4.759,4.212c-0.025-0.807-0.313-2.002-0.676-2.703
					c0.493,0.052,0.937,0.052,1.273,0.052c1.17,0,1.248-1.118,1.248-1.872c0-1.223-0.624-2.782-2.21-4.551
					c0.571-1.689,1.17-4.082,1.612-5.928h-2.314v20.645h-2.912V67.551h6.37L391.243,67.447z M401.54,79.824
					c0.26,0.962,0.57,1.871,0.962,2.729c0.884-0.832,1.741-1.795,2.34-2.574l2.704,2.055c-0.104,0.155-0.416,0.208-0.729,0.155
					c-0.729,0.754-1.949,1.794-3.017,2.626c1.066,1.482,2.392,2.652,4.108,3.406c-0.678,0.624-1.612,1.82-2.028,2.652
					c-3.874-2.056-5.901-5.955-7.099-11.052h-1.846v6.734c1.222-0.208,2.47-0.442,3.691-0.676l0.232,2.704
					c-2.963,0.702-6.084,1.402-8.086,1.818c-0.051,0.234-0.233,0.392-0.441,0.442l-1.17-3.328c0.779-0.13,1.716-0.26,2.73-0.441
					V67.603h12.193v12.222H401.54z M402.995,70.281h-6.059v2.08h6.059V70.281z M396.938,74.91v2.235h6.058V74.91H396.938z"/>
			</g>
		</g>
	</g>
	<g>
		<circle fill="#F39801" cx="534.357" cy="82.405" r="70"/>
		<g>
			<g>
				<path fill="#FFFFFF" d="M497.367,46.411c-0.016,0.148-0.15,0.225-0.375,0.27l-0.045,0.556c0.165,2.266,1.095,8.761,6.675,11.311
					c-0.45,0.33-0.855,0.81-1.08,1.215c-3.705-1.785-5.43-5.28-6.239-8.235c-0.721,2.852-2.311,6.165-5.88,8.221
					c-0.255-0.359-0.705-0.779-1.186-1.109c6.149-3.24,6.06-10.365,6.165-12.375L497.367,46.411z"/>
				<path fill="#FFFFFF" d="M515.667,52.081c0.42-0.48,0.795-0.99,1.14-1.517l1.575,0.855c-0.06,0.075-0.165,0.12-0.3,0.12
					c-0.045,0-0.09,0-0.15-0.017c-0.658,0.96-1.425,1.83-2.265,2.642v3.869c0,1.784-0.795,1.859-3.899,1.859
					c-0.074-0.42-0.301-1.095-0.511-1.5c0.646,0.03,1.307,0.03,1.815,0.03c1.05,0,1.125,0,1.125-0.405v-2.595
					c-2.476,1.935-5.505,3.345-8.819,4.319c-0.181-0.33-0.57-0.915-0.87-1.216c2.625-0.72,5.13-1.77,7.274-3.135
					c-2.46,0.227-4.785,0.42-6.436,0.54c-0.045,0.135-0.149,0.195-0.255,0.226l-0.479-1.591c0.66-0.028,1.439-0.06,2.325-0.118
					v-7.142h3.119c0.226-0.51,0.436-1.063,0.569-1.515l1.875,0.359c-0.045,0.12-0.165,0.181-0.359,0.194
					c-0.136,0.285-0.33,0.615-0.524,0.96h4.05V52.081z M514.197,48.556h-5.835v1.187h5.835V48.556z M514.197,51.991v-1.2h-5.835v1.2
					H514.197z M508.362,53.041v1.335c1.635-0.075,3.45-0.195,5.25-0.3c0.194-0.165,0.39-0.33,0.585-0.512v-0.523H508.362z"/>
				<path fill="#FFFFFF" d="M524.683,53.626l-1.83,0.585v4.063c0,1.365-0.494,1.605-2.864,1.605c-0.045-0.375-0.24-0.945-0.42-1.32
					c0.404,0.016,0.811,0.03,1.109,0.03c0.705,0,0.779,0,0.779-0.315v-3.613l-1.439,0.435c-0.015,0.135-0.119,0.225-0.225,0.255
					l-0.495-1.62c0.601-0.135,1.335-0.313,2.159-0.523v-3.03h-1.994v-1.32h1.994v-3.015l1.756,0.09
					c-0.016,0.136-0.12,0.227-0.36,0.256v2.669h1.771v1.32h-1.771v2.67l1.681-0.45L524.683,53.626z M532.707,57.271h-1.875
					c1.005,0.601,2.085,1.365,2.7,1.92l-1.41,0.721c-0.555-0.585-1.62-1.409-2.564-1.994l0.899-0.646h-3.314l1.064,0.63
					c-0.045,0.062-0.149,0.091-0.285,0.105c-0.688,0.66-2.13,1.455-3.329,1.904c-0.226-0.284-0.66-0.721-0.976-0.989
					c1.08-0.375,2.34-1.051,3.061-1.65h-1.5v-6.854h7.529V57.271z M532.317,46.366v3.3h-6.855v-3.3H532.317z M526.527,51.48v0.887
					h4.784V51.48H526.527z M526.527,53.371v0.898h4.784v-0.898H526.527z M526.527,55.275v0.915h4.784v-0.915H526.527z
					 M530.922,48.646v-1.244h-4.154v1.244H530.922z"/>
				<path fill="#FFFFFF" d="M542.067,53.581h6.073v1.17h-13.453v-1.17h5.938v-0.945h-4.454v-1.08h4.454v-0.854h-3.869v-1.11h3.869
					v-0.96l1.785,0.104c-0.015,0.136-0.104,0.21-0.345,0.239v0.615h4.005v1.11h-4.005v0.854h4.68v1.08h-4.68L542.067,53.581
					L542.067,53.581z M536.473,48.511v1.62h-1.396v-2.865h5.55v-1.454l1.8,0.119c-0.015,0.12-0.104,0.21-0.345,0.24v1.095h5.67
					v2.865h-1.439v-1.62H536.473L536.473,48.511z M536.817,59.896v-4.38h9.33v4.351h-1.44v-0.436h-6.524v0.465H536.817z
					 M544.707,56.655h-6.524v1.637h6.524V56.655z"/>
				<path fill="#FFFFFF" d="M551.322,51.781c-0.495,0.75-1.021,1.439-1.545,2.039c-0.136-0.345-0.495-1.063-0.689-1.408
					c1.364-1.472,2.744-3.99,3.585-6.495l1.619,0.555c-0.06,0.12-0.18,0.165-0.39,0.165c-0.375,1.005-0.825,2.01-1.32,2.97
					l0.466,0.137c-0.016,0.119-0.12,0.193-0.33,0.225v9.944h-1.396V51.781z M563.307,54.525h-3.345
					c0.931,1.485,2.385,2.91,3.78,3.676c-0.315,0.255-0.78,0.766-1.005,1.125c-1.275-0.854-2.58-2.279-3.54-3.811v4.38h-1.425V55.59
					c-1.021,1.53-2.37,2.895-3.735,3.705c-0.225-0.346-0.66-0.855-0.975-1.125c1.47-0.75,2.97-2.146,3.96-3.646h-3.48v-1.29h4.23
					v-1.528h-3.15V46.53h7.92v5.176h-3.345v1.528h4.109V54.525L563.307,54.525z M555.957,47.791v2.64h5.16v-2.64H555.957z"/>
				<path fill="#FFFFFF" d="M568.768,46.441l0.915,0.494c-0.029,0.075-0.074,0.15-0.136,0.195c-0.359,1.186-0.93,2.79-1.454,4.05
					c1.125,1.17,1.529,2.085,1.529,3.03c0,2.278-1.5,2.25-2.685,2.205c-0.016-0.36-0.15-0.887-0.315-1.215
					c0.24,0.015,0.479,0.028,0.676,0.028c0.585,0,1.005-0.06,1.005-1.153c0-0.75-0.404-1.65-1.471-2.73
					c0.42-1.08,0.841-2.505,1.141-3.569h-1.726v12.119h-1.26V46.486h3.569L568.768,46.441z M577.767,55.815h-2.895
					c0.885,1.74,2.085,2.415,3.735,2.94c-0.33,0.3-0.677,0.779-0.825,1.199c-1.695-0.646-2.94-1.484-3.87-3.284
					c-0.585,1.305-1.814,2.505-4.305,3.3c-0.136-0.3-0.54-0.84-0.78-1.08c2.58-0.795,3.615-1.89,4.035-3.075h-2.955v-4.034h3.194
					v-1.216h-2.146v-0.733c-0.45,0.313-0.915,0.6-1.396,0.84c-0.149-0.33-0.42-0.84-0.675-1.141c1.71-0.795,3.404-2.324,4.199-3.675
					l1.665,0.074c-0.03,0.091-0.12,0.181-0.255,0.195c0.944,1.274,2.67,2.55,4.2,3.194c-0.256,0.33-0.557,0.854-0.735,1.244
					c-0.42-0.21-0.854-0.465-1.29-0.765v0.765h-2.279v1.216h3.374v4.035H577.767z M571.152,54.706h1.92
					c0.029-0.227,0.029-0.45,0.029-0.677v-1.14h-1.949V54.706z M576.072,49.381c-0.915-0.689-1.755-1.5-2.325-2.28
					c-0.495,0.735-1.274,1.562-2.189,2.28H576.072z M576.479,52.891h-2.086v1.17c0,0.21,0,0.437-0.016,0.646h2.102V52.891z"/>
			</g>
		</g>
		<g>
			<g>
				<path fill="#FFFFFF" d="M480.954,77.978c2.185,0.494,4.005,2.262,4.005,4.939c0,3.275-2.627,5.929-7.203,5.929
					c-2.08,0-3.951-0.546-4.938-1.196l0.856-2.912c0.729,0.469,2.314,1.066,3.822,1.066c2.366,0,3.536-1.456,3.536-3.068
					c0-2.21-1.924-3.25-4.03-3.25h-1.326v-2.704h1.248c1.534,0,3.511-0.857,3.511-2.756c0-1.378-0.909-2.393-2.729-2.393
					c-1.353,0-2.678,0.599-3.432,1.066l-0.808-2.758c1.016-0.676,3.018-1.352,5.122-1.352c3.771,0,5.747,2.21,5.747,4.811
					c0,2.027-1.223,3.719-3.381,4.523V77.978L480.954,77.978z"/>
				<path fill="#FFFFFF" d="M492.914,83.932c-0.884,2.782-2.184,5.954-3.432,7.982l-2.549,0.26c0.832-2.366,1.639-5.46,2.002-7.931
					L492.914,83.932z"/>
				<path fill="#FFFFFF" d="M494.682,78.784c0-5.98,2.21-10.192,6.631-10.192c4.628,0,6.423,4.576,6.423,10.036
					c0,6.501-2.418,10.219-6.554,10.219C496.605,88.846,494.682,84.27,494.682,78.784z M501.233,85.804
					c1.769,0,2.651-2.496,2.651-7.099c0-4.446-0.806-7.072-2.626-7.072c-1.664,0-2.729,2.393-2.729,7.072
					c0,4.653,0.963,7.099,2.679,7.099H501.233z"/>
				<path fill="#FFFFFF" d="M509.554,78.784c0-5.98,2.21-10.192,6.63-10.192c4.629,0,6.424,4.576,6.424,10.036
					c0,6.501-2.42,10.219-6.554,10.219C511.478,88.846,509.554,84.27,509.554,78.784z M516.105,85.804
					c1.769,0,2.651-2.496,2.651-7.099c0-4.446-0.806-7.072-2.626-7.072c-1.664,0-2.729,2.393-2.729,7.072
					c0,4.653,0.962,7.099,2.679,7.099H516.105z"/>
				<path fill="#FFFFFF" d="M524.426,78.784c0-5.98,2.21-10.192,6.63-10.192c4.628,0,6.423,4.576,6.423,10.036
					c0,6.501-2.418,10.219-6.553,10.219C526.35,88.846,524.426,84.27,524.426,78.784z M530.979,85.804
					c1.769,0,2.651-2.496,2.651-7.099c0-4.446-0.806-7.072-2.626-7.072c-1.664,0-2.729,2.393-2.729,7.072
					c0,4.653,0.963,7.099,2.679,7.099H530.979z"/>
				<path fill="#FFFFFF" d="M569.459,71.322h-12.143c-0.104,0.155-0.339,0.285-0.65,0.313c-0.078,1.274-0.156,2.574-0.26,3.9h8.033
					l0.755-0.026l1.897,0.208c0,0.261-0.052,0.702-0.104,1.015c-0.363,8.347-0.857,11.57-1.924,12.767
					c-0.885,1.065-1.925,1.403-4.89,1.403c-0.806,0-1.688-0.024-2.573-0.052c-0.077-0.937-0.521-2.288-1.145-3.172
					c1.898,0.155,3.718,0.155,4.603,0.155c0.469,0,0.779-0.077,1.065-0.338c0.702-0.649,1.118-3.275,1.404-8.866h-7.54
					c-0.808,4.759-2.756,9.387-8.062,12.377c-0.468-0.884-1.403-1.978-2.262-2.626c7.229-3.719,7.462-10.713,7.645-17.058h-6.994
					v-3.119h23.142L569.459,71.322L569.459,71.322z"/>
				<path fill="#FFFFFF" d="M595.068,68.072v19.215c0,3.275-1.586,3.641-6.422,3.641c-0.156-0.858-0.677-2.314-1.146-3.12
					c1.015,0.078,2.106,0.078,2.887,0.078c1.378,0,1.534,0,1.534-0.65V80.89h-15.861v10.036h-3.146V68.072H595.068z M576.063,71.166
					v6.63h6.188v-6.63H576.063z M585.37,77.795h6.553v-6.63h-6.553V77.795z"/>
			</g>
		</g>
		<g>
			<g>
				<path fill="#FFFFFF" d="M481.941,104.6c-1.417,1.185-2.573,3.406-2.573,6.021c0,2.664,1.195,4.86,2.573,6.02v0.064h-0.987
					c-1.326-1.185-2.457-3.42-2.457-6.084c0-2.666,1.131-4.902,2.457-6.084h0.987V104.6z"/>
				<path fill="#FFFFFF" d="M489.794,104.821c-0.039,0.104-0.144,0.171-0.325,0.171c-0.143,0.389-0.325,0.856-0.521,1.299h4.523
					v10.389h-1.3v-0.676h-6.487v0.715h-1.247V106.29h3.186c0.194-0.572,0.39-1.248,0.493-1.781L489.794,104.821z M492.173,107.499
					h-6.487v1.678h6.487V107.499z M492.173,110.321h-6.487v1.689h6.487V110.321z M485.686,114.858h6.487v-1.703h-6.487V114.858z"/>
				<path fill="#FFFFFF" d="M498.387,113.973c-0.052,0.104-0.155,0.144-0.286,0.131c-0.324,0.937-0.896,1.963-1.521,2.613
					c-0.221-0.195-0.624-0.482-0.896-0.639c0.585-0.57,1.093-1.533,1.378-2.496L498.387,113.973z M500.479,105.042v8.348h-4.095
					v-8.348H500.479z M499.322,107.512v-1.469h-1.833v1.469H499.322z M499.322,109.944v-1.481h-1.833v1.481H499.322z
					 M499.322,112.387v-1.508h-1.833v1.508H499.322z M499.868,116.156c-0.208-0.584-0.715-1.493-1.17-2.17l0.976-0.416
					c0.468,0.662,0.976,1.521,1.209,2.105L499.868,116.156z M507.123,107.473c-0.039,0.092-0.145,0.156-0.313,0.156
					c-0.193,0.637-0.532,1.561-0.832,2.172h1.964v1.063h-7.188v-1.063h1.677c-0.039-0.65-0.272-1.639-0.571-2.381l1.001-0.26
					c0.324,0.741,0.571,1.717,0.638,2.366l-0.976,0.273h3.236c-0.221-0.092-0.507-0.195-0.715-0.262
					c0.26-0.662,0.572-1.716,0.715-2.443L507.123,107.473z M507.564,106.03v1.054h-6.448v-1.054h2.574v-1.481l1.521,0.092
					c-0.013,0.104-0.091,0.182-0.313,0.207v1.184L507.564,106.03L507.564,106.03z M501.546,116.717v-4.967h5.604v4.914h-1.195
					v-0.455h-3.25v0.508H501.546z M505.953,112.778h-3.25v2.379h3.25V112.778z"/>
				<path fill="#FFFFFF" d="M514.078,115.364c-0.078,0.078-0.145,0.078-0.325,0.078c-1.054,0.47-2.64,0.988-3.952,1.287
					c-0.194-0.233-0.572-0.649-0.818-0.844c1.313-0.248,2.898-0.689,3.835-1.146L514.078,115.364z M520.721,108.241v0.896h-11.713
					v-0.896h5.227v-0.65h-3.874v-0.779h3.874V106.2h-4.485v-0.859h4.485v-0.805l1.561,0.09c-0.014,0.104-0.091,0.184-0.299,0.209
					v0.506h4.614v0.859h-4.614v0.61h4.056v0.779h-4.056v0.649h5.225V108.241z M519.277,114.727h-8.646v-4.992h8.646V114.727z
					 M511.828,110.489v0.677h6.201v-0.677H511.828z M511.828,111.881v0.688h6.201v-0.688H511.828z M511.828,113.284v0.702h6.201
					v-0.702H511.828z M519.316,116.717c-0.768-0.391-2.146-0.924-3.536-1.34l1.054-0.611c1.404,0.416,3.003,0.963,3.938,1.353
					L519.316,116.717z"/>
				<path fill="#FFFFFF" d="M523.464,109.684c-0.43,0.648-0.885,1.248-1.34,1.769c-0.116-0.3-0.429-0.925-0.598-1.224
					c1.183-1.272,2.379-3.457,3.106-5.629l1.403,0.48c-0.052,0.104-0.155,0.145-0.338,0.145c-0.324,0.869-0.716,1.74-1.145,2.572
					l0.403,0.117c-0.014,0.104-0.104,0.17-0.286,0.194v8.619h-1.209v-7.044H523.464z M533.851,112.063h-2.897
					c0.806,1.287,2.065,2.521,3.275,3.185c-0.272,0.223-0.677,0.664-0.871,0.977c-1.104-0.742-2.235-1.977-3.067-3.303v3.797h-1.235
					v-3.732c-0.884,1.326-2.054,2.511-3.236,3.211c-0.195-0.299-0.572-0.739-0.846-0.975c1.274-0.65,2.574-1.859,3.433-3.158h-3.017
					v-1.119h3.666v-1.325h-2.729v-4.484h6.864v4.484h-2.898v1.325h3.563v1.118H533.851z M527.48,106.225v2.289h4.473v-2.289H527.48z
					"/>
				<path fill="#FFFFFF" d="M538.583,105.055l0.793,0.43c-0.026,0.064-0.065,0.129-0.117,0.168
					c-0.313,1.027-0.807,2.418-1.261,3.511c0.975,1.016,1.325,1.809,1.325,2.627c0,1.977-1.3,1.948-2.327,1.91
					c-0.013-0.312-0.13-0.767-0.272-1.054c0.208,0.015,0.416,0.027,0.585,0.027c0.508,0,0.871-0.053,0.871-1.002
					c0-0.65-0.352-1.43-1.273-2.365c0.364-0.938,0.729-2.172,0.988-3.096h-1.495v10.506h-1.093v-11.623h3.095L538.583,105.055z
					 M546.383,113.18h-2.509c0.767,1.508,1.807,2.094,3.237,2.549c-0.286,0.26-0.586,0.676-0.717,1.039
					c-1.469-0.559-2.548-1.287-3.354-2.846c-0.507,1.131-1.573,2.17-3.731,2.858c-0.116-0.26-0.468-0.729-0.676-0.936
					c2.236-0.689,3.133-1.639,3.497-2.666h-2.562v-3.496h2.77v-1.055h-1.858v-0.637c-0.391,0.272-0.794,0.521-1.209,0.729
					c-0.131-0.285-0.364-0.729-0.586-0.988c1.482-0.688,2.951-2.016,3.642-3.186l1.441,0.065c-0.024,0.078-0.104,0.156-0.221,0.168
					c0.819,1.105,2.314,2.212,3.64,2.771c-0.221,0.285-0.479,0.74-0.637,1.078c-0.364-0.183-0.741-0.402-1.118-0.662v0.662h-1.976
					v1.055h2.925L546.383,113.18L546.383,113.18z M540.649,112.219h1.663c0.026-0.195,0.026-0.391,0.026-0.586v-0.988h-1.689
					V112.219z M544.914,107.604c-0.793-0.6-1.521-1.301-2.016-1.977c-0.43,0.637-1.104,1.352-1.897,1.977H544.914z M545.265,110.645
					h-1.807v1.015c0,0.184,0,0.377-0.014,0.561h1.819L545.265,110.645L545.265,110.645z"/>
				<path fill="#FFFFFF" d="M555.47,111.918c-0.78,0.092-1.885,0.156-2.898,0.156c-0.064,0.663-0.064,0.741-0.064,0.963
					c0,1.702,1.014,2.016,2.354,2.016c0.546,0,1.132-0.078,1.639-0.223c0.741-0.193,1.118-0.716,1.118-1.402
					c0-0.65-0.325-1.443-0.988-2.264c0.338-0.104,0.884-0.3,1.183-0.429c0.78,1.066,1.171,2.066,1.171,2.912
					c0,2.613-3.394,2.613-4.146,2.613c-1.925,0-3.589-0.494-3.589-3.277c0-0.299,0.026-0.623,0.053-0.961
					c-0.949-0.039-2.782-0.131-2.782-1.586c0.014-0.547,0.338-1.158,1.093-1.729l0.976,0.481c-0.521,0.324-0.846,0.728-0.846,1.054
					c0,0.584,0.857,0.61,1.65,0.637c0.078-0.793,0.169-1.703,0.286-2.627c-0.885-0.078-1.924-0.312-2.626-0.648l0.286-1.197
					c0.688,0.326,1.56,0.56,2.47,0.664c0.092-0.768,0.195-1.561,0.261-2.225l1.794,0.209c-0.025,0.156-0.194,0.26-0.441,0.285
					c-0.092,0.508-0.195,1.17-0.3,1.834c0.352,0.025,0.755,0.039,1.157,0.039c0.455,0,0.923-0.014,1.325-0.053l-0.052,1.196
					c-0.377,0.025-0.832,0.039-1.287,0.039s-0.91-0.014-1.313-0.039c-0.104,0.871-0.208,1.754-0.285,2.562
					c0.948-0.015,1.976-0.078,2.795-0.195L555.47,111.918z"/>
				<path fill="#FFFFFF" d="M564.349,107.577c-0.923,0.571-1.963,1.104-3.003,1.508c-0.13-0.271-0.43-0.715-0.649-0.961
					c2.196-0.793,4.406-2.236,5.499-3.549l1.65,0.077c-0.039,0.091-0.143,0.168-0.299,0.193c1.287,1.314,3.588,2.523,5.525,3.121
					c-0.273,0.285-0.547,0.729-0.741,1.066c-0.923-0.353-1.95-0.847-2.899-1.418v0.663h-5.083V107.577z M570.056,109.163
					l0.871,0.377c-0.039,0.078-0.091,0.155-0.143,0.209c-0.339,0.61-0.847,1.481-1.365,2.287h1.677v4.692h-1.261v-0.494h-5.902
					v0.494h-1.209v-4.692h5.253c0.352-0.545,0.729-1.183,1.039-1.742h-6.513v-1.092h7.319L570.056,109.163z M569.835,115.17v-2.056
					h-5.902v2.056H569.835z M568.834,107.239c-0.793-0.506-1.495-1.065-2.028-1.61c-0.48,0.533-1.156,1.078-1.938,1.61H568.834z"/>
				<path fill="#FFFFFF" d="M579.194,105.094c-0.014,0.143-0.144,0.221-0.377,0.273c-0.014,0.44-0.039,0.909-0.078,1.391
					c0.976-0.104,1.886-0.273,2.64-0.508l0.169,1.209c-0.715,0.209-1.755,0.377-2.898,0.455c-0.078,1.016-0.169,1.938-0.233,2.549
					c0.025,0.143,0.038,0.313,0.038,0.479c0,0.703-0.207,1.562-0.56,2.041c-0.233,0.431-0.338,0.793-0.338,1.066
					c0,0.885,0.949,1.002,2.119,1.002c0.896,0,1.794-0.039,2.652-0.299c0.546-0.156,0.884-0.572,0.884-1.197
					c0-0.623-0.325-1.43-1.079-2.404c0.325-0.116,0.768-0.287,1.105-0.469c0.896,1.146,1.339,2.223,1.339,3.107
					c0,1.014-0.585,1.768-1.729,2.08c-0.91,0.26-2.313,0.323-3.003,0.323c-1.079,0-3.536,0-3.536-1.664
					c0-0.271,0.078-0.569,0.222-0.896c-0.169,0.053-0.352,0.078-0.521,0.078c-0.846,0-1.625-0.637-1.625-1.963
					c0-1.679,1.104-2.482,2.105-2.482c0.286,0,0.571,0.104,0.768,0.271c0.025-0.429,0.078-0.986,0.104-1.547h-0.716
					c-0.532,0-1.234,0.014-1.885,0.014v-1.146c0.546,0,1.273,0.015,1.897,0.015c0.261,0,0.521-0.015,0.768-0.025
					c0.039-0.688,0.064-1.354,0.064-1.897L579.194,105.094z M577.283,111.192c0-0.532-0.233-0.975-0.715-0.975
					c-0.716,0-1.196,0.559-1.196,1.441c0,0.639,0.313,1.041,0.832,1.041C577.192,112.7,577.283,111.399,577.283,111.192z
					 M585.474,109.656c-0.948-0.479-2.353-0.831-3.536-0.975l0.261-1.117c1.273,0.117,2.705,0.429,3.641,0.896L585.474,109.656z"/>
				<path fill="#FFFFFF" d="M586.773,116.639c1.417-1.184,2.573-3.406,2.573-6.02c0-2.666-1.195-4.863-2.573-6.021v-0.063h0.987
					c1.339,1.182,2.457,3.418,2.457,6.084c0,2.664-1.118,4.899-2.457,6.084h-0.987V116.639z"/>
			</g>
		</g>
	</g>
</g>
</svg>
