<?xml version="1.0" encoding="utf-8"?>
<!-- Generator: Adobe Illustrator 16.0.0, SVG Export Plug-In . SVG Version: 6.00 Build 0)  -->
<!DOCTYPE svg PUBLIC "-//W3C//DTD SVG 1.1//EN" "http://www.w3.org/Graphics/SVG/1.1/DTD/svg11.dtd">
<svg version="1.1" id="レイヤー_1" xmlns="http://www.w3.org/2000/svg" xmlns:xlink="http://www.w3.org/1999/xlink" x="0px"
	 y="0px" width="178.793px" height="50.712px" viewBox="0 0 178.793 50.712" enable-background="new 0 0 178.793 50.712"
	 xml:space="preserve">
<g opacity="0.6">
	<g>
		<g>
			<path fill="#E87D72" d="M174.434,20.336l-4.432-7.053c-1.5-2.385-4.119-3.83-6.934-3.83h-20.641c-3.471,0-6.799,1.396-9.23,3.875
				l-5.889,6.006l-14.049,3.254c-2.347,0.543-4.005,2.633-4.005,5.039v5.516c0,1.188,0.964,2.154,2.154,2.154h7.47
				c-0.01,0.148-0.023,0.297-0.023,0.447c0,3.881,3.146,7.029,7.031,7.029c3.882,0,7.029-3.148,7.029-7.029
				c0-0.15-0.016-0.299-0.024-0.447h22.103c-0.008,0.148-0.022,0.297-0.022,0.447c0,3.881,3.147,7.029,7.028,7.029
				c3.883,0,7.029-3.148,7.029-7.029c0-0.15-0.012-0.299-0.021-0.447h4.792c1.19,0,2.155-0.967,2.155-2.154v-7.531
				C175.956,23.744,175.428,21.918,174.434,20.336z M125.887,38.545c-1.548,0-2.801-1.256-2.801-2.801
				c0-1.547,1.253-2.801,2.801-2.801c1.545,0,2.799,1.254,2.799,2.801C128.686,37.289,127.432,38.545,125.887,38.545z
				 M143.666,20.869h-12.664l4.848-4.941c1.722-1.754,4.119-2.76,6.578-2.76h1.238V20.869L143.666,20.869z M158.108,20.869h-11.196
				v-7.701h11.196V20.869z M162,38.545c-1.544,0-2.799-1.256-2.799-2.801c0-1.547,1.255-2.801,2.799-2.801
				c1.547,0,2.801,1.254,2.801,2.801C164.801,37.289,163.547,38.545,162,38.545z M161.358,20.869v-7.701h1.71
				c1.549,0,2.965,0.781,3.789,2.092l3.523,5.609H161.358L161.358,20.869z"/>
		</g>
	</g>
	<g>
		<g>
			<rect x="3.005" y="2.971" fill="#E87D72" width="51.704" height="10.645"/>
		</g>
		<g>
			<path fill="#E87D72" d="M3.005,44.029h29.653V27.809h11.987v16.221h10.063V16.656H3.005V44.029z M12.129,27.303h8.11v8.109h-8.11
				V27.303z"/>
		</g>
	</g>
	<g>
		<line fill="#E87D72" x1="65" y1="30" x2="97" y2="30"/>
		<g>
			<line fill="none" stroke="#4B4B4B" stroke-width="6" stroke-miterlimit="10" x1="73" y1="30" x2="97" y2="30"/>
			<g>
				<polygon fill="#4B4B4B" points="75,20.842 75,39.794 65.527,30.319 				"/>
			</g>
		</g>
	</g>
</g>
<text transform="matrix(1 0 0 1 49.9854 53.4458)" fill="#ED1C24" font-family="'KozGoPro-Bold-90ms-RKSJ-H'" font-size="67.0759">×</text>
</svg>
