<?xml version="1.0" encoding="utf-8"?>
<!-- Generator: Adobe Illustrator 16.0.0, SVG Export Plug-In . SVG Version: 6.00 Build 0)  -->
<!DOCTYPE svg PUBLIC "-//W3C//DTD SVG 1.1//EN" "http://www.w3.org/Graphics/SVG/1.1/DTD/svg11.dtd">
<svg version="1.1" id="レイヤー_1" xmlns="http://www.w3.org/2000/svg" xmlns:xlink="http://www.w3.org/1999/xlink" x="0px"
	 y="0px" width="207.622px" height="94.405px" viewBox="0 0 207.622 94.405" enable-background="new 0 0 207.622 94.405"
	 xml:space="preserve">
<g>
	<path fill="#FFFFFF" d="M51.516,77.313C31.047,77.254,4.98,69.643,5.488,46.256c0.348-16.102,15.102-29.68,30.23-35.395
		c17.637-6.664,37.966-5.301,56.335-2.811C123.605,12.33,184.9-8.291,200.359,30.398c6.533,16.35-3.259,32.502-18.695,40.43
		c-20.094,10.32-42.88,3.77-64.365,4.045c-1.309,0.018-22.237,0.301-21.58-0.588c-3.239,4.391-7.58,9.355-12.271,12.246
		c-2.29,1.412-5.173,2.957-7.831,3.461c1.869-2.043,3.398-3.729,4.581-6.289c1.179-2.553,2.101-5.297,3.401-7.764
		c-9.046,2.619-19.368,2.262-28.699,2.113"/>
	<g>
		<path fill="none" d="M51.516,77.313C31.047,77.254,4.98,69.643,5.488,46.256c0.348-16.102,15.102-29.68,30.23-35.395
			c17.637-6.664,37.966-5.301,56.335-2.811C123.605,12.33,184.9-8.291,200.359,30.398c6.533,16.35-3.259,32.502-18.695,40.43
			c-20.094,10.32-42.88,3.77-64.365,4.045c-1.309,0.018-22.237,0.301-21.58-0.588c-3.239,4.391-7.58,9.355-12.271,12.246
			c-2.29,1.412-5.173,2.957-7.831,3.461c1.869-2.043,3.398-3.729,4.581-6.289c1.179-2.553,2.101-5.297,3.401-7.764
			c-9.046,2.619-19.368,2.262-28.699,2.113"/>
		<g>
			<polygon fill="#744F4A" points="54.893,78.6 55.359,78.768 57.863,78.605 			"/>
			<path fill="#744F4A" d="M80.613,77.416c0.557-0.182,1.242-0.393,1.956-0.609l1.078-0.328l0.067-0.021l0.017-0.006l0.009-0.002
				l0.004-0.002c-0.273-0.336,0.615,0.752-0.611-0.754l-0.002,0.002l-0.014,0.033l-0.054,0.131l-0.106,0.258l-0.206,0.502
				c-0.556,1.307-0.841,2.393-0.714,2.488c0.23-0.656,0.436-1.322,0.708-1.967l0.389-0.977c0.183,0.121-0.134-0.961,0.458,0.146
				l-0.497,0.162c-0.636-0.1-3.277,0.611-5.671,1.029l2.709-0.48c-0.693,0.152-0.215,0.234-0.91,0.387
				c-4.172,0.609-5.23,0.979-9.133,0.977l0.217-0.041c-1.016,0.137-2.035,0.195-3.056,0.285c-0.968-0.01-0.587-0.139-0.28-0.193
				c-2.727,0.205-4.801,0.326-8.498,0.268c2.863,0.518,8.121-0.307,10.994,0.018l-0.217,0.035
				C72.822,78.422,77.029,78.291,80.613,77.416z"/>
			<path fill="#744F4A" d="M66.971,78.436l0.24-0.02C67.195,78.404,67.09,78.416,66.971,78.436z"/>
			<path fill="#744F4A" d="M183.643,70.861l0.096-0.137C183.555,70.857,183.385,70.982,183.643,70.861z"/>
			<path fill="#744F4A" d="M139.072,76.066l0.217,0.025C139.585,76.012,139.433,76.025,139.072,76.066z"/>
			<path fill="#744F4A" d="M15.535,22.916l-0.707,0.57C15.059,23.393,15.295,23.182,15.535,22.916z"/>
			<path fill="#744F4A" d="M24.497,73.402l0.088,0.031L24.497,73.402z"/>
			<path fill="#744F4A" d="M6.725,53.396l0.063-0.135C6.709,53.162,6.697,53.23,6.725,53.396z"/>
			<path fill="#744F4A" d="M18.092,68.271c0.442,0.305,0.871,0.613,1.334,0.891C19.131,68.932,18.576,68.551,18.092,68.271z"/>
			<path fill="#744F4A" d="M23.92,73.211l0.577,0.191C24.277,73.324,24.062,73.25,23.92,73.211z"/>
			<path fill="#744F4A" d="M14.248,26.57l0.672-0.41C14.854,26.115,14.542,26.352,14.248,26.57z"/>
			<path fill="#744F4A" d="M22.312,70.449c0.214,0.166,0.528,0.346,0.87,0.51C23.033,70.838,22.74,70.676,22.312,70.449z"/>
			<path fill="#744F4A" d="M82.643,76.307l0.189-0.4l0.1-0.211l0.025-0.055l0.013-0.025l0.001-0.004v-0.002l0,0
				c-0.178-0.221,1.563,1.918,0.826,1.012l-0.004,0.002l-0.006,0.002l-0.016,0.002l-0.115,0.031
				c-0.318,0.084-0.658,0.176-1.031,0.281c0.358-0.078,0.693-0.162,1.01-0.246l0.119-0.033l0.029-0.008l0.016-0.004h0.002
				l0.002-0.002l0,0c0.188,0.229-1.619-1.988-0.855-1.049l0,0l-0.004,0.008L82.92,75.66l-0.098,0.219L82.643,76.307z"/>
			<path fill="#744F4A" d="M118.499,8.861c-0.15,0.037-0.269,0.074-0.345,0.115C118.588,8.928,118.607,8.893,118.499,8.861z"/>
			<path fill="#744F4A" d="M53.99,7.451L53.781,7.48c0.057,0.006,0.137,0.01,0.27,0.012L53.99,7.451z"/>
			<path fill="#744F4A" d="M72.727,6.945l-0.252,0.041C72.656,6.971,72.707,6.959,72.727,6.945z"/>
			<path fill="#744F4A" d="M40.232,10.467c-0.213,0.084-0.424,0.172-0.603,0.26L40.232,10.467z"/>
			<path fill="#744F4A" d="M27.812,15.533c0.575-0.211,0.038,0.152-0.45,0.568c2.947-1.564,3.801-2.367,7.082-3.547
				c-0.515,0.178-1.046,0.32-1.548,0.533c1.968-1.096,5.892-2.598,7.919-2.871l-0.582,0.25c2-0.834,5.385-1.244,6.243-1.584
				c-0.89,0.066,0.003-0.182-1.355,0.029c1.767-0.469,3.558-0.871,5.361-1.209l0.454,0.266c0.948-0.162,1.889-0.371,2.846-0.488
				c-0.723-0.059,3.856-0.303,3.914-0.568c1.654,0.008-0.663,0.291-1.238,0.461c1.617-0.209,1.799-0.076,3.295-0.367l1.619,0.219
				c1.408-0.127,2.816-0.23,4.232-0.291c-0.215,0.027,0.051,0.047-0.154,0.074c1.941-0.268,4.917,0.18,7.406-0.104
				c-0.127,0.008-0.093,0.023-0.129,0.041c1.365-0.182,4.703,0.217,5.918,0.369c2.193,0.137,0.932-0.193,1.034-0.305
				c6.343,0.678,4.313,0.463,9.679,0.764c3.135,0.766-3.83,0.09,0.182,0.857c0.55-0.111,3.385,0.18,6.61,0.338
				c2.931,0.379,7.86,0.475,10.71,0.621l-0.299-0.227c1.375-0.074,2.748-0.164,4.117-0.277l-2.329,0.439
				c0.657-0.094,2.721-0.348,4.089-0.521c4.258-0.457,2.455,0.381,5.744-0.195c0.13,0.018,0.244,0.033,0.317,0.053
				c1.054-0.246,3.856-0.381,7.068-0.682l-1.098,0.383l-2.095,0.084c1.146,0.213,3.45-0.297,5.48-0.426
				c2.115-0.252,1.043-0.422,2.174-0.59c0.768-0.039,1.906-0.211,2.523-0.162c1.873-0.027,0.221,0.34-0.357,0.504
				c1.593-0.402,2.151-0.422,5.744-0.74c0.197,0.135-0.061,0.213-0.535,0.268c0.756-0.08,1.409-0.178,1.795-0.33l1.23,0.109
				c4.1,0.088,4.037-0.742,8.943-0.711c-1.307,0.158,4.227-0.053,5.723,0.217c-1.696,0.008,0.799,0.459-0.234,0.615
				c3.887,0.24,1.563-0.293,4.728-0.211l-1.296,0.307c3.043,0.008,0.75-0.182,3.855-0.035c-0.863,0.031,1.359,0.221-0.481,0.178
				c4.017,0.4,2.972,0.313,6.479,0.842l0.345-0.307c1.178,0.172,1.596,0.408,1.914,0.533c-0.486-0.08-1.238-0.229-1.18-0.17
				c1.309,0.533,2.271,0.229,3.761,0.896c-0.356-0.201-0.761-0.461,0.678-0.143c-0.499,0.07,2.126,0.754,2.192,0.912
				c-0.841-0.424,3.02,0.834,3.262,0.756c1.527,0.76-0.561-0.025-0.685,0.055c1.418,0.166,5.481,2.172,6.604,2.768
				c0.013,0.033,0.066,0.082,0.054,0.092c1.635,0.725,4.191,2.25,6.961,4.537l-1.061-0.658c2.604,2.465,1.863,1.219,3.936,3.412
				c-0.592-0.334,2.971,4.006,1.89,3.119c1.053,1.443,2.108,3.047,2.769,4.047c0.563,1.629-1.718-2.781-0.809-0.592l1.201,2.252
				l0.043,0.475c0.154,0.047,0.871,2.164,0.928,2.025c-0.043,0.436,0.134,1.439-0.061,1.375c0.461,1.537,0.66,3.758,0.891,5.07
				l-0.08,0.125c0.523,1.516,0.021,4.83,0.218,5.639c-0.11,0.32-0.188,0.645-0.343,0.953c-0.521,2.377,0.017,2.039-0.253,3.156
				c-0.331,0.93-0.575,2.141-1.083,3.064c1.033-3.061-0.881,1.396-1.326,1.908c-0.546,1.139-2.498,4.275-3.012,5.178
				c0.727-1.35,0.063-0.664,1.57-2.918c-1.084,1.02-2.188,3.496-4.35,5.686l-0.102-0.137c-2.945,3.154-2.941,3.396-4.24,4.803
				c-0.541,0.154-0.225-0.156,0.623-1.07c-2.297,1.764-6.063,4.389-9.068,5.719c-0.998,0.295-0.416-0.066,0.534-0.572
				c-2.956,1.619-6.923,2.898-8.904,3.701c0.76-0.379-1.328,0.305-2.567,0.477c0.016,0.074-0.197,0.213-0.348,0.232
				c-1.984,0.59-6.525,1.436-8.971,1.379l0.865-0.17c-5.572,0.342-8.064,0.934-14.191,0.414c-1.094-0.125,1.148-0.248-1.102-0.344
				c-1.098,0.068-0.756,0.369-3.609,0.117l0.211-0.229l-1.965,0.104c0.986,0.283,4.179,0.404,1.932,0.488
				c-2.541-0.402-2.246,0.064-5.33-0.43c0.717,0.031,1.67-0.084,2.186-0.143c-6.482-0.758-9.113-0.512-15.691-1.09
				c-3.291,0.033-7.51,0.158-9.791,0.346c0.188-0.242,0.162-0.453,1.682-0.656c-2.805-0.004-4.123,0.543-6.084,0.191
				c-1.348,0.348-7.795,0.162-8.482,0.576c-0.113-0.092-3.035-0.111-0.072-0.264c-1.924,0.016-3.191-0.15-4.188-0.402
				c-0.253-0.074-0.477-0.123-0.716-0.275c0.18-0.389-0.218,0.162-0.288,0.193c-0.294,0.305-0.566,0.607-0.83,0.957
				c-0.593,0.789,0.932-0.707-0.46,1.068c-0.188,0.203-0.265,0.223-0.456,0.43l-0.461,0.742c-0.656,0.621,0.449-0.898,0.399-1.049
				c-2.071,2.357-3.139,4.16-5.896,6.707l0.424-0.488c-0.932,0.861-1.93,1.646-2.938,2.414l0.156-0.152
				c-0.809,0.619-1.609,1.285-2.479,1.826l0.02-0.148c-0.602,0.377-0.688,0.557-1.564,1.029l0.215-0.275
				c-0.721,0.691-4,2.383-5.844,2.689l-0.021,0.002h-0.005l0,0l0,0c0.374,0.672-0.511-0.914-0.419-0.75l0,0v-0.002h0.002
				l0.002-0.002l0.009-0.006l0.034-0.025l0.067-0.051l0.136-0.102c0.854-1.09,1.699-2.176,2.391-3.322
				c1.343-1.684-1.259,2.48,1.043-1.129c-0.08,0.379-0.237,0.717-0.357,1.086c1.559-2.66,1.734-3.1,2.5-5.086
				c-0.5,0.838-1.084,2.178-0.768,1.133c1.292-2.109,1.356-3.656,2.301-5.875c-0.542,1.098-0.859,1.85-1.018,2.674
				c-0.502,1.168-0.324,0.361-0.635,1.072l-0.527,1.717l-0.391,0.381c-0.33,0.969-0.735,1.867-1.166,2.754
				c-0.04-0.24-1.556,2.229-1.096,1.145c-0.533,0.875-1.121,1.469-1.627,2.086l-0.801,0.926l-0.201,0.248l-0.101,0.129l-0.024,0.033
				l-0.004,0.004l0,0c-0.155-0.275,1.34,2.406,0.707,1.271l0.004-0.002l0.01-0.002l0.021-0.008l0.084-0.029l0.695-0.266
				c0.752-0.131,0.186,0.07-0.383,0.256l-0.404,0.129l-0.012,0.004l0,0c-1.568-2.814-0.436-0.781-0.785-1.41h0.002l0.002-0.002
				l0.003-0.004l0.013-0.018l0.026-0.031l0.047-0.057l0.069-0.088c0.033-0.045,0.041-0.057,0.006-0.023l-0.084,0.086l-0.068,0.072
				l-0.02,0.021l-0.011,0.01l-0.006,0.006l-0.002,0.004l-0.001,0.002l0,0c-0.18-0.318,1.545,2.773,0.815,1.465l0.069-0.018
				c4.426-1.201,8.215-3.545,11.695-6.42c1.705-1.461,3.275-3.066,4.786-4.729c0.736-0.846,1.48-1.689,2.181-2.57l1.05-1.32
				l0.516-0.668l0.258-0.334l0.017-0.021l0.008-0.01l0.004-0.006c1.166,0.85-1.58-1.168-1.314-0.932
				c-0.107,0.15-0.191,0.486-0.103,0.748c0.236,0.531,0.228,0.314,0.381,0.49c0.308,0.188,0.292,0.129,0.427,0.186
				c-0.133-0.047-0.141,0.02-0.469-0.18c-0.122-0.166-0.222,0.051-0.416-0.67c-0.016-0.156,0.013-0.318,0.061-0.439l0.078-0.16
				l0.01-0.018l0.004-0.008l0.004-0.004l0.002-0.002c-0.3-0.223,2.609,1.924,1.377,1.016v0.004l-0.004,0.006l-0.029,0.047
				l-0.219,0.381l0.172-0.295l0.045-0.076l0.024-0.037l0.011-0.02l0.004-0.004v-0.002l0,0c1.239,0.912-1.686-1.246-1.387-1.021
				l-0.018,0.027l-0.064,0.127c-0.152,1.293,0.387,1.041,0.484,1.24c0.51,0.182,0.699,0.143,0.983,0.172
				c0.517,0.027,0.968,0.014,1.303-0.002c1.528,0.34,7.396,0.674,9.455,0.305c0.286,0.021-0.161,0.072-0.376,0.1
				c2.969-0.008,8.357,0.16,12.549,0.135c1.779-0.414,6.297,0.393,7.916-0.018l-0.877,0.059c-1.426-0.229,2.063-0.242,2.662-0.336
				c1.161,0.41,0.063,0.262,1.451,0.672l-1.661-0.229l0.35,0.299c5.39-0.354,9.933,1.086,13.314,0.779
				c-0.206,0.014-0.157,0.063-0.379,0.076c2.217,0.291,3.801,0.051,5.444,0.008c0.182,0.146-0.988,0.191-1.854,0.256
				c3.92,0.342,10.541,0.086,14.896-0.086c1.516-0.299-0.598-0.211,0.981-0.467c1.339-0.049,2.302-0.068,0.667,0.252
				c3.824,0.115,12.32-2.145,17.654-4.455c2.678-1.484,0.969-0.654,4.957-3.066c-0.878,0.666,1.213-0.148-1.221,1.238l0,0
				l-0.219,0.291c4.18-2.146,9.078-6.209,10.434-8.439c0.306,0.084,0.682-0.523,1.9-1.813c0.43-0.582-0.078,0.021-0.276,0.232
				c0.904-1.484,1.644-2.012,2.287-3.074l-0.203,0.393c0.599-0.957,1.167-1.926,1.632-2.955c0.309-0.469,0.773-1.178,0.916-1.24
				l-0.201-0.078c0.746-1.65,0.611-0.682,1.48-2.781l-0.34,0.379c0.605-1.303,1.135-3.547,1.367-3.795
				c0.051-0.051-0.008,0.229-0.145,0.723c0.893-2.115,1.155-5.76,1.125-8.553l-0.35,0.717c-0.09-2.691-0.018-1.648,0.182-1.557
				c-0.244-1.799,0.014-2.242-0.519-4.586c-0.341-1.139-0.257-0.576-0.437-0.924c-0.115-0.809-0.432-1.561-0.64-2.346l0.683,1.432
				c-1.396-3.506-3.662-8.674-5.561-10.418c-0.763-1.195,0.921,0.898,0.467,0.186c-2.309-3.885-6.855-7.156-9.83-9.26
				c-4.977-3.434-11.691-5.459-18.141-6.684l0.1,0.113c-1.529-0.332-3.074-0.527-4.619-0.76c-1.274,0.057-4.426-0.352-6.403-0.184
				c0.165-0.064-0.243-0.201,0.206-0.23c-1.984-0.104-4.135-0.039-5.305-0.189l0.663-0.064c-4.386-0.172-10.468,0.002-12.748,0.297
				c-1.493,0.08-1.463-0.078-1.865-0.172c-2.526,0.119-4.173,0.311-6.233,0.596c-0.551-0.004-1.115-0.008-1.736-0.049l-0.941,0.293
				c-1.057,0.041-0.256-0.17-1.092-0.17c-3.904,0.545-8.493,0.648-11.236,0.84l0.4,0.086c-1.133,0.166-3.35,0.15-2.004-0.051
				c-5.438,0.168-8.043,0.889-15.377,0.799c-1.008-0.398-6.6-0.119-7.603-0.793c-3.064-0.229-5.073-0.721-7.262-0.688
				c-0.06-0.053-0.327-0.105,0.168-0.055C85.16,6,81.037,5.707,77.902,5.572l-0.166-0.15c-1.15,0.197-6.563-0.203-7.703,0.102
				c-0.344-0.07,0.602-0.119,1.043-0.152c-1.633-0.32-2.867,0.039-4.973-0.016c0.16-0.074-0.461-0.156-0.02-0.213
				c-7.027-0.396-17.26,0.918-26.119,3.396c-2.455,0.725,0.963-0.012-2.211,1.012c-0.961,0.17,1.451-0.83-0.578-0.195
				c-1.4,0.668-1.938,0.822-3.85,1.609c0.309-0.236-0.031-0.168,1.288-0.785c-1.167,0.32-4.583,2.176-6.737,3.186
				c0.148,0.025-0.207,0.281-0.566,0.541c-2.9,1.938-6.827,4.215-6.971,4.58c0,0-0.932,0.793-0.08,0.158
				c-1.033,0.766-2.43,1.98-2.287,1.658c-0.441,0.516-0.813,0.984-1.533,1.701l0.277-0.508c-0.408,0.424-0.789,1-1.182,1.42
				l0.714-0.574c-1.179,0.912-2.831,3.303-3.001,3.043l0.32-0.387c-0.629,0.674-1.302,1.313-1.869,2.045
				c-0.549,0.98-1.145,1.922-2.129,3.492c-0.754,0.379-2.412,4.105-3.232,6.336L6.265,36.73c-0.595,1.785-1.583,6.459-1.313,5.631
				c-0.309,1.785-0.459,4.254-0.535,3.342c-0.059,1.482,0.154,4.619,0.521,5.354c0.045,0.994,0.137,1.99,0.31,2.984
				c0.743,1.65,2.001,5.674,2.556,5.6c0.791,1.457,0.496,1.191,1.074,2.197c1.5,1.787,3.076,3.574,4.875,5.158l0.016,0.076
				c1.8,1.59,4.24,3.008,7.189,4.486l0.469,0.627c1.598,0.709,2.087,0.645,3.582,1.322c0.334,0.193-0.008,0.072-0.423-0.074
				c1.513,0.572,3.554,1.334,4.694,1.783c2.455,0.479,4.286,1.006,6.48,1.186c1.826,0.688-2.843-0.455-1.284,0.158
				c3.421,0.922,7.039,1.264,10.909,1.414c0.326,0.094-0.109,0.111-0.277,0.172c0.02,0.1,7.881-0.496,6.408-0.898
				c0.967-0.23,2.045-0.342-1.209-0.57c-1.078,0.145-4.141,0.139-4.691-0.164l-0.209,0.223c-4.354-0.299-0.346-0.461-5.531-1.102
				l1.08,0.227c-0.977-0.109-1.785-0.082-2.865-0.34c-0.316-0.119,0.391-0.039,0.82-0.023c-1.44-0.117-2.879-0.275-4.313-0.49
				c-0.148-0.176,0.029-0.211,0.893-0.133c-3.871-0.867,0.673,0.666-4.02-0.611c-0.818-0.35,0.336-0.043,0.979,0.021
				c-2.113-0.777-3.608-1.012-5.827-1.701c0.045-0.211,1.466,0.33-0.273-0.445c0.32,0.221,0.469,0.52-0.899-0.016
				c0.739,0.057-1.005-0.498-2.269-1.164c0.231,0.188,0.092,0.236-0.437,0.037c-0.646-0.277-1.145-0.623-2.017-1.068l1.465,0.992
				c-2.32-0.912-3.359-1.949-4.85-3.057c0.148,0.057,0.422,0.225,0.748,0.408c-1.587-1.166-3.082-2.5-4.941-4.109l0.164,0.133
				c-3.275-3.309,0.596,1.438-3.021-2.668c-0.971-1.518,0.938,0.369-1.365-3.01c0.762,1.822-1.77-2.1-2.374-4.463
				c0.39,0.744,0.741,1.488,1.188,2.18c-0.357-0.871-0.961-2.412-1.018-2.938l-0.063,0.141c-0.322,0.264-0.684-2.984-0.912-4.695
				c0.643,2.092,0.652,2.186,1.168,2.494c-0.522-1.539-1.001-3.463-0.711-6.477c0.047,0.834,0.111,1.658,0.275,2.477
				c-0.023-3.957,0.537-8.693,1.688-11.9c-0.085,0.939,0.517-0.285,0.194,1.139c0.423-1.217,0.999-2.369,1.584-3.521l-0.231,1.109
				c0.396-1.566,1.537-2.924,1.059-2.912c-0.179,0.389-0.108,0.365-0.52,0.998c-0.056-0.139,0.092-0.84,1.184-2.555
				c0.869-1.059-0.33,0.75-0.002,0.508c0.578-1.176,0.882-1.059,1.572-2.215l-0.854,0.865c0.377-0.906,1.311-1.82,2.121-2.883
				c-0.975,1.287-0.524,0.967-0.029,0.602l-0.078,0.047c0.619-0.742,1.326-1.846,1.918-2.213l-0.346,0.809l0.836-1.186
				c0.41-0.359,0.758-0.553,0.164,0.139c3.323-2.951-0.652-0.498,3.963-4.135c0.004,0.166-0.479,0.584-1.691,1.607
				c-0.055,0.324,0.291,0.117,1.539-0.838c0.031-0.006,0.02,0.016,0.029,0.021C22.883,18.85,26.211,16.742,27.812,15.533z"/>
			<path fill="#744F4A" d="M20.582,20.822c-1.235,1.039-2.23,1.975-2.669,2.424C18.185,23.088,20.738,20.885,20.582,20.822z"/>
			<path fill="#744F4A" d="M180.866,70.469l0.526-0.281L180.866,70.469z"/>
			<path fill="#744F4A" d="M168.711,74.707c0.143,0.006,0.393-0.021,0.684-0.061C169.381,74.584,169.207,74.568,168.711,74.707z"/>
			<path fill="#744F4A" d="M137.348,7.504l0.057-0.004L137.348,7.504z"/>
			<path fill="#744F4A" d="M200.143,32.428c0.463,1.018,0.668,1.396,0.744,1.438C200.689,33.189,200.393,32.668,200.143,32.428z"/>
			<path fill="#744F4A" d="M185.09,13.873l-0.422-0.191C184.988,13.85,185.08,13.887,185.09,13.873z"/>
			<path fill="#744F4A" d="M133.457,7.898c1.092-0.172,2.633-0.271,3.891-0.395C136.275,7.611,134.197,7.648,133.457,7.898z"/>
			<polygon fill="#744F4A" points="152.997,76.443 154.299,76.291 152.934,76.396 			"/>
			<path fill="#744F4A" d="M165.121,75.584c0.555,0.012,2.628-0.506,2.008-0.475C166.513,75.322,165.811,75.479,165.121,75.584z"/>
			<polygon fill="#744F4A" points="200.791,49.529 200.789,48.984 200.576,50.045 			"/>
		</g>
	</g>
</g>
<g>
	<g>
		<path fill="#42210B" d="M21.135,28.158l4.95,4.95l4.949-4.95l0.436,0.436l-4.95,4.95l4.95,4.949l-0.436,0.436l-4.949-4.949
			l-4.965,4.965l-0.436-0.436l4.965-4.965l-4.949-4.95L21.135,28.158z M21.81,34.668c-0.614,0-1.125-0.51-1.125-1.125
			s0.511-1.125,1.125-1.125c0.615,0,1.125,0.51,1.125,1.125C22.935,34.188,22.395,34.668,21.81,34.668z M24.96,29.268
			c0-0.615,0.51-1.125,1.125-1.125c0.614,0,1.125,0.51,1.125,1.125c0,0.615-0.511,1.125-1.125,1.125
			C25.439,30.393,24.96,29.854,24.96,29.268z M27.21,37.818c0,0.615-0.511,1.125-1.125,1.125c-0.615,0-1.125-0.51-1.125-1.125
			s0.51-1.125,1.125-1.125C26.729,36.693,27.21,37.232,27.21,37.818z M30.359,32.418c0.615,0,1.125,0.51,1.125,1.125
			s-0.51,1.125-1.125,1.125s-1.125-0.51-1.125-1.125C29.234,32.898,29.774,32.418,30.359,32.418z"/>
		<path fill="#42210B" d="M37.575,36.033c0.645-0.18,1.319-0.346,1.965-0.525l0.18,1.215c-1.845,0.555-3.78,1.109-5.024,1.471
			c-0.016,0.119-0.105,0.209-0.226,0.24l-0.569-1.5c0.63-0.137,1.425-0.33,2.295-0.557v-3.449h-1.83v-1.32h1.83v-2.984h-1.98v-1.32
			h5.25v1.32h-1.89v2.984h1.739v1.32h-1.739V36.033z M42.93,36.094c-0.015,0.104-0.135,0.193-0.33,0.209
			c-0.375,1.891-1.065,3.404-4.109,4.26c-0.136-0.346-0.511-0.9-0.796-1.17c2.716-0.631,3.315-1.77,3.556-3.48L42.93,36.094z
			 M45.39,38.777c0,0.42,0.06,0.465,0.375,0.465h0.944c0.315,0,0.375-0.225,0.421-1.77c0.284,0.225,0.84,0.436,1.199,0.525
			c-0.12,1.965-0.465,2.475-1.455,2.475h-1.335c-1.229,0-1.515-0.404-1.515-1.68v-3.225h-3.899v-8.416h7.26v8.416H45.39V38.777z
			 M41.46,28.338v1.259h4.529v-1.259H41.46z M41.46,30.709v1.273h4.529v-1.273H41.46z M41.46,33.094v1.305h4.529v-1.305H41.46z"/>
		<path fill="#42210B" d="M52.229,35.643l1.53-0.584l0.285,1.229c-1.53,0.705-3.165,1.41-4.215,1.846c0,0.15-0.09,0.24-0.195,0.285
			l-0.675-1.576c0.525-0.18,1.2-0.42,1.935-0.703v-4.605H49.26v-1.35h1.635v-3.51l1.665,0.09c-0.015,0.135-0.104,0.21-0.33,0.24
			v3.18h1.545v1.35h-1.545V35.643z M56.31,37.967c0,0.871,0.165,1.035,1.14,1.035h3.36c0.87,0,1.02-0.389,1.14-2.055
			c0.33,0.225,0.87,0.451,1.26,0.525c-0.194,2.115-0.63,2.805-2.295,2.805h-3.539c-1.891,0-2.431-0.48-2.431-2.311v-4.514
			l-1.319,0.57l-0.54-1.26l1.859-0.795v-3.976l1.695,0.091c-0.015,0.135-0.105,0.21-0.33,0.239v3.06l1.68-0.705v-4.155l1.681,0.105
			c-0.016,0.12-0.105,0.194-0.346,0.225v3.254l1.905-0.809l0.33-0.241l1.14,0.42c-0.045,0.059-0.104,0.135-0.21,0.195
			c0,2.863-0.03,4.949-0.12,5.549c-0.135,1.125-0.87,1.26-2.295,1.26c-0.045-0.359-0.165-0.914-0.314-1.215
			c0.314,0.029,0.734,0.029,0.885,0.029c0.21,0,0.345-0.059,0.405-0.375c0.06-0.299,0.09-1.754,0.09-4.139l-1.815,0.779v5.58h-1.335
			v-5.01l-1.68,0.734V37.967z"/>
		<path fill="#42210B" d="M64.8,28.443c0.45,0,1.095-0.015,1.515-0.045c1.53-0.12,8.55-0.585,10.8-0.645l0.016,1.59
			c-1.23-0.045-2.025,0.045-3.181,0.824c-1.935,1.23-4.034,3.465-4.034,5.279c0,1.891,1.484,3,4.979,3.42l-0.72,1.486
			c-4.275-0.557-5.896-2.266-5.896-4.891c0-1.965,1.875-4.439,4.351-6.074c-1.755,0.135-5.686,0.434-7.32,0.6
			c-0.045,0.105-0.225,0.209-0.359,0.24L64.8,28.443z M74.685,31.729c0.675,0.525,1.5,1.41,1.92,2.055l-0.735,0.57
			c-0.375-0.602-1.274-1.59-1.859-2.055L74.685,31.729z M76.38,30.393c0.704,0.555,1.515,1.381,1.92,2.041l-0.721,0.584
			c-0.375-0.57-1.215-1.529-1.875-2.055L76.38,30.393z"/>
		<path fill="#42210B" d="M87.18,29.688c-0.045,0.135-0.195,0.24-0.405,0.24c-0.585,4.92-2.114,8.414-4.635,8.414
			c-1.455,0-2.625-1.334-2.625-3.793c0-3.721,2.925-6.63,6.81-6.63c4.306,0,6.33,2.625,6.33,5.714c0,3.555-1.935,5.324-5.64,6.24
			c-0.225-0.346-0.57-0.871-0.945-1.275c3.436-0.676,4.995-2.324,4.995-4.92c0-2.445-1.62-4.365-4.755-4.365
			c-0.21,0-0.405,0.016-0.615,0.031L87.18,29.688z M85.26,29.434c-2.64,0.465-4.29,2.684-4.29,5.068
			c0,1.426,0.525,2.355,1.215,2.355C83.805,36.857,84.944,33.242,85.26,29.434z"/>
		<path fill="#42210B" d="M106.784,30.469c-0.029,0.074-0.075,0.164-0.149,0.209c-0.226,4.455-0.66,7.17-1.23,8.16
			c-0.495,0.824-1.245,1.154-2.085,1.154c-0.63,0-1.635-0.119-2.685-0.33c0.015-0.404-0.03-1.08-0.09-1.5
			c1.02,0.227,2.13,0.361,2.489,0.361c0.495,0,0.811-0.135,1.065-0.66c0.405-0.781,0.765-3.166,0.899-6.256h-4.215
			c-0.72,3.314-2.084,6.256-4.814,8.416c-0.27-0.271-0.825-0.691-1.215-0.916c2.535-1.936,3.81-4.514,4.455-7.514h-3.9v-1.396h4.17
			c0.165-1.049,0.226-1.934,0.3-3.149l1.995,0.18c-0.029,0.165-0.165,0.255-0.42,0.3c-0.09,1.021-0.149,1.771-0.3,2.669h4.35
			l0.285-0.104L106.784,30.469z"/>
		<path fill="#42210B" d="M109.725,32.553h12.524v1.5h-11.924c-0.09,0.15-0.285,0.256-0.48,0.27L109.725,32.553z"/>
		<path fill="#42210B" d="M135.3,35.207c-1.38-0.779-3.405-1.725-4.965-2.34v7.215h-1.575V26.958l2.01,0.12
			c-0.015,0.164-0.149,0.284-0.435,0.345v4.319l0.3-0.42c1.71,0.631,3.989,1.635,5.505,2.445L135.3,35.207z M133.92,27.888
			c0.63,0.51,1.484,1.44,1.965,2.116l-0.721,0.613c-0.404-0.613-1.305-1.604-1.92-2.129L133.92,27.888z M135.959,26.568
			c0.66,0.57,1.53,1.44,1.966,2.101l-0.721,0.585c-0.42-0.585-1.305-1.561-1.935-2.101L135.959,26.568z"/>
		<path fill="#42210B" d="M142.71,33.049v0.539c0.524,0.525,1.83,1.98,2.115,2.355l-0.87,1.139c-0.24-0.449-0.766-1.215-1.245-1.889
			v5.369h-1.32v-5.279c-0.495,1.305-1.109,2.549-1.755,3.359c-0.135-0.42-0.479-1.035-0.705-1.41c0.811-0.975,1.65-2.67,2.16-4.184
			h-1.935v-1.336h2.234v-5.19l1.665,0.105c-0.015,0.12-0.104,0.194-0.345,0.225v4.86h1.979v1.336H142.71z M140.22,27.543
			c0.42,1.05,0.735,2.4,0.795,3.3l-1.095,0.27c-0.03-0.885-0.33-2.265-0.705-3.315L140.22,27.543z M145.215,27.858
			c-0.045,0.105-0.165,0.165-0.345,0.165c-0.271,0.93-0.735,2.295-1.125,3.151c-0.255-0.092-0.676-0.256-0.945-0.346
			c0.36-0.9,0.78-2.355,0.975-3.375L145.215,27.858z M149.534,31.684h3.54v1.125h-8.039v-1.125h3.104v-0.781h-2.565v-1.08h2.565
			v-0.764h-2.925v-1.125h2.925v-1.41l1.74,0.105c-0.016,0.12-0.105,0.21-0.346,0.24v1.064h3.105v1.125h-3.105v0.764h2.686v1.08
			h-2.686V31.684z M152.114,33.559v5.715c0,1.215-0.57,1.318-2.625,1.318c-0.06-0.344-0.225-0.795-0.39-1.109
			c0.314,0.016,0.615,0.016,0.854,0.016c0.705,0,0.78,0,0.78-0.225v-0.885h-3.72v2.174h-1.32v-7.004H152.114z M150.734,34.652h-3.72
			v0.826h3.72V34.652z M147.015,37.354h3.72v-0.855h-3.72V37.354z"/>
		<path fill="#42210B" d="M168.044,27.588v1.154h-2.925c0.24,0.301,0.466,0.601,0.601,0.841l-0.915,0.42h1.47v5.908h-2.595v0.016
			l1.14,0.061c-0.015,0.119-0.12,0.209-0.359,0.24v0.674h3.449v1.156h-3.449v2.504h-1.455v-2.504h-3.555
			c-0.301,1.02-1.29,2.01-3.96,2.699c-0.181-0.314-0.585-0.779-0.886-1.051c2.04-0.42,2.926-1.049,3.301-1.648h-3.585v-1.156h3.824
			v-0.99h-2.04v-5.908h1.53c-0.15-0.361-0.405-0.841-0.675-1.261h-0.54c-0.435,0.585-0.9,1.125-1.365,1.531
			c-0.255-0.225-0.75-0.555-1.064-0.736c0.87-0.719,1.739-1.934,2.25-3.104l1.529,0.495c-0.06,0.135-0.194,0.165-0.345,0.135
			l-0.27,0.525h3.72v1.08c0.585-0.646,1.08-1.44,1.395-2.235l1.575,0.45c-0.045,0.104-0.165,0.165-0.345,0.165l-0.271,0.54H168.044z
			 M164.864,31.684v-0.781h-7.409v0.781H164.864z M164.864,33.348v-0.811h-7.409v0.811H164.864z M164.864,35.014v-0.811h-7.409
			v0.811H164.864z M161.145,30.004c-0.3-0.211-0.78-0.451-1.08-0.586c0.255-0.195,0.495-0.419,0.735-0.675h-2.385
			c0.21,0.315,0.39,0.646,0.495,0.9l-0.99,0.361H161.145z M163.005,36.902v-0.99h-4.26v0.016l1.185,0.045
			c-0.015,0.135-0.104,0.225-0.36,0.256v0.674H163.005z M162.465,28.743c-0.36,0.48-0.766,0.916-1.17,1.261h3.18
			c-0.225-0.361-0.585-0.856-0.945-1.261H162.465z"/>
		<path fill="#42210B" d="M177.944,35.043c-0.899,0.105-2.175,0.18-3.345,0.18c-0.075,0.766-0.075,0.855-0.075,1.109
			c0,1.965,1.17,2.326,2.715,2.326c0.63,0,1.306-0.09,1.891-0.256c0.854-0.225,1.29-0.824,1.29-1.619
			c0-0.75-0.375-1.666-1.141-2.609c0.391-0.121,1.021-0.346,1.365-0.496c0.899,1.23,1.35,2.385,1.35,3.359
			c0,3.016-3.915,3.016-4.784,3.016c-2.221,0-4.141-0.57-4.141-3.779c0-0.346,0.03-0.721,0.061-1.111
			c-1.095-0.045-3.21-0.148-3.21-1.83c0.015-0.629,0.39-1.334,1.26-1.994l1.125,0.555c-0.6,0.375-0.975,0.84-0.975,1.215
			c0,0.676,0.989,0.705,1.904,0.736c0.091-0.916,0.195-1.965,0.33-3.031c-1.02-0.09-2.22-0.359-3.029-0.75l0.33-1.379
			c0.795,0.375,1.8,0.645,2.85,0.764c0.104-0.884,0.225-1.799,0.3-2.564l2.07,0.24c-0.03,0.18-0.226,0.3-0.511,0.33
			c-0.104,0.585-0.225,1.35-0.345,2.115c0.405,0.029,0.87,0.045,1.335,0.045c0.525,0,1.065-0.016,1.53-0.061l-0.061,1.381
			c-0.435,0.029-0.96,0.045-1.484,0.045c-0.525,0-1.05-0.016-1.515-0.045c-0.12,1.004-0.24,2.023-0.33,2.955
			c1.095-0.016,2.279-0.09,3.225-0.227L177.944,35.043z"/>
		<path fill="#42210B" d="M137.895,45.572v1.426h-1.815v9.66c0,1.74-0.765,1.889-4.14,1.889c-0.075-0.42-0.375-1.125-0.6-1.529
			c0.689,0.045,1.425,0.061,1.979,0.061c1.2,0,1.275,0,1.275-0.451v-9.629h-10.29v-1.426H137.895z M132.09,54.752h-4.995v1.201
			h-1.38v-6.945h6.375V54.752z M130.694,50.357h-3.6v3.045h3.6V50.357z"/>
		<path fill="#42210B" d="M143.189,44.928c-0.045,0.105-0.18,0.18-0.375,0.195c-0.3,0.811-0.765,1.846-1.215,2.73
			c0.87-0.031,1.83-0.061,2.79-0.105c-0.285-0.51-0.615-1.02-0.93-1.471l1.2-0.494c0.779,1.064,1.635,2.475,1.949,3.42l-1.274,0.57
			c-0.075-0.256-0.195-0.541-0.33-0.84c-2.01,0.148-4.05,0.254-5.385,0.344c-0.016,0.121-0.12,0.195-0.24,0.211l-0.435-1.576
			l1.199-0.029c0.511-1.004,1.065-2.369,1.38-3.404L143.189,44.928z M145.545,50.238v6.84c0,1.244-0.51,1.5-2.64,1.5
			c-0.061-0.391-0.271-0.945-0.466-1.291c0.375,0.016,0.735,0.031,1.021,0.031c0.6,0,0.675,0,0.675-0.256v-1.215h-2.82v2.744h-1.319
			v-8.354H145.545z M144.135,51.424h-2.82v1.078h2.82V51.424z M141.314,54.768h2.82v-1.17h-2.82V54.768z M151.095,49.969
			c0.54,0,0.645-0.24,0.705-1.666c0.3,0.225,0.885,0.451,1.274,0.525c-0.149,1.904-0.555,2.414-1.859,2.414h-2.37
			c-1.605,0-2.01-0.404-2.01-1.844v-4.846l1.77,0.105c-0.015,0.135-0.104,0.211-0.345,0.256v2.023c1.185-0.42,2.385-0.914,3.18-1.35
			l0.99,1.096c-0.061,0.045-0.09,0.045-0.315,0.045c-0.975,0.465-2.46,0.959-3.854,1.379v1.275c0,0.51,0.104,0.586,0.75,0.586
			H151.095z M148.244,56.582c0,0.525,0.12,0.615,0.795,0.615h2.16c0.601,0,0.705-0.285,0.766-1.934
			c0.314,0.225,0.885,0.449,1.274,0.539c-0.18,2.084-0.57,2.641-1.92,2.641h-2.46c-1.604,0-2.024-0.42-2.024-1.846v-4.98l1.77,0.105
			c-0.015,0.121-0.12,0.211-0.36,0.256v1.904c1.261-0.436,2.521-0.99,3.346-1.529l1.02,1.125c-0.075,0.059-0.18,0.059-0.33,0.059
			c-0.975,0.557-2.58,1.096-4.035,1.531V56.582z"/>
		<path fill="#42210B" d="M154.8,46.443c0.45,0,1.095-0.016,1.515-0.045c1.53-0.121,8.55-0.586,10.8-0.645l0.016,1.59
			c-1.23-0.045-2.025,0.045-3.181,0.824c-1.935,1.23-4.034,3.465-4.034,5.279c0,1.891,1.484,3,4.979,3.42l-0.72,1.486
			c-4.275-0.557-5.896-2.266-5.896-4.891c0-1.965,1.875-4.439,4.351-6.074c-1.755,0.135-5.686,0.434-7.32,0.6
			c-0.045,0.105-0.225,0.209-0.359,0.24L154.8,46.443z M164.685,49.729c0.675,0.525,1.5,1.41,1.92,2.055l-0.735,0.57
			c-0.375-0.602-1.274-1.59-1.859-2.055L164.685,49.729z M166.38,48.393c0.704,0.555,1.515,1.381,1.92,2.041l-0.721,0.584
			c-0.375-0.57-1.215-1.529-1.875-2.055L166.38,48.393z"/>
		<path fill="#42210B" d="M169.59,47.072c0.945-0.029,5.55-0.148,6.585-0.193c0-0.211-0.061-1.816-0.09-2.221l2.04,0.09
			c-0.016,0.135-0.15,0.285-0.421,0.33c0,0.391,0.016,1.109,0.03,1.77c1.905-0.059,3.855-0.105,4.815-0.119v1.41
			c-1.155-0.016-2.94,0-4.785,0.059c0.015,0.557,0.015,1.096,0.03,1.471c0.029,0.525,0.045,0.914,0.06,1.395
			c0.195,0.586,0.21,1.291,0.21,1.65c0,3.074-2.115,4.875-4.515,5.789c-0.255-0.344-0.765-0.869-1.095-1.17
			c1.935-0.689,3.165-1.693,3.614-2.85h-0.015c-0.24,0.301-0.675,0.525-1.17,0.525c-1.335,0-2.595-1.08-2.595-2.686
			c0-1.648,1.35-2.85,2.805-2.85c0.45,0,0.885,0.121,1.185,0.33c0-0.061-0.015-0.119-0.015-0.164
			c-0.015-0.285-0.03-0.885-0.045-1.41c-2.475,0.074-4.935,0.135-6.585,0.225L169.59,47.072z M176.505,52.293
			c0-1.08-0.45-1.619-1.32-1.619s-1.53,0.658-1.53,1.648c0,0.9,0.676,1.5,1.426,1.5C175.995,53.822,176.505,53.104,176.505,52.293z"
			/>
		<path fill="#42210B" d="M188.265,56.463c0,1.154-0.945,2.1-2.1,2.1c-1.155,0-2.1-0.945-2.1-2.1s0.944-2.1,2.1-2.1
			C187.35,54.363,188.265,55.338,188.265,56.463z M187.635,56.463c0-0.811-0.66-1.471-1.47-1.471c-0.825,0-1.485,0.66-1.485,1.471
			c0,0.824,0.66,1.484,1.485,1.484C187.005,57.947,187.635,57.258,187.635,56.463z"/>
	</g>
</g>
</svg>
