<?xml version="1.0" encoding="utf-8"?>
<!-- Generator: Adobe Illustrator 16.0.0, SVG Export Plug-In . SVG Version: 6.00 Build 0)  -->
<!DOCTYPE svg PUBLIC "-//W3C//DTD SVG 1.1//EN" "http://www.w3.org/Graphics/SVG/1.1/DTD/svg11.dtd">
<svg version="1.1" id="レイヤー_1" xmlns="http://www.w3.org/2000/svg" xmlns:xlink="http://www.w3.org/1999/xlink" x="0px"
	 y="0px" width="178.793px" height="50.712px" viewBox="0 0 178.793 50.712" enable-background="new 0 0 178.793 50.712"
	 xml:space="preserve">
<g>
	<g>
		<g>
			<path fill="#E87D72" d="M174.16,22.336l-4.433-7.053c-1.499-2.385-4.118-3.83-6.933-3.83h-20.641c-3.473,0-6.8,1.396-9.23,3.875
				l-5.891,6.006l-14.048,3.254c-2.347,0.543-4.005,2.633-4.005,5.039v5.516c0,1.188,0.965,2.154,2.154,2.154h7.471
				c-0.011,0.148-0.025,0.297-0.025,0.447c0,3.881,3.148,7.029,7.032,7.029c3.882,0,7.03-3.148,7.03-7.029
				c0-0.15-0.016-0.299-0.025-0.447h22.104c-0.01,0.148-0.023,0.297-0.023,0.447c0,3.881,3.148,7.029,7.029,7.029
				c3.883,0,7.029-3.148,7.029-7.029c0-0.15-0.012-0.299-0.021-0.447h4.793c1.189,0,2.154-0.967,2.154-2.154v-7.531
				C175.682,25.744,175.154,23.918,174.16,22.336z M125.612,40.545c-1.548,0-2.8-1.256-2.8-2.801c0-1.547,1.252-2.801,2.8-2.801
				c1.546,0,2.8,1.254,2.8,2.801C128.412,39.289,127.158,40.545,125.612,40.545z M143.391,22.869h-12.662l4.847-4.941
				c1.722-1.754,4.12-2.76,6.579-2.76h1.236V22.869L143.391,22.869z M157.834,22.869h-11.196v-7.701h11.196V22.869z M161.727,40.545
				c-1.545,0-2.8-1.256-2.8-2.801c0-1.547,1.255-2.801,2.8-2.801c1.547,0,2.801,1.254,2.801,2.801
				C164.527,39.289,163.273,40.545,161.727,40.545z M161.084,22.869v-7.701h1.711c1.548,0,2.965,0.781,3.787,2.092l3.525,5.609
				H161.084L161.084,22.869z"/>
		</g>
	</g>
	<g>
		<g>
			<rect x="2.73" y="4.971" fill="#E87D72" width="51.703" height="10.645"/>
		</g>
		<g>
			<path fill="#E87D72" d="M2.73,46.029h29.652V29.809h11.988v16.221h10.063V18.656H2.73V46.029z M11.854,29.303h8.11v8.109h-8.11
				V29.303z"/>
		</g>
	</g>
	<g>
		<line fill="#E87D72" x1="65" y1="32" x2="97" y2="32"/>
		<g>
			<line fill="none" stroke="#4B4B4B" stroke-width="6" stroke-miterlimit="10" x1="73" y1="32" x2="97" y2="32"/>
			<g>
				<polygon fill="#4B4B4B" points="74,22.842 74,41.794 64.527,32.319 				"/>
			</g>
		</g>
	</g>
</g>
</svg>
