<?xml version="1.0" encoding="utf-8"?>
<!-- Generator: Adobe Illustrator 16.0.0, SVG Export Plug-In . SVG Version: 6.00 Build 0)  -->
<!DOCTYPE svg PUBLIC "-//W3C//DTD SVG 1.1//EN" "http://www.w3.org/Graphics/SVG/1.1/DTD/svg11.dtd">
<svg version="1.1" id="レイヤー_1" xmlns="http://www.w3.org/2000/svg" xmlns:xlink="http://www.w3.org/1999/xlink" x="0px"
	 y="0px" width="31.763px" height="38px" viewBox="0 0 31.763 38" enable-background="new 0 0 31.763 38" xml:space="preserve">
<g>
	<path fill="#FFFFFF" d="M5.01,3.479c-2.4,1.556-2.873,6.417-1.967,10.382c0.707,3.086,2.208,7.227,4.734,11.127
		c2.381,3.666,5.698,6.955,8.227,8.857c3.252,2.445,7.883,3.998,10.285,2.443c1.211-0.787,3.014-2.938,3.098-3.322
		c0,0-1.058-1.631-1.288-1.988l-3.546-5.463c-0.266-0.406-1.914-0.035-2.756,0.439c-1.131,0.643-2.176,2.359-2.176,2.359
		c-0.772,0.451-1.424,0.004-2.781-0.621c-1.668-0.766-3.545-3.154-5.037-5.314c-1.365-2.246-2.779-4.931-2.797-6.768
		c-0.022-1.498-0.164-2.271,0.564-2.799c0,0,1.996-0.25,3.043-1.019c0.775-0.573,1.784-1.93,1.523-2.336l-3.544-5.465
		c-0.229-0.357-1.286-1.986-1.286-1.986C8.918,1.924,6.219,2.691,5.01,3.479z"/>
</g>
</svg>
