<?xml version="1.0" encoding="utf-8"?>
<!-- Generator: Adobe Illustrator 16.0.0, SVG Export Plug-In . SVG Version: 6.00 Build 0)  -->
<!DOCTYPE svg PUBLIC "-//W3C//DTD SVG 1.1//EN" "http://www.w3.org/Graphics/SVG/1.1/DTD/svg11.dtd">
<svg version="1.1" id="レイヤー_1" xmlns="http://www.w3.org/2000/svg" xmlns:xlink="http://www.w3.org/1999/xlink" x="0px"
	 y="0px" width="609.333px" height="140px" viewBox="0 0 609.333 140" enable-background="new 0 0 609.333 140"
	 xml:space="preserve">
<g>
	<path fill="#563700" d="M56.145,91.142c1.491,0,1.914,1.02,1.914,1.615c0,0.199-0.969,8.725-7.556,12.876
		c-2.113,1.343-4.673,2.237-8.128,2.709c-0.323,0.05-1.467,0.199-1.69,0.199c-0.348,0-0.671-0.273-0.671-0.671
		c0-0.597,0.398-0.671,1.119-0.771c4.002-0.621,8.476-1.84,11.509-7.01c2.038-3.455,2.312-6.736,2.312-6.885
		c0-0.672-0.497-0.722-0.622-0.722h-7.506c-1.044,1.914-2.312,3.431-4.35,4.848c-0.795,0.571-2.411,1.541-2.833,1.541
		c-0.398,0-0.671-0.299-0.671-0.671c0-0.373,0.125-0.448,0.696-0.82c1.641-1.094,4.499-3.157,5.792-8.8
		c0.174-0.745,0.373-1.516,1.491-1.516c0.646,0,1.591,0.348,1.591,1.242c0,0.597-0.82,2.461-0.994,2.834H56.145z"/>
	<path fill="#563700" d="M72.057,94.82c0,4.772-0.397,8.327-3.53,11.16c-1.541,1.417-3.554,2.337-3.877,2.337
		c-0.348,0-0.696-0.298-0.696-0.721c0-0.373,0.124-0.473,1.367-1.243c1.69-1.068,2.834-2.783,3.381-4.697
		c0.522-1.766,0.621-4.574,0.621-6.712v-5.692c0-0.497,0-1.491,1.342-1.491c1.392,0,1.392,0.994,1.392,1.467V94.82z M77.674,103.222
		c0,0.349,0,0.746,0.447,0.746c0.398,0,3.604-1.169,6.065-6.04c0.323-0.622,0.448-0.846,0.845-0.846
		c0.398,0,0.671,0.349,0.671,0.646s-1.317,3.828-3.604,6.264c-1.591,1.69-4.474,3.53-5.518,3.53c-0.795,0-1.641-0.547-1.641-1.74
		v-16.53c0-0.497,0-1.491,1.342-1.491c1.392,0,1.392,0.97,1.392,1.467V103.222z"/>
	<path fill="#563700" d="M91.697,90.992c-0.273,0-0.919,0-0.919-0.671s0.646-0.696,0.919-0.696H108.5
		c1.442,0,1.864,1.144,1.864,1.69c0,0.895-1.541,2.884-2.486,4.052c-3.057,3.679-5.767,5.294-7.283,6.189
		c1.243,1.068,1.666,1.541,3.132,3.231c0.497,0.571,0.82,0.919,0.82,1.491c0,0.721-0.696,1.491-1.566,1.491
		c-0.622,0-0.721-0.174-1.591-1.615c-2.237-3.654-4.897-5.742-6.165-6.538c-0.597-0.397-0.845-0.547-0.845-0.919
		c0-0.373,0.323-0.672,0.696-0.672c0.771,0,3.778,2.163,4.25,2.511c0.298-0.224,1.64-1.193,1.889-1.417
		c4.424-3.952,5.792-7.481,5.792-7.705c0-0.273-0.224-0.423-0.497-0.423H91.697z"/>
	<path fill="#563700" d="M126.252,102.302c-1.317,3.58-2.709,4.549-4.499,4.549c-3.157,0-5.568-3.455-5.568-7.332
		c0-4.897,3.853-10.688,11.558-10.688c5.096,0,10.042,2.585,10.042,9.222c0,8.601-8.451,9.669-8.898,9.669
		c-0.373,0-0.696-0.298-0.696-0.696c0-0.497,0.249-0.571,1.094-0.845c1.989-0.646,5.593-3.256,5.593-8.575
		c0-5.99-4.946-7.084-6.736-7.259C127.768,95.814,127.569,98.723,126.252,102.302z M118.72,100.438c0,3.58,1.69,4.897,2.833,4.897
		c1.168,0,2.014-2.361,2.511-4.151c0.969-3.381,1.044-5.07,1.367-10.788C119.689,92.161,118.72,98.126,118.72,100.438z"/>
	<path fill="#563700" d="M160.26,107.249c-1.243,0.248-4.947,0.447-7.159,0.447c-2.411,0-8.849,0-8.849-4.002
		c0-2.038,1.74-4.102,2.336-4.102c0.373,0,0.696,0.298,0.696,0.696c0,0.224-0.075,0.323-0.298,0.621
		c-0.646,0.845-0.771,1.665-0.771,2.113c0,1.143,0.596,2.46,5.667,2.46c2.361,0,4.748-0.273,6.488-0.621
		c0.298-0.05,1.69-0.373,1.988-0.373c1.094,0,1.243,0.97,1.243,1.343C161.602,107,160.707,107.174,160.26,107.249z M158.445,91.489
		c-0.249,0-1.094-0.298-1.666-0.497c-3.132-1.118-6.488-1.118-7.01-1.118c-0.447,0-2.411,0.174-2.833,0.174
		c-0.597,0-0.721-0.447-0.721-0.671c0-0.696,0.522-0.746,0.895-0.82c0.646-0.1,2.859-0.397,5.294-0.397
		c2.958,0,5.369,0.472,6.065,0.646c0.422,0.1,1.143,0.323,1.143,1.268C159.613,90.694,159.265,91.489,158.445,91.489z"/>
	<path fill="#563700" d="M175.898,93.453c-0.05-1.218-0.099-3.206-0.099-4.449c0-0.646,0-1.74,1.441-1.74
		c0.373,0,1.442,0.1,1.442,1.343c0,0.273-0.1,1.516-0.125,1.814c-0.05,0.721-0.075,1.964-0.075,2.361
		c0,1.068,0.025,2.063,0.448,3.405c1.193-0.348,6.91-2.113,7.681-2.113c0.671,0,0.969,0.572,0.969,1.02
		c0,0.82-0.348,0.87-2.138,1.118c-3.132,0.448-6.239,1.169-9.023,2.635c-0.621,0.323-2.983,1.566-2.983,4.127
		c0,3.355,3.704,4.026,6.711,4.026c0.597,0,2.585-0.074,5.071-0.473c0.249-0.049,1.342-0.273,1.566-0.273
		c0.522,0,0.845,0.423,0.845,0.92c0,0.896-0.795,0.97-1.317,1.02c-3.132,0.298-5.816,0.348-6.513,0.348
		c-4.176,0-9.296-0.771-9.296-5.27c0-0.473,0.024-2.014,1.79-3.703c1.218-1.144,2.336-1.641,4.275-2.511
		C176.097,95.69,175.998,95.392,175.898,93.453z"/>
	<path fill="#563700" d="M198.174,103.147c-0.497,1.938-0.746,2.262-1.542,2.262c-0.721,0-1.342-0.447-1.342-1.144
		c0-0.447,0.074-0.671,0.571-2.162c0.149-0.473,2.039-6.14,2.933-8.75c-0.397,0.025-2.212,0.075-2.585,0.075
		c-0.795,0-1.094-0.224-1.094-0.722c0-0.546,0.348-0.745,1.069-0.745c1.094,0,1.814,0,3.107-0.05
		c0.348-0.895,1.168-3.331,1.293-3.629c0.199-0.522,0.546-0.82,1.143-0.82c0.572,0,1.317,0.348,1.317,1.094
		c0,0.348-0.149,0.795-0.572,1.789c-0.049,0.1-0.273,0.696-0.546,1.442c1.068-0.1,1.317-0.125,1.79-0.174
		c0.273-0.025,1.591-0.225,1.814-0.225c0.522,0,0.696,0.398,0.696,0.672c0,0.695-0.522,0.745-1.641,0.895
		c-1.118,0.149-2.635,0.273-3.231,0.273C199.988,96.908,198.671,101.184,198.174,103.147z M207.52,97.306
		c0-1.242,0-2.262,1.317-2.262s1.317,1.094,1.317,1.89c0,2.908,0,3.853,0.149,6.264c0.622,0.198,2.038,0.695,3.753,1.591
		c0.746,0.372,0.994,0.721,0.994,1.292c0,0.646-0.497,1.169-1.168,1.169c-0.373,0-0.621-0.149-1.143-0.572
		c-0.572-0.447-1.317-0.895-2.262-1.441c-0.025,0.521-0.099,1.118-0.249,1.417c-0.746,1.491-2.535,2.038-4.623,2.038
		c-2.709,0-5.071-1.069-5.071-3.032c0-1.169,1.044-3.231,5.096-3.231c0.87,0,1.615,0.124,2.113,0.174
		C207.569,100.339,207.52,99.469,207.52,97.306z M205.755,103.769c-0.597,0-2.784,0.1-2.784,1.765c0,1.193,1.143,1.765,2.46,1.765
		c0.82,0,2.511-0.124,2.511-2.063c0-0.174-0.05-1.02-0.075-1.119C207.072,103.918,206.5,103.769,205.755,103.769z M213.287,94.249
		c-1.715-1.219-3.331-1.79-4.698-2.287c-0.397-0.149-0.497-0.348-0.497-0.597c0-0.348,0.298-0.646,0.622-0.646
		c0.273,0,2.312,0.497,4.275,1.094c2.038,0.646,2.46,0.846,2.46,1.566c0,0.795-0.671,1.292-1.093,1.292
		C213.958,94.671,213.759,94.571,213.287,94.249z"/>
	<path fill="#563700" d="M233.698,95.343c4.226,0,6.835,2.585,6.835,6.064c0,4.524-4.101,6.438-7.706,7.233
		c-1.79,0.397-4.051,0.597-4.847,0.597c-0.696,0-0.82-0.447-0.82-0.721c0-0.672,0.522-0.696,1.342-0.746
		c1.715-0.1,4.524-0.298,6.835-1.964c1.541-1.118,2.237-2.809,2.237-4.424c0-2.81-1.889-4.425-4.673-4.425
		c-3.902,0-7.233,3.505-8.029,4.822c-0.397,0.696-0.571,0.994-1.268,0.994c-0.82,0-1.292-0.646-1.292-1.243
		c0-0.671,0.845-6.015,1.144-7.755c0.373-2.337,0.472-3.032,1.641-3.032c0.845,0,1.516,0.397,1.516,1.242
		c0,0.249-0.373,1.964-0.472,2.337c-0.323,1.417-0.547,2.659-0.87,4.549C227.285,97.331,229.87,95.343,233.698,95.343z
		 M235.438,91.291c-0.473,0-0.746-0.175-1.417-0.597c-2.336-1.442-4.201-1.864-6.363-2.411c-0.348-0.075-0.82-0.199-0.82-0.746
		c0-0.422,0.348-0.671,0.82-0.671c0.671,0,4.201,0.497,6.363,1.094c1.864,0.521,2.585,0.721,2.585,1.938
		C236.606,90.222,236.382,91.291,235.438,91.291z"/>
	<path fill="#563700" d="M253.835,105.757c0.746,0.722,1.143,1.094,1.143,1.814c0,0.846-0.721,1.542-1.566,1.542
		s-1.094-0.448-1.765-1.566c-1.715-2.858-3.306-4.275-4.3-5.17c-0.298-0.273-0.373-0.447-0.373-0.646
		c0-0.473,0.422-0.746,0.721-0.746C248.193,100.984,251.051,103.098,253.835,105.757z"/>
	<path fill="#FFA243" d="M286.228,87.352c-5.109,6.111-12.944,9.215-13.508,9.215c-0.313,0-0.721-0.282-0.721-0.721
		c0-0.439,0.313-0.596,0.69-0.784c4.576-2.256,8.462-5.673,11.157-9.998c0.784-1.253,1.379-1.504,2.915-1.504
		c1.942,0,2.257,0.501,3.165,1.943c1.223,1.911,4.389,6.268,10.97,9.621c0.282,0.157,0.596,0.313,0.596,0.722
		c0,0.438-0.345,0.752-0.689,0.752c-0.909,0-8.462-3.385-13.477-9.277c-0.188-0.22-0.313-0.313-0.564-0.313
		C286.541,87.007,286.416,87.133,286.228,87.352z M288.484,101.988h7.459c0.314,0,0.878,0.094,0.878,0.721
		c0,0.658-0.596,0.721-0.878,0.721h-7.459v6.551h11.127c0.313,0,0.877,0.094,0.877,0.721c0,0.658-0.596,0.721-0.877,0.721h-25.607
		c-0.282,0-0.877-0.063-0.877-0.721s0.596-0.721,0.877-0.721h10.97v-6.551h-7.334c-0.313,0-0.877-0.094-0.877-0.721
		s0.564-0.721,0.877-0.721h7.334v-5.735h-7.334c-0.25,0-0.877-0.063-0.877-0.721s0.627-0.721,0.877-0.721h18.241
		c0.313,0,0.878,0.094,0.878,0.721c0,0.658-0.596,0.721-0.878,0.721h-7.396V101.988z"/>
	<path fill="#FFA243" d="M312.215,89.264c-0.754,0.063-4.514,0.376-4.639,0.376c-0.471,0-0.879-0.376-0.879-0.909
		c0-0.908,0.283-0.877,4.074-1.128c2.258-0.125,12.131-0.596,14.387-0.752c1.223-0.095,5.484-0.345,6.143-0.345
		c0.25,0,1.16,0,1.16,0.972c0,0.877-0.471,0.877-2.193,0.939c-8.557,0.251-12.443,5.141-12.443,10.813
		c0,5.202,3.104,9.089,9.277,9.245c0.596,0.032,1.441,0.063,1.441,0.972c0,1.034-0.939,1.034-1.348,1.034
		c-5.484,0-13.164-2.319-13.164-10.499c0-7.083,6.143-10.28,8.275-11.377C319.674,88.699,312.434,89.264,312.215,89.264z"/>
	<path fill="#563700" d="M354.414,91.116c0.299,0,0.646,0.225,0.646,0.696c0,0.473-0.248,0.646-0.82,0.696
		c-2.236,0.149-3.207,0.198-5.393,0.298c0,1.069-0.025,2.113-0.025,3.182c0.547-0.074,1.268-0.148,2.162-0.148
		c6.139,0,8.252,3.256,8.252,6.338c0,4.325-3.852,5.519-6.264,6.016c-0.596,0.124-1.566,0.298-1.789,0.298
		c-0.398,0-0.672-0.298-0.672-0.695c0-0.473,0.324-0.597,1.342-0.771c0.896-0.148,4.6-0.795,4.6-4.847
		c0-4.499-4.648-4.922-6.338-4.922c-0.523,0-0.971,0.05-1.318,0.1c-0.049,6.438-0.074,7.681-0.1,8.228
		c-0.123,1.69-0.67,3.058-3.305,3.058c-2.908,0-5.867-1.715-5.867-4.798c0-2.659,1.84-5.841,6.762-7.332
		c0.023-1.069,0.023-2.437,0.023-3.604c-1.564,0.025-3.23,0.025-4.797,0.025c-1.119,0-1.467-0.1-1.467-0.696
		c0-0.447,0.299-0.671,0.746-0.671c0.646,0,5.221,0,5.518-0.025c0-0.547,0-3.058,0.025-3.555c0.051-0.745,0.248-1.242,1.318-1.242
		c0.496,0,1.316,0.148,1.316,1.242c0,0.522-0.074,2.934-0.1,3.48C350.115,91.39,354.117,91.116,354.414,91.116z M341.738,103.744
		c0,1.864,1.391,3.554,2.809,3.554c1.193,0,1.566-0.795,1.641-2.262c0.049-1.019,0.074-5.767,0.1-7.158
		C343.627,98.822,341.738,101.357,341.738,103.744z M358.193,92.509c-0.994-2.138-1.988-3.355-2.734-4.226
		c-0.248-0.299-0.373-0.473-0.373-0.696c0-0.373,0.322-0.721,0.721-0.721c0.547,0,2.486,1.74,3.629,3.008
		c1.393,1.541,1.592,2.014,1.592,2.511c0,0.82-0.771,1.367-1.318,1.367C358.863,93.752,358.615,93.429,358.193,92.509z"/>
	<path fill="#563700" d="M380.99,95.417c0.324-0.025,1.766-0.1,1.963-0.1c0.299,0,0.672,0.224,0.672,0.696
		c0,0.671-0.521,0.695-0.77,0.721c-1.766,0.1-5.146,0.199-5.793,0.199c0,0.546,0.1,3.927,0.1,4.15
		c1.393,0.397,2.686,0.746,4.947,2.113c0.994,0.597,2.113,1.268,2.113,2.063c0,0.672-0.523,1.417-1.244,1.417
		c-0.572,0-0.943-0.348-1.441-0.771c-1.393-1.218-2.41-2.088-4.301-2.858c0.025,1.491,0.025,2.411-0.197,3.082
		c-0.771,2.262-3.406,2.561-4.799,2.561c-2.809,0-5.766-1.243-5.766-3.704c0-3.032,4.176-4.523,8.004-4.275
		c0-0.596-0.051-3.231-0.051-3.777c-2.561,0-5.344,0.024-6.736-0.05c-0.248,0-0.82-0.075-0.82-0.696c0-0.373,0.25-0.721,0.697-0.721
		c0.596,0,3.281,0.1,3.828,0.1h2.982c0.025-0.746-0.025-2.511-0.025-3.307c-1.193,0-6.363-0.024-7.406-0.05
		c-0.449-0.024-0.797-0.224-0.797-0.695c0-0.249,0.15-0.696,0.697-0.696c0.447,0,1.367,0.05,1.889,0.074c1.566,0.05,4.051,0,5.592,0
		c-0.023-2.088-0.023-2.336,0-2.609c0.076-0.97,0.846-1.168,1.318-1.168c1.393,0,1.393,0.969,1.393,1.516
		c0,0.696,0,1.566-0.025,2.237c1.914,0,3.156-0.05,3.654-0.074c0.422,0,2.385-0.125,2.684-0.125c0.398,0,0.672,0.323,0.672,0.696
		c0,0.646-0.547,0.671-1.094,0.721c-1.914,0.124-4.973,0.149-5.916,0.174c0.025,0.522,0.025,2.81,0.025,3.281
		C378.23,95.517,378.951,95.491,380.99,95.417z M373.633,102.153c-2.287,0-4.723,1.242-4.723,2.908c0,1.317,1.367,2.112,3.033,2.112
		c0.371,0,1.914,0,2.385-1.467c0.225-0.671,0.199-0.944,0.174-3.479C374.254,102.203,373.955,102.153,373.633,102.153z"/>
	<path fill="#563700" d="M401.725,92.285c3.703,0,4.424,2.237,4.424,5.567c0,3.281-0.943,10.515-4.623,10.515
		c-1.242,0-2.51-0.671-3.33-1.094c-0.846-0.447-1.068-0.646-1.068-1.02c0-0.447,0.373-0.721,0.721-0.721
		c0.199,0,0.322,0.075,0.721,0.323c0.473,0.299,1.49,0.771,2.037,0.771c1.467,0,2.859-4.474,2.859-8.501
		c0-4.126-0.945-4.573-2.561-4.573c-0.77,0-1.441,0.074-2.213,0.248c-1.191,3.604-4.35,12.776-4.473,13.1
		c-0.174,0.473-0.473,1.218-1.367,1.218c-0.621,0-1.467-0.397-1.467-1.268c0-0.372,0.223-0.969,0.572-1.914
		c1.342-3.579,1.59-4.275,3.777-10.539c-0.621,0.174-3.953,1.094-4.051,1.094c-0.498,0-0.746-0.422-0.746-0.771
		c0-0.671,0.473-0.771,1.441-0.994c1.516-0.373,2.436-0.571,3.902-0.845c0.248-0.746,1.342-4.127,1.592-4.798
		c0.123-0.348,0.371-0.969,1.191-0.969c0.598,0,1.418,0.397,1.418,1.192c0,0.323-0.225,0.944-0.373,1.393
		c-0.148,0.397-0.646,1.864-0.969,2.783C400.258,92.359,400.904,92.285,401.725,92.285z M409.529,91.39
		c1.145,1.417,3.307,4.226,3.307,5.271c0,0.895-0.795,1.491-1.615,1.491c-0.92,0-1.02-0.273-1.617-2.213
		c-0.521-1.665-0.994-2.783-2.311-4.747c-0.324-0.473-0.473-0.696-0.473-0.92c0-0.497,0.447-0.746,0.771-0.746
		C408.039,89.525,408.834,90.521,409.529,91.39z"/>
	<path fill="#563700" d="M421.838,90.098c0.025-1.094,0.025-2.014,1.441-2.014c1.393,0,1.393,0.944,1.393,1.417
		c0,0.074-0.15,4.201-0.174,4.648c1.764-0.05,6.289-0.149,6.736-0.149c0-0.845-0.125-4.599-0.125-5.369c0-0.323,0-1.467,1.367-1.467
		c1.393,0,1.393,0.87,1.393,2.81c0,1.242,0,2.759-0.025,3.977c1.889,0,3.381,0,3.604,0.025c0.473,0.05,0.721,0.198,0.721,0.695
		c0,0.696-0.596,0.696-0.969,0.696h-3.355c0.025,4.25,0.025,5.593-0.547,6.413c-0.695,0.994-1.516,1.118-3.953,1.118
		c-0.422,0-1.094,0-1.094-0.745c0-0.224,0.1-0.721,0.771-0.721c1.02,0,1.566,0,1.939-0.722c0.297-0.621,0.297-4.374,0.273-5.344
		c-1.492,0.024-2.014,0.05-6.762,0.174c-0.049,1.268-0.148,4.002-0.148,5.245c0,4.35,0.895,6.114,5.766,6.114
		c0.871,0,2.387-0.1,3.033-0.148c0.299-0.025,1.689-0.175,1.963-0.175c0.672,0,0.82,0.572,0.82,0.771
		c0,0.299-0.174,0.672-0.795,0.746c-0.273,0.024-3.256,0.149-5.096,0.149c-5.518,0-8.352-0.572-8.352-7.035
		c0-1.292,0.074-4.399,0.125-5.567c-0.623,0-3.654,0.199-3.953,0.199c-0.496,0-0.721-0.373-0.721-0.722
		c0-0.695,0.596-0.721,0.92-0.721c0.596-0.024,3.207-0.148,3.754-0.174C421.789,93.13,421.838,90.794,421.838,90.098z"/>
	<path fill="#563700" d="M457.857,89.75c-4.797,2.809-9.719,7.059-9.719,7.805c0,0.373,0.25,0.521,2.686,2.112
		c4.623,3.008,6.586,4.499,8.898,6.289c0.596,0.473,1.043,0.82,1.043,1.517c0,0.869-0.695,1.665-1.541,1.665
		c-0.547,0-0.795-0.249-1.316-0.746c-4.6-4.35-6.885-5.94-11.311-8.998c-0.895-0.621-1.217-0.895-1.217-1.466
		c0-0.97,3.008-3.778,4.523-5.195c1.641-1.517,2.287-2.063,6.637-5.568c0.273-0.224,0.521-0.397,0.969-0.397
		c0.971,0,1.541,0.896,1.541,1.566C459.051,89.054,458.578,89.327,457.857,89.75z"/>
	<path fill="#563700" d="M474.393,93.155c-1.293,0.05-2.908,0.099-4.201,0.099c-0.646,0-0.871-0.248-0.871-0.721
		c0-0.695,0.598-0.695,0.82-0.695c1.617,0,3.107-0.025,4.699-0.1c0.123-0.349,1.094-3.455,1.217-3.778
		c0.225-0.547,0.623-0.97,1.268-0.97c0.746,0,1.443,0.547,1.443,1.193c0,0.249-0.176,0.82-0.35,1.268
		c-0.248,0.621-0.297,0.846-0.744,2.163c0.422-0.025,2.262-0.125,2.635-0.149c0.248,0,1.391-0.1,1.541-0.1
		c0.373,0,0.67,0.273,0.67,0.696c0,0.521-0.273,0.671-0.994,0.721c-2.609,0.174-2.857,0.198-4.324,0.248
		c-2.859,8.676-3.48,10.813-4.002,12.578c-0.646,2.188-0.795,2.56-1.766,2.56c-0.646,0-1.416-0.422-1.416-1.242
		c0-0.398,0.396-1.566,0.721-2.486c0.521-1.565,1.59-4.847,2.361-7.258L474.393,93.155z M479.588,103.023
		c0,0.124-0.076,0.298-0.225,0.646c-0.174,0.398-0.273,0.672-0.273,1.02c0,2.112,2.51,2.112,4.027,2.112
		c1.367,0,2.584-0.074,3.654-0.248c0.322-0.05,1.664-0.323,2.037-0.323c0.771,0,1.02,0.646,1.02,1.094
		c0,1.292-0.92,1.342-4.971,1.342c-3.357,0-7.482,0-7.482-3.529c0-1.044,0.572-2.809,1.393-2.809
		C479.164,102.327,479.588,102.575,479.588,103.023z M482.396,94.298c1.988,0,5.84,0.349,6.76,0.547
		c0.697,0.149,1.145,0.423,1.145,1.219c0,0.547-0.324,1.242-0.994,1.242c-0.447,0-2.014-0.597-2.486-0.745
		c-1.242-0.373-2.883-0.696-4.871-0.796c-0.623-0.024-0.994-0.198-0.994-0.695C480.955,94.447,481.252,94.298,482.396,94.298z
		 M489.455,90.247c0,0.472-0.498,0.845-0.92,0.845c-0.322,0-0.473-0.174-1.168-1.144c-0.299-0.423-0.572-0.696-1.094-1.268
		c-0.074-0.074-0.225-0.273-0.225-0.473c0-0.348,0.299-0.646,0.746-0.596C487.143,87.662,489.455,89.501,489.455,90.247z
		 M491.643,88.681c0,0.423-0.398,0.87-0.82,0.87c-0.273,0-0.398-0.1-1.143-0.97c-0.176-0.198-0.996-0.994-1.145-1.168
		c-0.1-0.1-0.199-0.249-0.199-0.447c0-0.299,0.273-0.597,0.697-0.597C489.307,86.369,491.643,87.935,491.643,88.681z"/>
	<path fill="#563700" d="M497.563,93.652c-0.473,0-0.795-0.224-0.795-0.696c0-0.696,0.695-0.696,0.844-0.696
		c3.033,0,6.041-0.124,9.074-0.273c-1.541-3.032-1.717-3.355-1.717-3.778c0-0.771,0.523-1.268,1.27-1.268
		c0.869,0,1.143,0.522,1.516,1.243c0.273,0.571,1.49,3.082,1.74,3.604c0.994-0.1,3.057-0.299,4.275-0.473
		c0.197-0.024,0.744-0.124,0.895-0.124c0.299,0,0.67,0.248,0.67,0.696c0,0.621-0.471,0.671-0.994,0.745
		c-1.117,0.174-1.963,0.273-4.176,0.473c0.672,1.292,1.791,3.405,2.461,4.647c1.094,2.014,1.219,2.237,1.219,2.66
		c0,0.746-0.721,1.268-1.367,1.268c-0.422,0-0.572-0.1-1.318-0.571c-0.174-0.1-2.908-1.641-6.287-1.641
		c-3.059,0-4.525,1.814-4.525,3.778c0,0.969,0.398,1.889,1.02,2.56c1.193,1.293,3.207,1.517,4.697,1.517
		c1.367,0,3.258-0.299,4.574-0.621c0.248-0.05,1.342-0.349,1.492-0.349c0.473,0,0.895,0.398,0.895,0.896
		c0,0.671-0.473,0.745-1.766,1.019c-1.367,0.273-3.828,0.497-5.418,0.497c-1.641,0-4.697-0.149-6.438-1.491
		c-1.145-0.87-1.889-2.312-1.889-3.902c0-2.312,1.639-5.27,6.908-5.27c2.014,0,4.027,0.348,5.941,1.019
		c-0.994-1.938-2.51-4.871-2.982-5.791C505.342,93.479,500.645,93.652,497.563,93.652z"/>
	<path fill="#563700" d="M527.469,107.397c-1.217,0-4.523-0.87-4.523-9.098c0-3.132,0.521-6.114,0.846-7.729
		c0.148-0.796,0.297-1.716,1.59-1.716c0.695,0,1.516,0.397,1.516,1.293c0,0.298-0.273,1.268-0.447,1.814
		c-0.621,2.112-0.869,4.972-0.869,6.587c0,4.822,1.74,6.786,2.66,6.786c0.67,0,1.467-1.02,1.689-1.293
		c0.248-0.323,0.373-0.497,0.695-0.497c0.447,0,0.697,0.423,0.697,0.696C531.322,104.912,529.607,107.397,527.469,107.397z
		 M539.102,92.409c1.367,2.287,2.313,4.946,2.709,8.078c0.051,0.349,0.125,1.517,0.125,1.914c0,0.944-0.498,1.591-1.566,1.591
		c-1.316,0-1.316-1.094-1.316-1.392c0-0.299,0.074-1.616,0.074-1.864c0-1.914-0.398-5.618-2.213-8.65
		c-0.373-0.621-0.422-0.671-0.422-0.895c0-0.423,0.422-0.696,0.721-0.696C537.436,90.495,537.934,90.495,539.102,92.409z"/>
	<path fill="#563700" d="M560.035,106.056c0,1.019-0.82,1.864-1.863,1.864c-1.02,0-1.865-0.846-1.865-1.864
		c0-1.044,0.846-1.89,1.865-1.89C559.189,104.166,560.035,105.012,560.035,106.056z M559.09,101.88
		c-0.023,0.298-0.197,0.895-0.918,0.895c-0.572,0-0.896-0.373-0.92-0.895l-0.721-12.727c-0.025-0.547,0.297-1.566,1.641-1.566
		c1.217,0,1.664,0.87,1.615,1.566L559.09,101.88z"/>
</g>
<g>
	<g>
		<polyline fill="none" stroke="#B29E4B" stroke-width="2" stroke-miterlimit="10" points="592,126 592,128 590,128 		"/>
		
			<line fill="none" stroke="#B29E4B" stroke-width="2" stroke-miterlimit="10" stroke-dasharray="5,5" x1="585" y1="128" x2="21" y2="128"/>
		<polyline fill="none" stroke="#B29E4B" stroke-width="2" stroke-miterlimit="10" points="18,128 16,128 16,126 		"/>
		
			<line fill="none" stroke="#B29E4B" stroke-width="2" stroke-miterlimit="10" stroke-dasharray="5,5" x1="16" y1="121" x2="16" y2="70"/>
		<polyline fill="none" stroke="#B29E4B" stroke-width="2" stroke-miterlimit="10" points="16,67 16,65 18,65 		"/>
		
			<line fill="none" stroke="#B29E4B" stroke-width="2" stroke-miterlimit="10" stroke-dasharray="5,5" x1="23" y1="65" x2="587" y2="65"/>
		<polyline fill="none" stroke="#B29E4B" stroke-width="2" stroke-miterlimit="10" points="590,65 592,65 592,67 		"/>
		
			<line fill="none" stroke="#B29E4B" stroke-width="2" stroke-miterlimit="10" stroke-dasharray="5,5" x1="592" y1="72" x2="592" y2="123"/>
	</g>
</g>
<g>
	<g>
		<path fill="#FFA243" d="M91.719,36.301c0,0.78,0,2.04-1.65,2.04c-1.62,0-1.62-1.23-1.62-2.04v-6.72H81.1
			c-2.459,0-3.54-0.72-3.54-3.15v-7.32c0-2.64,1.38-3.15,3.54-3.15h7.35v-3.3c0-0.78,0-2.04,1.62-2.04c1.65,0,1.65,1.26,1.65,2.04
			v3.3h7.35c2.4,0,3.54,0.69,3.54,3.15v7.32c0,2.67-1.41,3.15-3.54,3.15h-7.35V36.301z M88.45,17.342h-6.09
			c-1.32,0-1.56,0.63-1.56,1.56v7.74c0,1.29,0.57,1.56,1.56,1.56h6.09V17.342z M91.719,28.201h6.09c0.87,0,1.56-0.18,1.56-1.56
			v-7.74c0-1.05-0.33-1.56-1.56-1.56h-6.09V28.201z"/>
		<path fill="#FFA243" d="M119.919,12.692c0-0.57,0-2.1,1.65-2.1s1.65,1.5,1.65,2.1v3.6h11.37c0.3,0,0.84,0.09,0.84,0.69
			c0,0.63-0.57,0.69-0.84,0.69h-11.37v6.84h5.61c2.22,0,3.15,0.78,3.15,2.85v7.56c0,2.37-1.29,2.82-3.15,2.82h-14.52
			c-2.13,0-3.149-0.69-3.149-2.82v-7.56c0-2.28,1.2-2.85,3.149-2.85h5.61v-6.84H108.58c-0.33,0-0.84-0.09-0.84-0.69
			c0-0.63,0.54-0.69,0.84-0.69h11.339V12.692z M128.709,27.301c0-1.11-0.24-1.41-1.38-1.41H115.84c-1.17,0-1.41,0.33-1.41,1.41v7.68
			c0,1.11,0.27,1.41,1.41,1.41h11.489c1.17,0,1.38-0.33,1.38-1.41V27.301z"/>
		<path fill="#FFA243" d="M151.419,12.662c0-0.51,0-2.04,1.62-2.04c1.65,0,1.65,1.5,1.65,2.04v1.23h10.68
			c0.27,0,0.84,0.09,0.84,0.69c0,0.66-0.63,0.69-0.84,0.69h-10.68v2.28h5.91c2.13,0,2.97,0.81,2.97,2.67v6.419
			c0,2.07-1.11,2.64-2.97,2.64h-5.91v2.55h11.399c0.33,0,0.84,0.12,0.84,0.69c0,0.63-0.54,0.69-0.84,0.69h-11.399v3.09
			c0,0.51,0,2.04-1.62,2.04c-1.65,0-1.65-1.5-1.65-2.04v-3.09h-11.31c-0.33,0-0.84-0.09-0.84-0.69s0.54-0.69,0.84-0.69h11.31v-2.55
			h-5.82c-2.1,0-2.97-0.78-2.97-2.64v-6.419c0-2.04,1.08-2.67,2.97-2.67h5.82v-2.28H140.89c-0.24,0-0.84-0.06-0.84-0.69
			c0-0.6,0.57-0.69,0.84-0.69h10.529V12.662z M151.419,18.932h-4.26c-1.14,0-1.29,0.36-1.29,1.29v2.4h5.55V18.932z M151.419,24.001
			h-5.55v2.64c0,0.93,0.15,1.29,1.29,1.29h4.26V24.001z M154.689,22.622h5.67v-2.4c0-0.93-0.18-1.29-1.29-1.29h-4.38V22.622z
			 M154.689,27.931h4.38c1.11,0,1.29-0.36,1.29-1.29v-2.64h-5.67V27.931z"/>
		<path fill="#FFA243" d="M171.16,38.161c-0.39,0-0.69-0.3-0.69-0.66c0-0.15,0.03-0.3,0.21-0.51c1.17-1.38,1.71-2.76,2.4-4.59
			c0.24-0.6,0.66-0.96,1.35-0.96c0.93,0,1.74,0.75,1.74,1.53C176.17,34.501,171.79,38.161,171.16,38.161z M182.02,28.681
			c0,1.68-0.75,2.37-2.73,2.37h-4.709c-2.13,0-2.73-0.84-2.73-2.37V14.072c0-1.65,0.78-2.37,2.73-2.37h4.709
			c2.16,0,2.73,0.87,2.73,2.37V28.681z M179.08,17.492v-3.18c0-0.99-0.21-1.23-1.23-1.23h-1.83c-1.02,0-1.23,0.24-1.23,1.23v3.18
			H179.08z M174.79,18.872v4.65h4.29v-4.65H174.79z M174.79,24.871v3.57c0,1.02,0.21,1.26,1.23,1.26h1.83
			c1.02,0,1.23-0.24,1.23-1.26v-3.57H174.79z M180.16,33.181c0.12,0.39,0.81,1.74,0.81,2.1c0,0.42-0.33,0.69-0.69,0.69
			c-0.54,0-2.97-2.31-2.97-3.24c0-0.69,0.66-1.32,1.47-1.32S179.68,31.681,180.16,33.181z M195.399,19.142
			c1.2,0,1.98,0.63,1.98,1.74c0,0.72-0.6,6.87-3.75,11.31c1.62,2.37,2.22,2.79,4.74,4.62c0.18,0.12,0.3,0.3,0.3,0.57
			c0,0.48-0.39,0.75-0.72,0.75c-0.3,0-3.06-1.29-5.729-4.23c-2.28,2.49-6.06,4.41-6.51,4.41c-0.39,0-0.69-0.33-0.69-0.69
			c0-0.27,0.12-0.48,0.36-0.6c2.16-1.23,4.02-2.88,5.43-4.86c-2.88-4.11-3.479-9.09-3.479-9.27c0-0.87,0.81-1.41,1.62-1.41
			c0.96,0,1.35,0.51,1.5,1.38c0.48,3.09,0.66,4.38,1.77,6.78c1.14-2.46,1.92-5.94,1.92-8.58c0-0.3-0.18-0.54-0.57-0.54h-6.69v2.37
			c0,2.64-0.06,8.64-3.69,13.379c-0.48,0.63-1.47,1.83-1.98,1.83c-0.39,0-0.66-0.27-0.66-0.66c0-0.3,0.93-1.59,1.11-1.89
			c2.28-3.99,2.28-9.689,2.28-11.79v-9.18c0-2.07,0.93-2.85,3.15-2.85h10.41c0.24,0,0.84,0.06,0.84,0.69c0,0.6-0.54,0.69-0.84,0.69
			h-9.209c-1.14,0-1.41,0.27-1.41,1.38v4.65H195.399z"/>
		<path fill="#FFA243" d="M229.179,26.791c0,1.71-1.47,1.71-1.62,1.71c-0.39,0-1.65-0.12-1.65-1.71v-1.74
			c0-0.66-0.15-0.81-0.84-0.81H206.86c-0.72,0-0.84,0.15-0.84,0.81v1.74c0,1.71-1.41,1.71-1.62,1.71c-0.3,0-1.65-0.09-1.65-1.71
			v-1.62c0-2.19,1.2-2.31,2.73-2.31h20.969c1.71,0,2.729,0.24,2.729,2.31V26.791z M214.419,12.662c0-0.75,0-2.04,1.59-2.04
			c1.62,0,1.65,1.29,1.65,2.04v0.84h10.71c0.24,0,0.9,0,0.9,0.69s-0.66,0.69-0.9,0.69h-10.71v3.66h8.61c0.24,0,0.9,0,0.9,0.69
			s-0.66,0.69-0.9,0.69H205.75c-0.24,0-0.9,0-0.9-0.69s0.66-0.69,0.9-0.69h8.669v-3.66H203.71c-0.24,0-0.93,0-0.93-0.69
			s0.69-0.69,0.93-0.69h10.709V12.662z M210.79,27.931c0-0.99,0.06-2.07,1.65-2.07c1.65,0,1.65,1.29,1.65,2.07v1.32
			c0,8.01-9.87,8.94-10.349,8.94c-0.51,0-0.75-0.39-0.75-0.69c0-0.54,0.51-0.66,0.96-0.75c6.569-1.38,6.839-5.97,6.839-7.14V27.931z
			 M220.599,34.951c0,1.05,0.09,1.35,1.41,1.35h1.92c1.62,0,2.07-0.54,2.43-2.4c0.21-1.05,0.36-1.86,1.59-1.86
			c0.63,0,1.71,0.36,1.71,1.47c0,0.63-0.3,2.1-0.96,3c-0.54,0.75-1.41,1.17-3.21,1.17h-4.89c-1.92,0-3.15-0.57-3.15-2.91v-6.93
			c0-0.75,0-1.98,1.56-1.98c1.59,0,1.59,1.23,1.59,1.98V34.951z"/>
		<path fill="#563700" d="M244.925,28.875c-1.378,3.744-2.834,4.758-4.707,4.758c-3.302,0-5.824-3.614-5.824-7.67
			c0-5.122,4.03-11.18,12.09-11.18c5.331,0,10.505,2.704,10.505,9.646c0,8.997-8.841,10.115-9.309,10.115
			c-0.39,0-0.728-0.312-0.728-0.728c0-0.52,0.26-0.598,1.144-0.884c2.08-0.676,5.85-3.406,5.85-8.97c0-6.266-5.174-7.41-7.046-7.592
			C246.511,22.088,246.303,25.13,244.925,28.875z M237.046,26.924c0,3.744,1.768,5.123,2.964,5.123c1.222,0,2.106-2.47,2.626-4.342
			c1.014-3.536,1.092-5.304,1.43-11.284C238.061,18.266,237.046,24.506,237.046,26.924z"/>
		<path fill="#563700" d="M280.883,18.917c2.184,0,2.184,1.976,2.184,2.418c0,0.104,0,5.044-1.118,9.672
			c-0.78,3.276-1.534,4.082-2.99,4.082c-0.988,0-3.276-0.936-4.342-1.404c-0.52-0.234-0.936-0.416-0.936-0.91
			c0-0.416,0.338-0.728,0.754-0.728c0.26,0,1.352,0.52,1.586,0.598c0.208,0.078,1.04,0.39,1.534,0.39c0.468,0,1.222,0,1.898-3.77
			c0.208-1.144,0.702-4.628,0.702-7.358c0-0.624,0-1.56-1.066-1.56h-5.747c-0.208,3.068-0.65,8.034-4.914,11.675
			c-2.314,1.976-5.59,3.172-5.85,3.172c-0.338,0-0.676-0.312-0.676-0.728c0-0.442,0.13-0.52,1.326-1.092
			c6.734-3.276,7.072-10.348,7.202-13.026h-6.656c-0.182,0-0.884,0-0.884-0.702c0-0.728,0.65-0.728,0.858-0.728h6.708l0.052-4.212
			c0-0.572,0.026-1.534,1.456-1.534c1.482,0,1.456,1.17,1.456,1.56l-0.052,4.187H280.883z"/>
		<path fill="#563700" d="M310.653,23.57c0.962,0,0.962,0.806,0.962,0.884c0,0.208-0.078,0.91-0.988,0.91h-20.853
			c-0.988,0-0.988-0.806-0.988-0.884c0-0.598,0.39-0.91,0.962-0.91H310.653z"/>
		<path fill="#563700" d="M322.509,24.09c-1.065-0.702-2.834-1.716-4.628-2.366c-0.416-0.156-0.676-0.364-0.676-0.78
			c0-0.468,0.442-0.728,0.832-0.728c0.364,0,2.47,0.416,4.472,1.092c2.393,0.832,2.99,1.248,2.99,2.132
			c0,0.832-0.701,1.456-1.403,1.456C323.783,24.896,323.602,24.818,322.509,24.09z M320.56,31.631
			c8.736-1.144,13.546-6.995,15.782-10.687c0.806-1.326,0.884-1.456,1.274-1.456c0.39,0,0.701,0.338,0.701,0.676
			c0,0.182-2.521,6.422-7.618,10.192c-2.6,1.924-5.252,2.99-7.384,3.614c-0.702,0.208-2.496,0.728-3.042,0.728
			c-1.04,0-1.482-0.884-1.482-1.456C318.791,31.943,319.467,31.787,320.56,31.631z M325.499,18.11
			c-1.689-1.612-2.704-2.21-4.029-2.964c-0.625-0.364-0.832-0.52-0.832-0.884c0-0.442,0.363-0.754,0.754-0.754
			c0.494,0,4.004,1.586,4.81,1.976c1.664,0.832,1.977,1.196,1.977,1.872c0,0.832-0.702,1.456-1.378,1.456
			C326.279,18.812,326.071,18.656,325.499,18.11z"/>
		<path fill="#563700" d="M348.613,27.418c-0.234,0-0.78,0-0.78-0.572c0-0.572,0.52-0.572,0.78-0.572h10.765v-4.368
			c0-0.442-0.286-0.832-0.832-0.832h-10.661c-0.208,0-0.754,0-0.754-0.572c0-0.572,0.521-0.572,0.754-0.572h12.064
			c1.066,0,1.742,0.754,1.742,1.716v11.024c0,0.936-0.649,1.716-1.742,1.716h-12.22c-0.234,0-0.78,0-0.78-0.572
			c0-0.572,0.52-0.572,0.78-0.572h10.816c0.546,0,0.832-0.364,0.832-0.832v-4.992H348.613z"/>
		<path fill="#563700" d="M375.887,25.729c-0.598-1.95-1.248-3.016-1.897-4.056c-0.209-0.338-0.286-0.468-0.286-0.65
			c0-0.338,0.286-0.572,0.598-0.572c0.338,0,1.196,1.04,1.612,1.534c1.195,1.43,2.366,3.354,2.366,3.952
			c0,0.78-0.65,1.17-1.171,1.17C376.303,27.081,376.173,26.639,375.887,25.729z M390.161,20.165c0,0.338-0.598,5.252-2.704,8.84
			c-1.534,2.574-4.108,5.097-8.996,6.708c-0.26,0.078-0.78,0.26-0.988,0.26c-0.286,0-0.571-0.26-0.571-0.572
			c0-0.416,0.233-0.468,0.884-0.702c3.198-1.092,8.84-4.108,9.698-13.546c0.156-1.69,0.208-2.236,1.378-2.236
			C389.615,18.917,390.161,19.384,390.161,20.165z M381.347,23.57c-0.441-1.326-0.701-1.82-1.273-2.834
			c-0.313-0.572-0.364-0.65-0.364-0.806c0-0.286,0.26-0.546,0.598-0.546c0.572,0,3.511,3.744,3.511,4.706
			c0,0.806-0.78,1.118-1.066,1.118C381.919,25.208,381.841,25,381.347,23.57z"/>
		<path fill="#563700" d="M415.875,15.718c1.248,0,2.106,0.936,2.106,2.08c0,0.052-1.274,9.438-9.179,14.145
			c-2.21,1.3-4.082,1.95-7.462,2.756c-0.13,0.026-0.494,0.13-0.676,0.13c-0.339,0-0.677-0.286-0.677-0.702
			c0-0.572,0.546-0.702,0.884-0.78c2.314-0.572,8.19-2.132,11.701-8.866c1.352-2.574,2.158-5.72,2.158-6.37
			c0-0.494-0.286-0.962-0.963-0.962h-13.442c-0.286,0-0.936,0-0.936-0.728c0-0.702,0.649-0.702,0.936-0.702H415.875z
			 M422.401,14.028c0,1.326-1.118,2.496-2.522,2.496c-1.352,0-2.496-1.092-2.496-2.496c0-1.456,1.196-2.522,2.496-2.522
			C421.257,11.506,422.375,12.624,422.401,14.028z M418.527,14.028c0,0.754,0.598,1.353,1.352,1.353c0.78,0,1.378-0.624,1.378-1.353
			c0-0.78-0.649-1.378-1.378-1.378C419.177,12.65,418.527,13.222,418.527,14.028z"/>
		<path fill="#563700" d="M444.604,17.2c1.561,0,2.003,1.066,2.003,1.69c0,0.208-1.015,9.126-7.904,13.469
			c-2.21,1.404-4.889,2.34-8.503,2.834c-0.338,0.052-1.534,0.208-1.768,0.208c-0.364,0-0.702-0.286-0.702-0.702
			c0-0.624,0.416-0.702,1.17-0.806c4.187-0.65,8.866-1.924,12.038-7.333c2.133-3.614,2.418-7.046,2.418-7.202
			c0-0.702-0.52-0.754-0.649-0.754h-7.853c-1.092,2.002-2.418,3.588-4.55,5.07c-0.832,0.598-2.522,1.612-2.964,1.612
			c-0.416,0-0.702-0.312-0.702-0.702s0.13-0.468,0.728-0.858c1.716-1.144,4.706-3.302,6.059-9.205c0.182-0.78,0.39-1.586,1.56-1.586
			c0.677,0,1.664,0.364,1.664,1.3c0,0.624-0.857,2.574-1.04,2.964H444.604z"/>
		<path fill="#563700" d="M459.503,26.197c0,0.546,0,1.56-1.43,1.56c-1.482,0-1.482-0.988-1.482-1.534V15.016
			c0-0.572,0-1.56,1.431-1.56c1.481,0,1.481,0.988,1.481,1.534V26.197z M471.229,21.621c0,8.346-2.027,11.076-5.564,12.714
			c-1.325,0.624-3.899,1.378-5.122,1.378c-0.39,0-0.728-0.312-0.728-0.728c0-0.624,0.52-0.702,1.222-0.832
			c7.124-1.248,7.28-7.098,7.28-12.351V14.86c0-0.572,0-1.56,1.431-1.56c1.481,0,1.481,0.988,1.481,1.534V21.621z"/>
		<path fill="#563700" d="M481.291,20.346c-0.286,0-0.937,0-0.937-0.702c0-0.728,0.65-0.728,0.937-0.728h12.091v-4.083
			c0-0.546,0-1.56,1.43-1.56c1.482,0,1.482,0.988,1.482,1.534v4.108h5.122c0.26,0,0.936,0,0.936,0.702
			c0,0.728-0.649,0.728-0.936,0.728h-5.122v11.493c0,2.106,0,3.198-2.393,3.198c-0.858,0-1.612-0.156-3.563-0.598
			c-0.624-0.13-0.832-0.338-0.832-0.702c0-0.39,0.286-0.65,0.677-0.65c0.233,0,0.962,0.208,1.118,0.234
			c0.416,0.104,0.779,0.13,0.987,0.13c0.729,0,1.093-0.234,1.093-1.586V21.23c-2.757,4.992-5.564,7.28-6.709,8.216
			c-2.756,2.236-5.096,3.458-5.382,3.458c-0.338,0-0.676-0.286-0.676-0.702c0-0.286,0.052-0.39,1.144-1.144
			c3.017-2.054,6.604-5.434,8.606-10.712H481.291z"/>
		<path fill="#563700" d="M510.28,17.044c-0.312,0-0.936,0-0.936-0.702s0.624-0.702,0.936-0.702h13.209
			c1.378,0,1.872,1.118,1.872,1.768c0,1.248-1.924,5.356-4.03,8.294c4.057,2.158,6.11,4.004,6.267,4.134
			c1.56,1.404,1.924,1.716,1.924,2.366c0,0.65-0.572,1.534-1.56,1.534c-0.677,0-0.807-0.156-1.925-1.638
			c-1.534-2.08-3.51-3.77-5.642-5.2c-0.729,0.884-2.965,3.536-7.645,5.616c-1.95,0.858-3.926,1.456-4.135,1.456
			c-0.363,0-0.676-0.312-0.676-0.702c0-0.494,0.13-0.546,1.561-1.066c10.088-3.666,12.454-13.702,12.454-14.482
			c0-0.26-0.13-0.676-0.754-0.676H510.28z"/>
	</g>
</g>
</svg>
