<?xml version="1.0" encoding="utf-8"?>
<!-- Generator: Adobe Illustrator 16.0.0, SVG Export Plug-In . SVG Version: 6.00 Build 0)  -->
<!DOCTYPE svg PUBLIC "-//W3C//DTD SVG 1.1//EN" "http://www.w3.org/Graphics/SVG/1.1/DTD/svg11.dtd">
<svg version="1.1" id="レイヤー_1" xmlns="http://www.w3.org/2000/svg" xmlns:xlink="http://www.w3.org/1999/xlink" x="0px"
	 y="0px" width="109.305px" height="40.831px" viewBox="0 0 109.305 40.831" enable-background="new 0 0 109.305 40.831"
	 xml:space="preserve">
<polygon fill="#B3B3B3" points="106.027,4 54.5,38.231 2.973,4 "/>
</svg>
